https://csi-blog.com/altoro-mutual/
http://blog.dornea.nu/2013/05/06/hacking-altoro-mutual/
https://www.youtube.com/watch?v=gtBRZFSF9pM
https://www.lsablog.com/networksec/penetration/how-to-hack-www-testfire-net/
