https://raw.githubusercontent.com/pastelito02/Challenges-sol/master/Programming/codewars/grasshopper-check-for-factor/charlie27.c
https://raw.githubusercontent.com/pastelito02/Challenges-sol/master/Programming/codewars/grasshopper-check-for-factor/Vzhuh.cc
https://raw.githubusercontent.com/pastelito02/Challenges-sol/master/Programming/codewars/grasshopper-check-for-factor/zefurocks.clj
https://raw.githubusercontent.com/pastelito02/Challenges-sol/master/Programming/codewars/grasshopper-check-for-factor/Vzhuh.cpp
https://raw.githubusercontent.com/pastelito02/Challenges-sol/master/Programming/codewars/grasshopper-check-for-factor/Shanethegamer.cr
https://raw.githubusercontent.com/pastelito02/Challenges-sol/master/Programming/codewars/grasshopper-check-for-factor/jClark.cs
https://raw.githubusercontent.com/pastelito02/Challenges-sol/master/Programming/codewars/grasshopper-check-for-factor/Goolpe.dart
https://raw.githubusercontent.com/pastelito02/Challenges-sol/master/Programming/codewars/grasshopper-check-for-factor/sterekai.ex
https://raw.githubusercontent.com/pastelito02/Challenges-sol/master/Programming/codewars/grasshopper-check-for-factor/sterekai.exs
https://raw.githubusercontent.com/pastelito02/Challenges-sol/master/Programming/codewars/grasshopper-check-for-factor/lugerf.fs
https://raw.githubusercontent.com/pastelito02/Challenges-sol/master/Programming/codewars/grasshopper-check-for-factor/uniapi.go
https://raw.githubusercontent.com/pastelito02/Challenges-sol/master/Programming/codewars/grasshopper-check-for-factor/Unnamed.groovy
https://raw.githubusercontent.com/pastelito02/Challenges-sol/master/Programming/codewars/grasshopper-check-for-factor/shankpali.h
https://raw.githubusercontent.com/pastelito02/Challenges-sol/master/Programming/codewars/grasshopper-check-for-factor/Unnamed.hs
https://raw.githubusercontent.com/pastelito02/Challenges-sol/master/Programming/codewars/grasshopper-check-for-factor/lindametzger.java
https://raw.githubusercontent.com/pastelito02/Challenges-sol/master/Programming/codewars/grasshopper-check-for-factor/bluedeud.jl
https://raw.githubusercontent.com/pastelito02/Challenges-sol/master/Programming/codewars/grasshopper-check-for-factor/matrix91.js
https://raw.githubusercontent.com/pastelito02/Challenges-sol/master/Programming/codewars/grasshopper-check-for-factor/katso.kt
https://raw.githubusercontent.com/pastelito02/Challenges-sol/master/Programming/codewars/grasshopper-check-for-factor/Miserableman.lua
https://raw.githubusercontent.com/pastelito02/Challenges-sol/master/Programming/codewars/grasshopper-check-for-factor/shankpali.m
https://raw.githubusercontent.com/pastelito02/Challenges-sol/master/Programming/codewars/grasshopper-check-for-factor/user1326445.ml
https://raw.githubusercontent.com/pastelito02/Challenges-sol/master/Programming/codewars/grasshopper-check-for-factor/krzesii.nim
https://raw.githubusercontent.com/pastelito02/Challenges-sol/master/Programming/codewars/grasshopper-check-for-factor/bosoy83.php
https://raw.githubusercontent.com/pastelito02/Challenges-sol/master/Programming/codewars/grasshopper-check-for-factor/n-athan.pro
https://raw.githubusercontent.com/pastelito02/Challenges-sol/master/Programming/codewars/grasshopper-check-for-factor/GentBajko.py
https://raw.githubusercontent.com/pastelito02/Challenges-sol/master/Programming/codewars/grasshopper-check-for-factor/danieldreyer.r
https://raw.githubusercontent.com/pastelito02/Challenges-sol/master/Programming/codewars/grasshopper-check-for-factor/Captain_Howdy.rb
https://raw.githubusercontent.com/pastelito02/Challenges-sol/master/Programming/codewars/grasshopper-check-for-factor/villesau.re
https://raw.githubusercontent.com/pastelito02/Challenges-sol/master/Programming/codewars/grasshopper-check-for-factor/Mordna.rs
https://raw.githubusercontent.com/pastelito02/Challenges-sol/master/Programming/codewars/grasshopper-check-for-factor/AndreaSergas.scala
https://raw.githubusercontent.com/pastelito02/Challenges-sol/master/Programming/codewars/grasshopper-check-for-factor/Dzienny.sh
https://raw.githubusercontent.com/pastelito02/Challenges-sol/master/Programming/codewars/grasshopper-check-for-factor/qmstuart.swift
https://raw.githubusercontent.com/pastelito02/Challenges-sol/master/Programming/codewars/grasshopper-check-for-factor/flywojt.ts
https://raw.githubusercontent.com/pastelito02/Challenges-sol/master/Programming/codewars/grasshopper-check-for-factor/GeorgeRay.vb
