https://www.youtube.com/watch?v=ijPvLKlT3R4
https://www.youtube.com/watch?v=PjAHWznLv6g
http://sp4hack.blogspot.com/2012/10/hack-this-site-realistic-10.html
http://www.gensale.net/hts-realistic-level-10/
http://g00l.blogspot.com/2009/05/hackthissite-realistic.html
https://www.aldeid.com/wiki/Hackthissite/Realistic/Level10
http://zer0byte.com/2011/11/14/hackthissite-org-realistic-mission-1-%E2%80%93-16-walk-throughs/
