https://raw.githubusercontent.com/Samleo8/CoderByte/master/Hard/PentagonalNumber.c
https://raw.githubusercontent.com/bradhanson/coderbyte/master/hard/pentagonal_number.js
https://raw.githubusercontent.com/Samleo8/CoderByte/master/Hard/PentagonalNumber.py
