https://raw.githubusercontent.com/pastelito02/Challenges-sol/master/Programming/Codeabbey/049/hukrause.ada
https://raw.githubusercontent.com/phuclevinh2000/CodeAbbey/master/F%20to%20C.c
https://raw.githubusercontent.com/pastelito02/Challenges-sol/master/Programming/Codeabbey/016/bryantanyh.cc
https://raw.githubusercontent.com/qiuxiafei/4clojure/master/answers/1.Nothing%20but%20the%20Truth.clj.clj
https://raw.githubusercontent.com/gravoo/codeabbey/master/Rock%20Paper%20Scissors.cpp
https://raw.githubusercontent.com/AleksandrSD/CodeAbbeyProblems/master/Problem49/Program.cs
https://raw.githubusercontent.com/pastelito02/Challenges-sol/master/Programming/Codeabbey/049/Ratzenfutz.d
https://raw.githubusercontent.com/pastelito02/Challenges-sol/master/Programming/Codeabbey/049/Mattia.dart
https://raw.githubusercontent.com/GabrielNicolasAvellaneda/erlang-rock-paper-scissors/master/rockpaperscissor.erl
https://raw.githubusercontent.com/pastelito02/Challenges-sol/master/Programming/Codeabbey/029/siloimwald.fs
https://raw.githubusercontent.com/sergivillar/golang-rock-paper-scissors/master/main.go
https://raw.githubusercontent.com/pastelito02/Challenges-sol/master/Programming/Codeabbey/049/gsou859.hs
https://raw.githubusercontent.com/cameronmcnz/rock-paper-scissors/master/game.html
https://raw.githubusercontent.com/thewhaledev/rockpaperscissors/master/rockpaperscissors_tutorial.ipynb
https://raw.githubusercontent.com/Maximization/CodeAbbey/master/src/RockPaperScissors.java
https://raw.githubusercontent.com/TheComputerM/julia-games/master/rock_paper_scissors/app.jl
https://raw.githubusercontent.com/alan755/Rock-paper-scissors-game/master/src/gamebackend.js
https://raw.githubusercontent.com/peiandsky/codeabbeyByKotlin/master/src/problems01_10/Problem05_MinimumofThree.kt
https://gist.githubusercontent.com/goloroden/0a758e6612980c105dab/raw/0dadaefc67c2701835401a61e281b2f8e502c2c2/gistfile1.lisp
https://raw.githubusercontent.com/pastelito02/Challenges-sol/master/Programming/Codeabbey/049/atercattus.lua
https://raw.githubusercontent.com/jeilow/codeabbey/master/problem_31.m
https://raw.githubusercontent.com/EQuimper/CodeChallenge/master/javascript/FreeCodeCamps/Basic%20JavaScript/Counting%20Cards.md
https://raw.githubusercontent.com/pastelito02/Challenges-sol/master/Programming/Codeabbey/049/IIIIkuoaIIII.ml
https://raw.githubusercontent.com/pastelito02/Challenges-sol/master/Programming/Codeabbey/049/sergey.stanovsky.php
https://raw.githubusercontent.com/pastelito02/Challenges-sol/master/Programming/Codeabbey/049/pearl_barley.pl
https://raw.githubusercontent.com/Xzya/CodeAbbeySolutions/master/RockPaperScissors.py
https://raw.githubusercontent.com/pastelito02/Challenges-sol/master/Programming/Codeabbey/049/Roman-Ovcharov.rb
https://gitlab.com/CodeArtisan/codeabbey/raw/master/problem_69/solution.rkt
https://raw.githubusercontent.com/WesJD/rock-paper-scissors/master/src/main.rs
https://raw.githubusercontent.com/mmcdon20/code_abbey/master/src/main/scala/Abbey049.scala
https://raw.githubusercontent.com/m-jowett/RockPaperScissors-Bash/master/play.sh
https://raw.githubusercontent.com/DianaG-M/PaperScissorsRock/master/Sign.playground/Contents.swift
https://raw.githubusercontent.com/F1LT3R/binary-search-in-typescript/master/binary-search.ts
