https://raw.githubusercontent.com/ysmolsky/cryptopals-matasano-solutions/master/36/main.go
https://raw.githubusercontent.com/ilchen/cryptopals/master/src/main/java/com/cryptopals/Set5.java
https://raw.githubusercontent.com/lt/php-cryptopals/master/Cryptopals/Set5/Challenge36/Solution36.php
https://raw.githubusercontent.com/akalin/cryptopals-python3/master/challenge36_util.py
https://raw.githubusercontent.com/technion/matasano_challenge/master/set5/chal36/chal36.rb
