https://www.hackers-arise.com/single-post/2018/01/05/Web-App-Hacking-Part-9-Cross-Site-Scripting-XSS
https://gist.github.com/mort666/19d3dc1051a71c2c86885e1607d69442
https://www.darknet.org.uk/content/files/WebVulnScanners.pdf
http://www.xssed.com/mirror/66118/
https://gist.githubusercontent.com/mort666/19d3dc1051a71c2c86885e1607d69442/raw/1763060c820d576ca5f22109da8cadc7293a2e74/secure-coding%2520workshop.md
https://resources.infosecinstitute.com/web-application-pentest-guide-part-ii/#gref
