https://raw.githubusercontent.com/MuhammadHamzaCS2020/GCD_in-Assembly/master/GCD.asm
https://raw.githubusercontent.com/phuclevinh2000/CodeAbbey/master/Greatest%20Common%20Divisor.c
https://raw.githubusercontent.com/pastelito02/Challenges-sol/master/Programming/Codeabbey/026/serfect_.cc
https://raw.githubusercontent.com/ip1981/gcd/master/gcd.clj
https://raw.githubusercontent.com/gravoo/codeabbey/master/Greatest%20Common%20Divisor%20.cpp
https://raw.githubusercontent.com/aschutgh/CodeAbbey/master/ProblemN26GreatestCommonDivisor/Program.cs
https://raw.githubusercontent.com/pastelito02/Challenges-sol/master/Programming/Codeabbey/026/Ratzenfutz.d
https://raw.githubusercontent.com/pastelito02/Challenges-sol/master/Programming/Codeabbey/026/siloimwald.fs
https://raw.githubusercontent.com/javilag/codeAbbeyChalls/master/Challs/Go/026.go
https://raw.githubusercontent.com/ip1981/gcd/master/gcd.hs
https://raw.githubusercontent.com/meganroche/CodeAbbeySolutions/master/Java/GCD.java
https://raw.githubusercontent.com/pastelito02/Challenges-sol/master/Programming/Codeabbey/026/alemelis.jl
https://raw.githubusercontent.com/pastelito02/Challenges-sol/master/Programming/Codeabbey/026/stanispos.js
https://raw.githubusercontent.com/bmaslakov/kotlin-algorithm-club/master/src/main/io/uuddlrlrba/ktalgs/math/Gcd.kt
https://raw.githubusercontent.com/chriswood/codeabbey/master/caid26.lisp
https://raw.githubusercontent.com/pastelito02/Challenges-sol/master/Programming/Codeabbey/026/atercattus.lua
https://raw.githubusercontent.com/pastelito02/Challenges-sol/master/Programming/Codeabbey/026/stefan.schmiedl.ml
https://raw.githubusercontent.com/ip1981/gcd/master/gcd.pas
https://raw.githubusercontent.com/mpeshehonov/Codeabbey/master/practice/%2326/index.php
https://raw.githubusercontent.com/pastelito02/Challenges-sol/master/Programming/Codeabbey/026/pearl_barley.pl
https://raw.githubusercontent.com/ip1981/gcd/master/gcd.pro
https://raw.githubusercontent.com/vinitkantrod/codeabbey-Solutions-in-Python/master/26_greatest_common_divisor.py
https://raw.githubusercontent.com/ip1981/gcd/master/gcd.r
https://raw.githubusercontent.com/John-Russell/CodeAbbey/master/Greatest%20Common%20Divisor.rb
https://raw.githubusercontent.com/pastelito02/Challenges-sol/master/Programming/Codeabbey/026/CrazyCapitan.rs
https://raw.githubusercontent.com/mmcdon20/code_abbey/master/src/main/scala/Abbey026.scala
https://raw.githubusercontent.com/ip1981/gcd/master/gcd.sh
https://raw.githubusercontent.com/pastelito02/Challenges-sol/master/Programming/Codeabbey/026/OldSchool.vb
