https://raw.githubusercontent.com/leeychee/hackerrank/master/practice/algorithms/implementation/larrys_array/main.go
https://raw.githubusercontent.com/charles-wangkai/hackerrank/master/larrys-array/Solution.java
https://raw.githubusercontent.com/yznpku/HackerRank/master/solution/practice/algorithms/implementation/larrys-array/solution.py
https://raw.githubusercontent.com/raghav97/Hackerrank-Solutions/master/larrys_array.rb
