https://kupdf.net/download/demotestfirenet-security-report-86_5b0466cde2b6f5b31f0e6896_pdf
https://www.ibm.com/developerworks/community/blogs/48a78681-82cc-434f-9c78-3e9117bfd466/resource/demo.testfire.netSecurityReport.pdf?lang=en
https://wampir.mroczna-zaloga.org/archives/1321-Altoro-Mutual-oczywiste-oczywistoci-na-pocztek.html

