https://raw.githubusercontent.com/KingMob/cryptopals-crypto-challenges/master/src/app/set1.clj
https://raw.githubusercontent.com/JarLob/MatasanoCryptoChallenge/master/Tests/Set1.cs
https://raw.githubusercontent.com/ysmolsky/cryptopals-matasano-solutions/master/08/main.go
https://raw.githubusercontent.com/ilchen/cryptopals/master/src/main/java/com/cryptopals/Set1.java
https://raw.githubusercontent.com/HirotoShioi/cryptopals-in-js/master/set1/8/run.js
https://raw.githubusercontent.com/lt/php-cryptopals/master/Cryptopals/Set1/Challenge8/Solution8.php
https://raw.githubusercontent.com/jaybosamiya/cryptopals-solutions/master/set1/8/run.py
https://raw.githubusercontent.com/technion/matasano_challenge/master/set1/chal8/chal8.rb
https://raw.githubusercontent.com/Daeinar/cryptopals/master/src/c08.rs
