https://raw.githubusercontent.com/pascal-bourut/codeeval-challenges/master/hard/59%20-%20Telephone%20words/59.js
https://raw.githubusercontent.com/pascal-bourut/codeeval-challenges/master/hard/59%20-%20Telephone%20words/59.php
https://raw.githubusercontent.com/mpillar/codeeval/master/2-hard/telephone-words/main.py
https://raw.githubusercontent.com/rickychang/code-eval-scala/master/telephone-words/src/main/scala/Main.scala
