https://raw.githubusercontent.com/feix/ctf-writeup/master/canyouhackit/reconnaissance/solution1
https://sithlab.tistory.com/1453
https://raw.githubusercontent.com/pastelito02/Challenges-sol/master/canyouhackit/Reco/solution1.lst
