https://www.youtube.com/watch?v=NWVJ2b0D1r8
https://video.hacking.reviews/2018/03/hackthebox-enterprise.html
https://www.reddit.com/r/hackthebox/comments/7aunya/enterprise10101061/
https://forum.hackthebox.eu/discussion/599/enterprise-write-up-by-alamot
https://www.youtube.com/playlist?list=PLqM63j87R5p5RP6XOuAObtZ6z_P-xQ5CC
https://www.hackingarticles.in/hack-the-box-challenge-enterprises-walkthrough/
https://www.linkedin.com/pulse/hack-box-challenge-enterprises-walkthrough-raj-chandel
