https://www.hackingarticles.in/hack-the-toppo1-vm-ctf-challenges/
https://resources.infosecinstitute.com/toppo-1-capture-the-flag-walkthrough/
https://latesthackingnews.com/2018/08/24/toppo-vulnhub-ctf-challenge-walkthrough/
https://www.sevenlayers.com/index.php/89-vulnhub-toppo-1-walkthrough
https://www.youtube.com/watch?v=cI65Q61qHWU
https://www.youtube.com/watch?v=fb4A4uyPPjQ
https://medium.com/bugbountywriteup/vulnhub-toppo-writeup-1ac541bf185a
https://medium.com/egghunter/toppo-1-vulnhub-walkthrough-c5f05358cf7d
https://blog.razrsec.uk/toppo-walkthrough/
https://pentesterjourney.com/2019/01/22/vulnhub-toppo-walkthrough/
https://malikashish8.github.io/Walkthrough/2018/09/02/Vulnhub-Toppo-1.html
https://hackso.me/toppo-1-walkthrough/
https://lukeburford.blogspot.com/2018/07/toppo-1-ctf-walkthrough.html
https://www.theanuragsrivastava.in/2018/07/toppo-1-walkthrough-vulnhub-machine.html
https://blog.lamarranet.com/index.php/category/vulnhub/
https://yash1700.wordpress.com/2020/05/08/vulnhub-toppo1-walkthrough/
https://www.punkinnovation.com/index.php/2019/01/02/toppo-vm-walkthrough-from-vulnhub/
