https://alexandervoidstar.wordpress.com/2015/09/19/hackthis-javascript-level-4/
https://www.youtube.com/watch?v=k1np-Thy9fI
https://raw.githubusercontent.com/james9909/PracticeCTF/master/HackThis/Javascript-4/Solution.txt
https://www.youtube.com/watch?v=xLtVXCMxY5g
