https://github.com/akanshgulati/XSS-Challenges#level-5-breaking-protocol
https://youtu.be/nEP4h9JQJD8?t=3m21s
https://youtu.be/EFr9jxo-vCw?t=1m26s
https://www.youtube.com/watch?v=NFOGYcJP6VQ
http://blog.dornea.nu/2014/06/02/googles-xss-game-solutions/#05988e43e8f2eb5efdddc2b467c4b2f3
https://gist.github.com/pbssubhash/2f99644a4f24e8fe6b3e
https://gist.github.com/djadmin/737a77b87d0bad8a9c79
https://gist.github.com/adriaandens/722383ba4c717baf8007#level-5-breaking-protocol
https://gist.github.com/antoinebrl/f7b4d7a1b4465a739d8b#level-5-breaking-protocol
https://gist.github.com/JannisKirschner/947b6d48058e2e2be17ec87436974b14#file-google_xss_game-solutions-txt-L43
https://gist.github.com/Arinerron/19d75c81bcff5622bf6d4f2ff8e3829d#file-xss-game-solutions-txt-L15
https://www.doyler.net/security-not-included/google-xss-game
http://www.behindthefirewalls.com/2014/06/xss-game-by-google-exercises-4-5-and-6.html
https://h4ck3rprotocol.wordpress.com/2015/06/11/answers-for-xss-game/
http://offsec-sureshatt.blogspot.com/2017/04/google-xss-game-solving-level-5.html
http://paulsec.github.io/blog/2014/06/02/diving-into-xss-googles-game/
https://youtu.be/OOLz5kgKwmg?t=5m10s
https://github.com/arsho/xss_game#level-4-context-matters
http://blog.dornea.nu/2014/06/02/googles-xss-game-solutions/#5afaf1679ad0887adebaddb40e0bd3f7
https://youtu.be/h6hiuIrFVRs
https://gist.github.com/Harshish/2b2446b4f04aa05306913b730b5ba68d
https://tinyurl.com/y52bboyb
https://cyberlabonline.wordpress.com/tag/xss-game-level-5/
https://ksm.sh/blog/5
https://www.shielder.it/blog/xssgame-google-hitb2017ams-writeup/
https://harpreetsinghpassi.wordpress.com/2016/09/08/xss-game/
https://tuonilabs.wordpress.com/2016/12/27/google-xss-game/
https://cramhack.com/2019/04/24/google-xss-game-explained/
https://www.rootnetsec.com/xss-game/
https://luckyhackscode.blogspot.com/2017/08/the-solution-to-google-xss-game.html
https://myseq.blogspot.com/2014/06/my-xss-game-solution-at-google-appspot.html
https://www.lhaihai.wang/post/xssgame/
https://raw.githubusercontent.com/danicrg/WebGoat/master/comment_phoneHome/README.md
https://jeonyoungsin.tistory.com/475?category=815285
https://raw.githubusercontent.com/BruceGitHub/xss-google-game/master/README.md
https://raw.githubusercontent.com/djadmin/XSS-Challenges/master/Google's%20XSS%20game.txt
https://jlajara.gitlab.io/posts/2018/12/16/XSS-Google-Game.html#Challenge1
