https://raw.githubusercontent.com/nayuki/Project-Euler-solutions/master/java/p078.java
https://raw.githubusercontent.com/nayuki/Project-Euler-solutions/master/python/p078.py
https://raw.githubusercontent.com/sile/euler.rs/master/euler_03/src/problem078.rs
