<Folder id="overlay_1697">

    <name>sio_4_9_22</name>

    <styleUrl>#overlay_1697</styleUrl>

    <description><![CDATA[Date: <br/>Catalog ID: <a href='https://browse.digitalglobe.com/imagefinder/showBrowseMetadata?catalogId=<unknown>'><unknown></a>]]></description>

    <visibility>0</visibility><open>0</open><Placemark><styleUrl>overlay</styleUrl><Polygon><outerBoundaryIs><LinearRing><coordinates>98.934222222200006,-19.9441111111 99.145763888900007,-19.9441111111 99.145763888900007,-20.6102972222 98.934222222200006,-20.6102972222 98.934222222200006,-19.9441111111</coordinates></LinearRing></outerBoundaryIs></Polygon><visibility>0</visibility></Placemark>

</Folder>



<Folder id="overlay_1698">

    <name>sio_4_9_44</name>

    <styleUrl>#overlay_1698</styleUrl>

    <description><![CDATA[Date: <br/>Catalog ID: <a href='https://browse.digitalglobe.com/imagefinder/showBrowseMetadata?catalogId=<unknown>'><unknown></a>]]></description>

    <visibility>0</visibility><open>0</open><Placemark><styleUrl>overlay</styleUrl><Polygon><outerBoundaryIs><LinearRing><coordinates>100.661033333000006,-24.6329388889 101.373608333000007,-24.6329388889 101.373608333000007,-24.8452083333 100.661033333000006,-24.8452083333 100.661033333000006,-24.6329388889</coordinates></LinearRing></outerBoundaryIs></Polygon><visibility>0</visibility></Placemark>

</Folder>



<Folder id="overlay_1703">

    <name>sio_4_9_01</name>

    <styleUrl>#overlay_1703</styleUrl>

    <description><![CDATA[Date: <br/>Catalog ID: <a href='https://browse.digitalglobe.com/imagefinder/showBrowseMetadata?catalogId=<unknown>'><unknown></a>]]></description>

    <visibility>0</visibility><open>0</open><Placemark><styleUrl>overlay</styleUrl><Polygon><outerBoundaryIs><LinearRing><coordinates>95.989369444399998,-30.066836111099999 96.475999999999999,-30.066836111099999 96.475999999999999,-30.520433333300002 95.989369444399998,-30.520433333300002 95.989369444399998,-30.066836111099999</coordinates></LinearRing></outerBoundaryIs></Polygon><visibility>0</visibility></Placemark>

</Folder>



<Folder id="overlay_1705">

    <name>sio_4_9_30</name>

    <styleUrl>#overlay_1705</styleUrl>

    <description><![CDATA[Date: <br/>Catalog ID: <a href='https://browse.digitalglobe.com/imagefinder/showBrowseMetadata?catalogId=<unknown>'><unknown></a>]]></description>

    <visibility>0</visibility><open>0</open><Placemark><styleUrl>overlay</styleUrl><Polygon><outerBoundaryIs><LinearRing><coordinates>94.947516666699997,-32.164044444399998 95.170644444399997,-32.164044444399998 95.170644444399997,-33.046938888900002 94.947516666699997,-33.046938888900002 94.947516666699997,-32.164044444399998</coordinates></LinearRing></outerBoundaryIs></Polygon><visibility>0</visibility></Placemark>

</Folder>



<Folder id="overlay_1752">

    <name>sio_4_11_23</name>

    <styleUrl>#overlay_1752</styleUrl>

    <description><![CDATA[Date: <br/>Catalog ID: <a href='https://browse.digitalglobe.com/imagefinder/showBrowseMetadata?catalogId=<unknown>'><unknown></a>]]></description>

    <visibility>0</visibility><open>0</open><Placemark><styleUrl>overlay</styleUrl><Polygon><outerBoundaryIs><LinearRing><coordinates>98.045180555599998,-31.227077777800002 98.227547222200002,-31.227077777800002 98.227547222200002,-32.211952777800001 98.045180555599998,-32.211952777800001 98.045180555599998,-31.227077777800002</coordinates></LinearRing></outerBoundaryIs></Polygon><visibility>0</visibility></Placemark>

</Folder>



<Folder id="overlay_1751">

    <name>sio_4_11_22</name>

    <styleUrl>#overlay_1751</styleUrl>

    <description><![CDATA[Date: <br/>Catalog ID: <a href='https://browse.digitalglobe.com/imagefinder/showBrowseMetadata?catalogId=<unknown>'><unknown></a>]]></description>

    <visibility>0</visibility><open>0</open><Placemark><styleUrl>overlay</styleUrl><Polygon><outerBoundaryIs><LinearRing><coordinates>98.008680555599994,-29.354077777800001 98.188649999999996,-29.354077777800001 98.188649999999996,-30.1921416667 98.008680555599994,-30.1921416667 98.008680555599994,-29.354077777800001</coordinates></LinearRing></outerBoundaryIs></Polygon><visibility>0</visibility></Placemark>

</Folder>



<Folder id="overlay_1750">

    <name>sio_4_11_19</name>

    <styleUrl>#overlay_1750</styleUrl>

    <description><![CDATA[Date: <br/>Catalog ID: <a href='https://browse.digitalglobe.com/imagefinder/showBrowseMetadata?catalogId=<unknown>'><unknown></a>]]></description>

    <visibility>0</visibility><open>0</open><Placemark><styleUrl>overlay</styleUrl><Polygon><outerBoundaryIs><LinearRing><coordinates>97.116205555600004,-19.139500000000002 97.334355555599998,-19.139500000000002 97.334355555599998,-19.3636361111 97.116205555600004,-19.3636361111 97.116205555600004,-19.139500000000002</coordinates></LinearRing></outerBoundaryIs></Polygon><visibility>0</visibility></Placemark>

</Folder>



<Folder id="overlay_1749">

    <name>sio_4_12_05</name>

    <styleUrl>#overlay_1749</styleUrl>

    <description><![CDATA[Date: <br/>Catalog ID: <a href='https://browse.digitalglobe.com/imagefinder/showBrowseMetadata?catalogId=<unknown>'><unknown></a>]]></description>

    <visibility>0</visibility><open>0</open><Placemark><styleUrl>overlay</styleUrl><Polygon><outerBoundaryIs><LinearRing><coordinates>95.559433333300007,-18.979638888899999 95.931986111100002,-18.979638888899999 95.931986111100002,-19.122030555599999 95.559433333300007,-19.122030555599999 95.559433333300007,-18.979638888899999</coordinates></LinearRing></outerBoundaryIs></Polygon><visibility>0</visibility></Placemark>

</Folder>



<Folder id="overlay_1748">

    <name>sio_4_12_06</name>

    <styleUrl>#overlay_1748</styleUrl>

    <description><![CDATA[Date: <br/>Catalog ID: <a href='https://browse.digitalglobe.com/imagefinder/showBrowseMetadata?catalogId=<unknown>'><unknown></a>]]></description>

    <visibility>0</visibility><open>0</open><Placemark><styleUrl>overlay</styleUrl><Polygon><outerBoundaryIs><LinearRing><coordinates>96.324441666699997,-19.065377777799998 96.642541666699998,-19.065377777799998 96.642541666699998,-19.217691666699999 96.324441666699997,-19.217691666699999 96.324441666699997,-19.065377777799998</coordinates></LinearRing></outerBoundaryIs></Polygon><visibility>0</visibility></Placemark>

</Folder>



<Folder id="overlay_1747">

    <name>sio_4_11_18</name>

    <styleUrl>#overlay_1747</styleUrl>

    <description><![CDATA[Date: <br/>Catalog ID: <a href='https://browse.digitalglobe.com/imagefinder/showBrowseMetadata?catalogId=<unknown>'><unknown></a>]]></description>

    <visibility>0</visibility><open>0</open><Placemark><styleUrl>overlay</styleUrl><Polygon><outerBoundaryIs><LinearRing><coordinates>96.914333333299993,-19.115938888900001 97.140763888899997,-19.115938888900001 97.140763888899997,-19.266375 96.914333333299993,-19.266375 96.914333333299993,-19.115938888900001</coordinates></LinearRing></outerBoundaryIs></Polygon><visibility>0</visibility></Placemark>

</Folder>



<Folder id="overlay_1746">

    <name>sio_4_12_01</name>

    <styleUrl>#overlay_1746</styleUrl>

    <description><![CDATA[Date: <br/>Catalog ID: <a href='https://browse.digitalglobe.com/imagefinder/showBrowseMetadata?catalogId=<unknown>'><unknown></a>]]></description>

    <visibility>0</visibility><open>0</open><Placemark><styleUrl>overlay</styleUrl><Polygon><outerBoundaryIs><LinearRing><coordinates>96.622530555599994,-19.111594444400001 96.901091666699998,-19.111594444400001 96.901091666699998,-19.262975000000001 96.622530555599994,-19.262975000000001 96.622530555599994,-19.111594444400001</coordinates></LinearRing></outerBoundaryIs></Polygon><visibility>0</visibility></Placemark>

</Folder>



<Folder id="overlay_1745">

    <name>sio_4_12_04</name>

    <styleUrl>#overlay_1745</styleUrl>

    <description><![CDATA[Date: <br/>Catalog ID: <a href='https://browse.digitalglobe.com/imagefinder/showBrowseMetadata?catalogId=<unknown>'><unknown></a>]]></description>

    <visibility>0</visibility><open>0</open><Placemark><styleUrl>overlay</styleUrl><Polygon><outerBoundaryIs><LinearRing><coordinates>96.880391666700007,-19.1217611111 97.140227777800007,-19.1217611111 97.140227777800007,-19.272580555600001 96.880391666700007,-19.272580555600001 96.880391666700007,-19.1217611111</coordinates></LinearRing></outerBoundaryIs></Polygon><visibility>0</visibility></Placemark>

</Folder>



<Folder id="overlay_1744">

    <name>sio_4_12_02</name>

    <styleUrl>#overlay_1744</styleUrl>

    <description><![CDATA[Date: <br/>Catalog ID: <a href='https://browse.digitalglobe.com/imagefinder/showBrowseMetadata?catalogId=<unknown>'><unknown></a>]]></description>

    <visibility>0</visibility><open>0</open><Placemark><styleUrl>overlay</styleUrl><Polygon><outerBoundaryIs><LinearRing><coordinates>97.306588888899995,-20.712769444399999 97.555925000000002,-20.712769444399999 97.555925000000002,-20.863050000000001 97.306588888899995,-20.863050000000001 97.306588888899995,-20.712769444399999</coordinates></LinearRing></outerBoundaryIs></Polygon><visibility>0</visibility></Placemark>

</Folder>



<Folder id="overlay_1743">

    <name>sio_4_11_21</name>

    <styleUrl>#overlay_1743</styleUrl>

    <description><![CDATA[Date: <br/>Catalog ID: <a href='https://browse.digitalglobe.com/imagefinder/showBrowseMetadata?catalogId=<unknown>'><unknown></a>]]></description>

    <visibility>0</visibility><open>0</open><Placemark><styleUrl>overlay</styleUrl><Polygon><outerBoundaryIs><LinearRing><coordinates>97.301208333299996,-19.868400000000001 97.611000000000004,-19.868400000000001 97.611000000000004,-20.019111111099999 97.301208333299996,-20.019111111099999 97.301208333299996,-19.868400000000001</coordinates></LinearRing></outerBoundaryIs></Polygon><visibility>0</visibility></Placemark>

</Folder>



<Folder id="overlay_1742">

    <name>sio_4_12_09</name>

    <styleUrl>#overlay_1742</styleUrl>

    <description><![CDATA[Date: <br/>Catalog ID: <a href='https://browse.digitalglobe.com/imagefinder/showBrowseMetadata?catalogId=<unknown>'><unknown></a>]]></description>

    <visibility>0</visibility><open>0</open><Placemark><styleUrl>overlay</styleUrl><Polygon><outerBoundaryIs><LinearRing><coordinates>97.314538888900003,-19.147283333299999 97.528411111099999,-19.147283333299999 97.528411111099999,-19.297152777800001 97.314538888900003,-19.297152777800001 97.314538888900003,-19.147283333299999</coordinates></LinearRing></outerBoundaryIs></Polygon><visibility>0</visibility></Placemark>

</Folder>



<Folder id="overlay_1741">

    <name>sio_4_12_10</name>

    <styleUrl>#overlay_1741</styleUrl>

    <description><![CDATA[Date: <br/>Catalog ID: <a href='https://browse.digitalglobe.com/imagefinder/showBrowseMetadata?catalogId=<unknown>'><unknown></a>]]></description>

    <visibility>0</visibility><open>0</open><Placemark><styleUrl>overlay</styleUrl><Polygon><outerBoundaryIs><LinearRing><coordinates>95.929377777799999,-18.898586111099998 96.158000000000001,-18.898586111099998 96.158000000000001,-19.042733333299999 95.929377777799999,-19.042733333299999 95.929377777799999,-18.898586111099998</coordinates></LinearRing></outerBoundaryIs></Polygon><visibility>0</visibility></Placemark>

</Folder>



<Folder id="overlay_1740">

    <name>sio_4_12_03</name>

    <styleUrl>#overlay_1740</styleUrl>

    <description><![CDATA[Date: <br/>Catalog ID: <a href='https://browse.digitalglobe.com/imagefinder/showBrowseMetadata?catalogId=<unknown>'><unknown></a>]]></description>

    <visibility>0</visibility><open>0</open><Placemark><styleUrl>overlay</styleUrl><Polygon><outerBoundaryIs><LinearRing><coordinates>97.705583333299998,-19.159480555599998 97.919597222199997,-19.159480555599998 97.919597222199997,-19.308913888900001 97.705583333299998,-19.308913888900001 97.705583333299998,-19.159480555599998</coordinates></LinearRing></outerBoundaryIs></Polygon><visibility>0</visibility></Placemark>

</Folder>



<Folder id="overlay_1739">

    <name>sio_4_12_13</name>

    <styleUrl>#overlay_1739</styleUrl>

    <description><![CDATA[Date: <br/>Catalog ID: <a href='https://browse.digitalglobe.com/imagefinder/showBrowseMetadata?catalogId=<unknown>'><unknown></a>]]></description>

    <visibility>0</visibility><open>0</open><Placemark><styleUrl>overlay</styleUrl><Polygon><outerBoundaryIs><LinearRing><coordinates>98.010816666699995,-29.132297222199998 98.185447222199997,-29.132297222199998 98.185447222199997,-29.281341666700001 98.010816666699995,-29.281341666700001 98.010816666699995,-29.132297222199998</coordinates></LinearRing></outerBoundaryIs></Polygon><visibility>0</visibility></Placemark>

</Folder>



<Folder id="overlay_1738">

    <name>sio_4_12_12</name>

    <styleUrl>#overlay_1738</styleUrl>

    <description><![CDATA[Date: <br/>Catalog ID: <a href='https://browse.digitalglobe.com/imagefinder/showBrowseMetadata?catalogId=<unknown>'><unknown></a>]]></description>

    <visibility>0</visibility><open>0</open><Placemark><styleUrl>overlay</styleUrl><Polygon><outerBoundaryIs><LinearRing><coordinates>97.855094444399995,-29.131247222199999 98.030836111100001,-29.131247222199999 98.030836111100001,-29.280497222200001 97.855094444399995,-29.280497222200001 97.855094444399995,-29.131247222199999</coordinates></LinearRing></outerBoundaryIs></Polygon><visibility>0</visibility></Placemark>

</Folder>



<Folder id="overlay_1737">

    <name>sio_4_12_07</name>

    <styleUrl>#overlay_1737</styleUrl>

    <description><![CDATA[Date: <br/>Catalog ID: <a href='https://browse.digitalglobe.com/imagefinder/showBrowseMetadata?catalogId=<unknown>'><unknown></a>]]></description>

    <visibility>0</visibility><open>0</open><Placemark><styleUrl>overlay</styleUrl><Polygon><outerBoundaryIs><LinearRing><coordinates>97.780702777800002,-20.747011111100001 98.016255555599997,-20.747011111100001 98.016255555599997,-20.822533333300001 97.780702777800002,-20.822533333300001 97.780702777800002,-20.747011111100001</coordinates></LinearRing></outerBoundaryIs></Polygon><visibility>0</visibility></Placemark>

</Folder>



<Folder id="overlay_1736">

    <name>sio_4_11_20</name>

    <styleUrl>#overlay_1736</styleUrl>

    <description><![CDATA[Date: <br/>Catalog ID: <a href='https://browse.digitalglobe.com/imagefinder/showBrowseMetadata?catalogId=<unknown>'><unknown></a>]]></description>

    <visibility>0</visibility><open>0</open><Placemark><styleUrl>overlay</styleUrl><Polygon><outerBoundaryIs><LinearRing><coordinates>97.537069444400004,-20.742899999999999 97.772475,-20.742899999999999 97.772475,-20.8187527778 97.537069444400004,-20.8187527778 97.537069444400004,-20.742899999999999</coordinates></LinearRing></outerBoundaryIs></Polygon><visibility>0</visibility></Placemark>

</Folder>



<Folder id="overlay_1735">

    <name>sio_4_12_08</name>

    <styleUrl>#overlay_1735</styleUrl>

    <description><![CDATA[Date: <br/>Catalog ID: <a href='https://browse.digitalglobe.com/imagefinder/showBrowseMetadata?catalogId=<unknown>'><unknown></a>]]></description>

    <visibility>0</visibility><open>0</open><Placemark><styleUrl>overlay</styleUrl><Polygon><outerBoundaryIs><LinearRing><coordinates>95.644852777799997,-18.967791666699998 95.801550000000006,-18.967791666699998 95.801550000000006,-19.039452777800001 95.644852777799997,-19.039452777800001 95.644852777799997,-18.967791666699998</coordinates></LinearRing></outerBoundaryIs></Polygon><visibility>0</visibility></Placemark>

</Folder>



<Folder id="overlay_1734">

    <name>sio_4_12_15</name>

    <styleUrl>#overlay_1734</styleUrl>

    <description><![CDATA[Date: <br/>Catalog ID: <a href='https://browse.digitalglobe.com/imagefinder/showBrowseMetadata?catalogId=<unknown>'><unknown></a>]]></description>

    <visibility>0</visibility><open>0</open><Placemark><styleUrl>overlay</styleUrl><Polygon><outerBoundaryIs><LinearRing><coordinates>97.888930555599998,-31.153775 98.060072222200006,-31.153775 98.060072222200006,-31.229050000000001 97.888930555599998,-31.229050000000001 97.888930555599998,-31.153775</coordinates></LinearRing></outerBoundaryIs></Polygon><visibility>0</visibility></Placemark>

</Folder>



<Folder id="overlay_1733">

    <name>sio_4_12_14</name>

    <styleUrl>#overlay_1733</styleUrl>

    <description><![CDATA[Date: <br/>Catalog ID: <a href='https://browse.digitalglobe.com/imagefinder/showBrowseMetadata?catalogId=<unknown>'><unknown></a>]]></description>

    <visibility>0</visibility><open>0</open><Placemark><styleUrl>overlay</styleUrl><Polygon><outerBoundaryIs><LinearRing><coordinates>97.888930555599998,-31.153775 98.060072222200006,-31.153775 98.060072222200006,-31.229050000000001 97.888930555599998,-31.229050000000001 97.888930555599998,-31.153775</coordinates></LinearRing></outerBoundaryIs></Polygon><visibility>0</visibility></Placemark>

</Folder>



<Folder id="overlay_1732">

    <name>sio_4_12_18</name>

    <styleUrl>#overlay_1732</styleUrl>

    <description><![CDATA[Date: <br/>Catalog ID: <a href='https://browse.digitalglobe.com/imagefinder/showBrowseMetadata?catalogId=<unknown>'><unknown></a>]]></description>

    <visibility>0</visibility><open>0</open><Placemark><styleUrl>overlay</styleUrl><Polygon><outerBoundaryIs><LinearRing><coordinates>96.324441666699997,-19.065377777799998 96.478891666699994,-19.065377777799998 96.478891666699994,-19.1415333333 96.324441666699997,-19.1415333333 96.324441666699997,-19.065377777799998</coordinates></LinearRing></outerBoundaryIs></Polygon><visibility>0</visibility></Placemark>

</Folder>



<Folder id="overlay_1731">

    <name>sio_4_12_16</name>

    <styleUrl>#overlay_1731</styleUrl>

    <description><![CDATA[Date: <br/>Catalog ID: <a href='https://browse.digitalglobe.com/imagefinder/showBrowseMetadata?catalogId=<unknown>'><unknown></a>]]></description>

    <visibility>0</visibility><open>0</open><Placemark><styleUrl>overlay</styleUrl><Polygon><outerBoundaryIs><LinearRing><coordinates>96.914333333299993,-19.115938888900001 97.069152777799999,-19.115938888900001 97.069152777799999,-19.1916305556 96.914333333299993,-19.1916305556 96.914333333299993,-19.115938888900001</coordinates></LinearRing></outerBoundaryIs></Polygon><visibility>0</visibility></Placemark>

</Folder>



<Folder id="overlay_1730">

    <name>sio_4_12_11</name>

    <styleUrl>#overlay_1730</styleUrl>

    <description><![CDATA[Date: <br/>Catalog ID: <a href='https://browse.digitalglobe.com/imagefinder/showBrowseMetadata?catalogId=<unknown>'><unknown></a>]]></description>

    <visibility>0</visibility><open>0</open><Placemark><styleUrl>overlay</styleUrl><Polygon><outerBoundaryIs><LinearRing><coordinates>97.116205555600004,-19.139500000000002 97.271155555600004,-19.139500000000002 97.271155555600004,-19.215030555599999 97.116205555600004,-19.215030555599999 97.116205555600004,-19.139500000000002</coordinates></LinearRing></outerBoundaryIs></Polygon><visibility>0</visibility></Placemark>

</Folder>



<Folder id="overlay_1729">

    <name>sio_4_12_17</name>

    <styleUrl>#overlay_1729</styleUrl>

    <description><![CDATA[Date: <br/>Catalog ID: <a href='https://browse.digitalglobe.com/imagefinder/showBrowseMetadata?catalogId=<unknown>'><unknown></a>]]></description>

    <visibility>0</visibility><open>0</open><Placemark><styleUrl>overlay</styleUrl><Polygon><outerBoundaryIs><LinearRing><coordinates>98.045922222200005,-31.1531694444 98.217191666700003,-31.1531694444 98.217191666700003,-31.228238888900002 98.045922222200005,-31.228238888900002 98.045922222200005,-31.1531694444</coordinates></LinearRing></outerBoundaryIs></Polygon><visibility>0</visibility></Placemark>

</Folder>



<Folder id="overlay_1728">

    <name>sio_4_12_19</name>

    <styleUrl>#overlay_1728</styleUrl>

    <description><![CDATA[Date: <br/>Catalog ID: <a href='https://browse.digitalglobe.com/imagefinder/showBrowseMetadata?catalogId=<unknown>'><unknown></a>]]></description>

    <visibility>0</visibility><open>0</open><Placemark><styleUrl>overlay</styleUrl><Polygon><outerBoundaryIs><LinearRing><coordinates>97.705583333299998,-19.159480555599998 97.860855555599997,-19.159480555599998 97.860855555599997,-19.2345333333 97.705583333299998,-19.2345333333 97.705583333299998,-19.159480555599998</coordinates></LinearRing></outerBoundaryIs></Polygon><visibility>0</visibility></Placemark>

</Folder>



<Folder id="overlay_1727">

    <name>sio_4_11_24</name>

    <styleUrl>#overlay_1727</styleUrl>

    <description><![CDATA[Date: <br/>Catalog ID: <a href='https://browse.digitalglobe.com/imagefinder/showBrowseMetadata?catalogId=<unknown>'><unknown></a>]]></description>

    <visibility>0</visibility><open>0</open><Placemark><styleUrl>overlay</styleUrl><Polygon><outerBoundaryIs><LinearRing><coordinates>97.314538888900003,-19.147283333299999 97.391691666699998,-19.147283333299999 97.391691666699998,-19.221986111100001 97.314538888900003,-19.221986111100001 97.314538888900003,-19.147283333299999</coordinates></LinearRing></outerBoundaryIs></Polygon><visibility>0</visibility></Placemark>

</Folder>



<Folder id="overlay_1726">

    <name>sio_4_12_24</name>

    <styleUrl>#overlay_1726</styleUrl>

    <description><![CDATA[Date: <br/>Catalog ID: <a href='https://browse.digitalglobe.com/imagefinder/showBrowseMetadata?catalogId=<unknown>'><unknown></a>]]></description>

    <visibility>0</visibility><open>0</open><Placemark><styleUrl>overlay</styleUrl><Polygon><outerBoundaryIs><LinearRing><coordinates>96.833938888899993,-18.738122222200001 96.910686111100006,-18.738122222200001 96.910686111100006,-18.812994444400001 96.833938888899993,-18.812994444400001 96.833938888899993,-18.738122222200001</coordinates></LinearRing></outerBoundaryIs></Polygon><visibility>0</visibility></Placemark>

</Folder>



<Folder id="overlay_1725">

    <name>sio_4_11_25</name>

    <styleUrl>#overlay_1725</styleUrl>

    <description><![CDATA[Date: <br/>Catalog ID: <a href='https://browse.digitalglobe.com/imagefinder/showBrowseMetadata?catalogId=<unknown>'><unknown></a>]]></description>

    <visibility>0</visibility><open>0</open><Placemark><styleUrl>overlay</styleUrl><Polygon><outerBoundaryIs><LinearRing><coordinates>96.142566666700006,-18.920166666699998 96.219041666699994,-18.920166666699998 96.219041666699994,-18.995294444399999 96.142566666700006,-18.995294444399999 96.142566666700006,-18.920166666699998</coordinates></LinearRing></outerBoundaryIs></Polygon><visibility>0</visibility></Placemark>

</Folder>



<Folder id="overlay_1724">

    <name>sio_4_12_20</name>

    <styleUrl>#overlay_1724</styleUrl>

    <description><![CDATA[Date: <br/>Catalog ID: <a href='https://browse.digitalglobe.com/imagefinder/showBrowseMetadata?catalogId=<unknown>'><unknown></a>]]></description>

    <visibility>0</visibility><open>0</open><Placemark><styleUrl>overlay</styleUrl><Polygon><outerBoundaryIs><LinearRing><coordinates>96.413330555599998,-18.839458333300001 96.4899111111,-18.839458333300001 96.4899111111,-18.914488888899999 96.413330555599998,-18.914488888899999 96.413330555599998,-18.839458333300001</coordinates></LinearRing></outerBoundaryIs></Polygon><visibility>0</visibility></Placemark>

</Folder>



<Folder id="overlay_1723">

    <name>sio_4_12_21</name>

    <styleUrl>#overlay_1723</styleUrl>

    <description><![CDATA[Date: <br/>Catalog ID: <a href='https://browse.digitalglobe.com/imagefinder/showBrowseMetadata?catalogId=<unknown>'><unknown></a>]]></description>

    <visibility>0</visibility><open>0</open><Placemark><styleUrl>overlay</styleUrl><Polygon><outerBoundaryIs><LinearRing><coordinates>96.880391666700007,-19.1217611111 96.957319444399999,-19.1217611111 96.957319444399999,-19.196630555599999 96.880391666700007,-19.196630555599999 96.880391666700007,-19.1217611111</coordinates></LinearRing></outerBoundaryIs></Polygon><visibility>0</visibility></Placemark>

</Folder>



<Folder id="overlay_1722">

    <name>sio_4_12_23</name>

    <styleUrl>#overlay_1722</styleUrl>

    <description><![CDATA[Date: <br/>Catalog ID: <a href='https://browse.digitalglobe.com/imagefinder/showBrowseMetadata?catalogId=<unknown>'><unknown></a>]]></description>

    <visibility>0</visibility><open>0</open><Placemark><styleUrl>overlay</styleUrl><Polygon><outerBoundaryIs><LinearRing><coordinates>96.142566666700006,-18.920166666699998 96.219041666699994,-18.920166666699998 96.219041666699994,-18.995294444399999 96.142566666700006,-18.995294444399999 96.142566666700006,-18.920166666699998</coordinates></LinearRing></outerBoundaryIs></Polygon><visibility>0</visibility></Placemark>

</Folder>



<Folder id="overlay_1721">

    <name>sio_4_12_22</name>

    <styleUrl>#overlay_1721</styleUrl>

    <description><![CDATA[Date: <br/>Catalog ID: <a href='https://browse.digitalglobe.com/imagefinder/showBrowseMetadata?catalogId=<unknown>'><unknown></a>]]></description>

    <visibility>0</visibility><open>0</open><Placemark><styleUrl>overlay</styleUrl><Polygon><outerBoundaryIs><LinearRing><coordinates>95.714916666700006,-18.977422222200001 95.793883333300002,-18.977422222200001 95.793883333300002,-19.0502138889 95.714916666700006,-19.0502138889 95.714916666700006,-18.977422222200001</coordinates></LinearRing></outerBoundaryIs></Polygon><visibility>0</visibility></Placemark>

</Folder>



</Folder>

</Document>

</kml>
