https://abraxas.io/2019/11/20/ritsec-ctf-2019/#VACATION
https://samirettali.com/writeups/ritsec-2019/#vacation-100-points
https://cosmikflaghunters.wordpress.com/2019/11/18/ritsec-2019-long-gone-vacation/
