https://raw.githubusercontent.com/pastelito02/Challenges-sol/master/Programming/Codeabbey/129/DimonMIPT.cc
https://raw.githubusercontent.com/pastelito02/Challenges-sol/master/Programming/Codeabbey/129/GlideThestral.cs
https://raw.githubusercontent.com/pastelito02/Challenges-sol/master/Programming/Codeabbey/129/Hennes.hs
https://raw.githubusercontent.com/pastelito02/Challenges-sol/master/Programming/Codeabbey/129/RedPanda.java
https://raw.githubusercontent.com/pastelito02/Challenges-sol/master/Programming/Codeabbey/129/matthias.js
https://raw.githubusercontent.com/pastelito02/Challenges-sol/master/Programming/Codeabbey/129/KOR_Ryat.php
https://raw.githubusercontent.com/pastelito02/Challenges-sol/master/Programming/Codeabbey/129/mooninvader.py
https://raw.githubusercontent.com/pastelito02/Challenges-sol/master/Programming/Codeabbey/129/maverick.rb
https://raw.githubusercontent.com/pastelito02/Challenges-sol/master/Programming/Codeabbey/129/cire.swift
https://raw.githubusercontent.com/pastelito02/Challenges-sol/master/Programming/Codeabbey/129/Guy%20Gervais.vb
