https://www.youtube.com/watch?v=Rj6JDItzB6E
https://www.youtube.com/watch?v=lZHjhQW_0bo
https://github.com/skiptomyliu/solutions-bwapp/blob/master/README.md
https://www.dideo.ir/v/yt/lZHjhQW_0bo/%EC%9B%B9%ED%95%B4%ED%82%B9-92.-a7-bwapp-missing-functional-level-access
https://www.youtube.com/watch?v=4wkgoNynsCo
