https://www.thomaslaurenson.com/blog/2018/07/09/metasploitable3-pentesting-the-ubuntu-linux-version-part2/
https://www.hackingarticles.in/ftp-service-exploitation-metasploitable-3/
https://esc.sh/blog/proftp-vulnerability-could-allow-an-attacker-to-gain-a-shell-in-your-server/
https://www.ivoidwarranties.tech/posts/lab/metasploitable3/master-notes/
https://kakyouim.hatenablog.com/entry/2020/02/16/213616
