https://raw.githubusercontent.com/Waqar-107/Codeforces/master/B-set/433B.kuriyama%20mirai's%20stone.cpp
https://raw.githubusercontent.com/o-panda-o/MySolutions/master/Sorting/Code_433B_KuriyamaMiraisStone.java
https://raw.githubusercontent.com/changyuheng/codeforces-solutions/master/433b.py
