https://topic.alibabacloud.com/a/sqli-labs-less7-get-dump-into-outfile-string-export-file-get-character-injection_8_8_30018927.html
https://resources.infosecinstitute.com/tutorial-on-sqli-labs/
http://dummy2dummies.blogspot.com/2012/06/sqli-labs-series-part-10.html
https://www.cnblogs.com/omnis/p/8315087.html
https://blog.csdn.net/qq_34444097/article/details/80039116
https://chybeta.github.io/2017/07/12/Sqli-Labs-Less7-writeup/
https://segmentfault.com/a/1190000015793662
https://www.dazhuanlan.com/2019/10/10/5d9e0ae6ab829/
https://www.youtube.com/watch?v=ADW844OA6io
https://www.youtube.com/watch?v=Tq27OcU0yx8
https://skysec.top/2017/07/18/SQLi-LABS(Basic)(Less-1%20~%20Less-22)/#Less-7
https://www.youtube.com/watch?v=odiJxJoSytk
http://www.securitytube.net/video/4532?utm_source=feedburner&utm_medium=feed&utm_campaign=Feed%3A+SecurityTube+%28SecurityTube.Net%29
https://github.com/gr4vit0n/sqli-labs-solution/blob/master/less07.py
