https://raw.githubusercontent.com/leeychee/hackerrank/master/practice/algorithms/strings/beautiful_binary_string/main.go
https://raw.githubusercontent.com/charles-wangkai/hackerrank/master/beautiful-binary-string/Solution.java
https://raw.githubusercontent.com/yznpku/HackerRank/master/solution/practice/algorithms/strings/beautiful-binary-string/solution.py
https://raw.githubusercontent.com/raghav97/Hackerrank-Solutions/master/beautiful_binary_string.rb
https://raw.githubusercontent.com/witekbobrowski/HackerRank/master/Algorithms/Strings/beautiful-binary-string.swift
