https://www.itsc.cuhk.edu.hk/images/content/privacy-security/vas-web/wasample.pdf
http://blog.dornea.nu/2013/05/06/hacking-altoro-mutual/
https://www.ibm.com/developerworks/community/blogs/48a78681-82cc-434f-9c78-3e9117bfd466/resource/demo.testfire.netSecurityReport.pdf?lang=en
http://dammlab.com/bezopasnost-pk/rasshheplenie-http-zaprosa-http-response-splitting.html
