https://gitlab.com/tmck-code/codeeval/-/raw/master/easy/CPP/SumOfPrimes/main.cpp
https://gitlab.com/banjocat/codeeval_solutions/-/raw/master/4/main.go
https://raw.githubusercontent.com/Aadeshp/Codeeval-Solutions/29af977f30e6c5e5823e1e34ecd6de3c77506682/Easy/Sum_Of_Primes.java
https://raw.githubusercontent.com/AnEmortalKid/codeeval-lua/master/src/main/lua/com/anemortalkid/codeeval/lua/easy/sumofprimes/sum_of_primes.lua
https://raw.githubusercontent.com/blamonet/php-code-eval-solutions/master/sum_of_primes.php
