https://medium.com/ctf-writeups/hack-the-box-access-write-up-33ab4cb7d9b3
https://medium.com/@eDodo90/writeup-hack-the-box-access-88b25ede28ae
https://sheerazali.com/heist-writeup-hack-the-box/
https://resources.infosecinstitute.com/hack-the-box-htb-walkthrough-access/#gref
https://medium.com/@daniel.carlier/access-hack-the-box-walkthrough-d8272412d0fd
https://www.hackingarticles.in/hack-the-box-access-walkthrough/
https://0xrick.github.io/hack-the-box/access/
