https://raw.githubusercontent.com/ValeWasTaken/CodeAbbey_Solutions/master/Brainfuck/id114-Tricky_Printing.bf
https://raw.githubusercontent.com/mistahyee/CodeAbbey/master/p1.c
https://raw.githubusercontent.com/Kaotic636/code/master/one.cpp
https://raw.githubusercontent.com/Alekseyya/Codeabbey/master/Task_104/Program.cs
https://raw.githubusercontent.com/vinitkantrod/go-codeabbey/master/08_farhenite_celcius/main.go
https://raw.githubusercontent.com/abhinav124/codeabbey/master/FibonacciExample.java
https://raw.githubusercontent.com/DylanLenz/codeAbbey_Solutions_JavaScript/master/triangles_codeAbbey_9.js
https://raw.githubusercontent.com/peiandsky/codeabbeyByKotlin/master/src/problems01_10/Problem02_SumInLoop.kt
https://raw.githubusercontent.com/marclerodrigues/ruby_exercises/master/arithmetic_progression.rb
https://raw.githubusercontent.com/AlexMckey/CodeAbbey_Scala/master/src/GCD_LCM.scala
