https://github.com/skiptomyliu/solutions-bwapp#cross-site-request-forgery-transfer-amount
https://www.youtube.com/watch?v=CHFkrxzXMN8
https://www.youtube.com/watch?v=m4RX6-Rovmw
https://www.youtube.com/watch?v=vljnxXPRf0I
