https://security04.tistory.com/198
https://blog.limelee.xyz/entry/qr-code-puzzle
https://kangsecu.tistory.com/37
https://blog.ch4n3.me/342
https://noperfectsecurity.tistory.com/257
https://izeus12.tistory.com/73
https://mingzz1.github.io/wargame/wargame.kr/2018/10/17/wargame.kr-QR_CODE_PUZZLE.html
https://ndb796.tistory.com/328
https://tumblery.tistory.com/28
https://btr95.tistory.com/entry/WarGame-QR-CODE-PUZZLE
