https://re.kv.io/crackme/12.html
https://github.com/s1syphu5/RootMe-Challenges/tree/master/Cracking/APK%20-%20Anti-debug
https://programmersought.com/article/46822641177/
https://www.cnblogs.com/heycomputer/articles/10548039.html
https://raw.githubusercontent.com/s1syphu5/RootMe-Challenges/master/Cracking/ELF%20ARM%20-%20crackme%201337/README.md
https://blog.csdn.net/weixin_30270889/article/details/99600329
