https://raw.githubusercontent.com/pastelito02/Challenges-sol/master/Programming/codewars/is-the-string-uppercase/DarkD1.c
https://raw.githubusercontent.com/pastelito02/Challenges-sol/master/Programming/codewars/is-the-string-uppercase/eLCiao.cc
https://raw.githubusercontent.com/pastelito02/Challenges-sol/master/Programming/codewars/is-the-string-uppercase/cesarmuzel.coffee
https://raw.githubusercontent.com/pastelito02/Challenges-sol/master/Programming/codewars/is-the-string-uppercase/eLCiao.cpp
https://raw.githubusercontent.com/pastelito02/Challenges-sol/master/Programming/codewars/is-the-string-uppercase/mortonfox.cr
https://raw.githubusercontent.com/pastelito02/Challenges-sol/master/Programming/codewars/is-the-string-uppercase/gizpaid.cs
https://raw.githubusercontent.com/pastelito02/Challenges-sol/master/Programming/codewars/is-the-string-uppercase/Slurghy%20.dart
https://raw.githubusercontent.com/pastelito02/Challenges-sol/master/Programming/codewars/is-the-string-uppercase/biegomar.ex
https://raw.githubusercontent.com/pastelito02/Challenges-sol/master/Programming/codewars/is-the-string-uppercase/biegomar.exs
https://raw.githubusercontent.com/pastelito02/Challenges-sol/master/Programming/codewars/is-the-string-uppercase/spectralapps.go
https://raw.githubusercontent.com/pastelito02/Challenges-sol/master/Programming/codewars/is-the-string-uppercase/lvsz.hs
https://raw.githubusercontent.com/pastelito02/Challenges-sol/master/Programming/codewars/is-the-string-uppercase/tonitakekawa.jl
https://raw.githubusercontent.com/pastelito02/Challenges-sol/master/Programming/codewars/is-the-string-uppercase/eyentei.js
https://raw.githubusercontent.com/pastelito02/Challenges-sol/master/Programming/codewars/is-the-string-uppercase/webromer.php
https://raw.githubusercontent.com/pastelito02/Challenges-sol/master/Programming/codewars/is-the-string-uppercase/apenshin.py
https://raw.githubusercontent.com/pastelito02/Challenges-sol/master/Programming/codewars/is-the-string-uppercase/dejuata%20.rb
https://raw.githubusercontent.com/pastelito02/Challenges-sol/master/Programming/codewars/is-the-string-uppercase/villesau.re
https://raw.githubusercontent.com/pastelito02/Challenges-sol/master/Programming/codewars/is-the-string-uppercase/eliseuvideira.vb
