https://resources.infosecinstitute.com/the-bodgeit-store-part-2/#gref
https://linuxhint.com/cross_site_request_forgery_attack/
http://www.ctrl-alt-dev.nl/workshops/hyow/resources/hyow/Hack%20your%20own%20Web-App-v1.0.5.pdf
http://ender0101.blogspot.com/2014/08/bodgeit.html
