https://raw.githubusercontent.com/Raphaella24/Challenges/master/codewars/beginner-series-%232-clock/PandaMon3.c
https://raw.githubusercontent.com/Raphaella24/Challenges/master/codewars/beginner-series-%232-clock/2ScoopsCoops.cc
https://raw.githubusercontent.com/Raphaella24/Challenges/master/codewars/beginner-series-%232-clock/nicm42.coffee
https://raw.githubusercontent.com/Raphaella24/Challenges/master/codewars/beginner-series-%232-clock/materialfuture.cr
https://raw.githubusercontent.com/Raphaella24/Challenges/master/codewars/beginner-series-%232-clock/edzgiss.cs
https://raw.githubusercontent.com/Raphaella24/Challenges/master/codewars/beginner-series-%232-clock/lowhic.dart
https://raw.githubusercontent.com/Raphaella24/Challenges/master/codewars/beginner-series-%232-clock/phatcabbage.erl
https://raw.githubusercontent.com/Raphaella24/Challenges/master/codewars/beginner-series-%232-clock/deviousdonut.exs
https://raw.githubusercontent.com/Raphaella24/Challenges/master/codewars/beginner-series-%232-clock/Oxynger.go
https://raw.githubusercontent.com/Raphaella24/Challenges/master/codewars/beginner-series-%232-clock/OldPanda.py
