https://raw.githubusercontent.com/DestructHub/ProjectEuler/master/Problem057/Haskell/solution_slow_1.hs
https://raw.githubusercontent.com/nayuki/Project-Euler-solutions/master/java/p057.java
https://raw.githubusercontent.com/kdungs/euler/master/057/euler_57.py
https://raw.githubusercontent.com/sile/euler.rs/master/euler_02/src/problem057.rs
