https://raw.githubusercontent.com/zyjsuper/root-me-4/master/Web-Server/Backup%20File
https://www.youtube.com/watch?v=2ogAmnJZ1ak
https://jeonyoungsin.tistory.com/178
https://tgraph.io/CTF-Kurs-molodogo-bojca-Nachalnye-zadaniya-kategorii-WEB-08-31
https://www.securecorp.co.kr/6
https://codeasy.nl/hacking/root-me-antwoorden/backup-file/
https://www.youtube.com/watch?v=SIAKd8Ceq2I
https://raw.githubusercontent.com/RomaniukVadim/wargaming-challenges/master/RootMe/web-server/backup-file.txt
