https://raw.githubusercontent.com/nayuki/Project-Euler-solutions/master/haskell/p191.hs
https://raw.githubusercontent.com/nayuki/Project-Euler-solutions/master/java/p191.java
https://raw.githubusercontent.com/nayuki/Project-Euler-solutions/master/python/p191.py
https://raw.githubusercontent.com/nayuki/Project-Euler-solutions/master/mathematica/p191.mathematica
