https://raw.githubusercontent.com/YetAnotherMinion/YAMScratch/master/CodeAbbey/brainfuck-sol/117.bf
https://raw.githubusercontent.com/djs1193/codeabbey/master/q117.py
https://raw.githubusercontent.com/JesseClarkND/codeabbey_BrainFudge/master/Divide%20by%20Two
