27
496241348521
1170785560411
543189313039
2040914001229
4169157508673
9077027697281
2849873645659
479472800351
721009270907
187467081211
1330917506131
434575154869
532608030307
1044888328681
1965792014143
40592779013
62102773597
1587082248553
35023631831
3816181597303
577438650193
133045013663
8947304822581
434685784853
1058841712189
107395319183
575853947083
