https://dastinia.io/write-up/hackthebox/2018/08/04/hackthebox-silo-writeup/
https://medium.com/@DRX_Sicher/walkthrough-silo-hackthebox-929f7f0a7431
https://forum.hackthebox.eu/discussion/973/silo-write-up-unintended-without-odat-by-0xea31
https://v3ded.github.io/ctf/htb-silo.html
https://medium.com/@sathish__kumar/hackthebox-silo-writeup-5fe92ac04bb5
https://github.com/Hackplayers/hackthebox-writeups/blob/master/machines/Silo/drx51-silo.pdf
https://github.com/Hackplayers/hackthebox-writeups/blob/master/machines/Silo/frosters-silo.pdf
https://github.com/Hackplayers/hackthebox-writeups/blob/master/machines/Silo/mcruz-silo.pdf
https://github.com/Hackplayers/hackthebox-writeups/blob/master/machines/Rabbit/frosters-rabbit.pdf
https://www.youtube.com/watch?v=2c7SzNo9uoA
https://www.hackingarticles.in/hack-the-box-silo-walkthrough/
https://0xdf.gitlab.io/2018/08/04/htb-silo.html
https://spz.io/2018/08/05/silo-box-writeup-walkthrough-htb-hackthebox/
https://areyou1or0.blogspot.com/2020/01/htb-silo-walkthrough.html
https://infosecuritygeek.com/hackthebox-silo/
https://nvko-it.com/hackthebox-silo-write-up/
