https://raw.githubusercontent.com/linuxp3nguin/microcorruption-1/master/CTF/JO
https://ctfwriteup.wordpress.com/2014/09/27/microcorruption-johannesburg/
http://piratezpdx.blogspot.com.co/2014/12/microcorruption-johannesburg.html
http://jpaglier.blogspot.com.co/2015/02/microcorruption-viii-johannesburg.html
https://www.youtube.com/watch?v=cdEiY0dlEbk
http://tlk.tuxfamily.org/doku.php?id=writeup:microcorruption:johannesburg
https://github.com/ciz/microcorruption#johannesburg
