https://www.youtube.com/watch?v=f81HoSND_hc
https://www.youtube.com/watch?v=nYl1kFzSMM0
https://www.youtube.com/watch?v=F9OxaEnez_E
https://www.youtube.com/watch?v=bassiLw4qMA
https://www.youtube.com/watch?v=9SaEk6bdBBQ
https://www.youtube.com/watch?v=kCqw4Jdrcuw
https://www.youtube.com/watch?v=vwKOiMTrrMI
https://www.youtube.com/watch?v=m6S4f6ivDGE
https://www.youtube.com/watch?v=lzRyD5Y7y3E
https://www.youtube.com/watch?v=Lv5PQsyyjeA
https://www.youtube.com/watch?v=s3XQ1n5kdeQ
https://www.offensive-security.com/metasploit-unleashed/file-inclusion-vulnerabilities/
https://hakin9.org/web-application-penetration-testing-local-file-inclusion-lfi-testing/
https://github.com/ethicalhack3r/DVWA/issues/103
https://raoufz1.wordpress.com/2016/12/31/dvwa-file-inclusion-low-medium-and-high/
https://null-byte.wonderhowto.com/how-to/exploit-php-file-inclusion-web-apps-0179955/
https://www.youtube.com/watch?v=bXEZrPVviZ8
https://www.youtube.com/watch?v=MTUNE7JhhDA
https://www.youtube.com/watch?v=C0J9kd2Qt2E
https://www.youtube.com/watch?v=_QyGCev6fCk
https://www.youtube.com/watch?v=CrX4elNseWY
https://www.youtube.com/watch?v=PReZd0MBOwk
https://youtu.be/RWfUdv1GsKM
https://github.com/sheimo/DVWA-Answers#command-execution
https://youtu.be/RYNiOGFI-TQ
http://burakatabay.com/dvwa-file-inclusion/
https://www.information-security.fr/dvwa-csrf-file-inclusion-solutions-explications-protections/
https://drive.google.com/open?id=1KX5JyRJY1GZKGxtCwouKj8Fipy-BuE4q
https://drive.google.com/open?id=1_ExOWEKaEdaJDK9-RVXiyOwP-h9FvEab
https://drive.google.com/open?id=1kkSg0u6BVPSHVYrzxI6Dc9PXBEqztIR4
https://drive.google.com/open?id=1wNfkAA3M6Wa-AK4-a8iwedlpOKTvW1fn
https://github.com/sheimo/DVWA-Answers#file-inclusion
https://raw.githubusercontent.com/keewenaw/dvwa-guide-2019/master/low/Challenge%2004%3A%20File%20Inclusion.md
https://raw.githubusercontent.com/keewenaw/dvwa-guide-2019/master/low/Challenge%2005%3A%20File%20Upload.md
https://lepouvoirclapratique.com/blog/wp-content/uploads/2018/01/UE_Cybersecurite-TP_DVWA_v0.6.pdf#29
https://infoinsecu.wordpress.com/2017/08/24/dvwa-file-inclusion/
https://chris-young.net/2018/04/16/dvwa-file-inclusion/
https://medium.com/hacker-toolbelt/dvwa-1-9-v-file-inclusion-890ec23d6a29
https://www.hackingarticles.in/beginner-guide-file-inclusion-attack-lfirfi/
https://thudinh.blogspot.com/2017/09/dvwa-file-inclusion-low-level.html
http://www.storysec.com/dvwa-file-inclusion.html
https://hacksys.vfreaks.com/pen-testing/damn-vulnerable-web-app-local-file-inclusion-lfi.html
https://webhack.dynu.net/?idx=20161215.001
http://10degres.net/dvwa-file-upload/
https://www.ihacklabs.com/es/damn-vulnerable-web-application-dvwa-low/