https://www.youtube.com/watch?v=K9DKULxSBK4
https://drive.google.com/file/d/1w_wzVxBgHCS1ismpoNtOmHVdrnqIB_6g/view
https://medium.com/@ranakhalil101/hack-the-box-nineveh-writeup-w-o-metasploit-1e84173ba485
https://medium.com/pentestsec/nineveh-hackthebox-ctf-write-up-f462d8c7f4bd
https://v3ded.github.io/ctf/htb-nineveh.html
https://syrion.me/blog/htb-nineveh/
https://www.roguesecurity.in/2017/12/16/hack-the-box-nineveh-writeup/
https://www.hackingarticles.in/hack-the-box-nineveh-walkthrough/
https://hkh4cks.com/blog/2017/12/30/htb-nineveh-walkthrough/
