https://raw.githubusercontent.com/guillaume-nargeot/project-euler-clojure/master/src/project_euler/problem_174.clj
https://raw.githubusercontent.com/nayuki/Project-Euler-solutions/master/java/p174.java
https://raw.githubusercontent.com/nayuki/Project-Euler-solutions/master/python/p174.py
