https://raw.githubusercontent.com/Cheshulko/Algorithms/master/Leetcode/BalancedBinaryTree.cpp
https://raw.githubusercontent.com/Rikin04/leetcode/master/0110.balanced-binary-tree/balanced-binary-tree.java
https://raw.githubusercontent.com/MrErHu/Leetcode/master/algorithms/110.Balanced%20Binary%20Tree/Balanced%20Binary%20Tree.js
