23
0.450075286906
0.115117188543
0.533489136025
0.957336895168
0.531461272854
0.673773792107
0.255030356813
0.355163530447
0.465568670072
0.346496169921
0.914670231286
0.256307795644
0.216138032265
0.319211440161
0.742139080074
0.836167786736
0.0208819448017
0.751882175915
0.0309515176341
0.386311057024
0.986061504111
0.950232119765
0.494469498284
