http://c6h4cl2.lab.uy.to/698
http://sithlab.tistory.com/698
https://github.com/ThaWeatherman/eg_solutions/blob/master/basics/sql/1.txt
https://cryptocult.wordpress.com/cyber-challenges/enigma-group-solutions/sql-injection/
