https://dastinia.io/write-up/hackthebox/2018/05/09/htb-nibbles/
https://github.com/Hackplayers/hackthebox-writeups/blob/master/machines/Nibbles/drx51-nibbles.pdf
https://github.com/Hackplayers/hackthebox-writeups/blob/master/machines/Nibbles/fiti-nibbles.pdf
https://github.com/Hackplayers/hackthebox-writeups/blob/master/machines/Nibbles/k4nj1d-nibbles.pdf
https://github.com/Hackplayers/hackthebox-writeups/blob/master/machines/Nibbles/manulqwerty-nibbles.pdf
https://github.com/Hackplayers/hackthebox-writeups/blob/master/machines/Nibbles/pitenager-nibbles.pdf
https://ironhackers.es/en/writeups/writeup-nibbles-hackthebox/
https://medium.com/@DRX_Sicher/ctf-walkthrough-nibbles-c82d1e4d23c7
https://nikolaskama.me/nibbles-hack-the-box-writeup/
https://nilsec.wordpress.com/write-ups/hackthebox/nibbles/
https://steffinstanly.github.io/Hack-the-Box-Nibbles/
https://www.youtube.com/watch?v=s_0GcRGv6Ds
https://www.youtube.com/watch?v=zynuFoFgEPI
https://www.youtube.com/watch?v=zlAP_Z8F6YM
https://medium.com/ctf-writeups/nibbles-write-up-htb-784e6b887f7d
https://0xdf.gitlab.io/2018/06/30/htb-nibbles.html
https://www.hackingarticles.in/hack-the-box-challenge-nibble-walkthrough/
