https://raw.githubusercontent.com/igor-kutepov/codeabbey/master/src/main/java/com/kutepov/samples/codeabbey/GradientCalculation.java
https://raw.githubusercontent.com/Xzya/CodeAbbeySolutions/master/GradientCalculation.py
https://raw.githubusercontent.com/JesseClarkND/codeabbey_in_C-NET/master/Gradient%20Calculation
