https://0xrick.github.io/hack-the-box/curling/
https://medium.com/@rietesh/curling-write-up-hackthebox-5fa9491b6239
https://0x00sec.org/t/hackthebox-write-up-curling/12650
https://www.secjuice.com/htb-curling-writeup-hackthebox/
https://resources.infosecinstitute.com/hack-the-box-htb-walkthrough-series-curling/#gref
https://hackso.me/curling-htb-walkthrough/
https://www.hackingarticles.in/hack-the-box-curling-walkthrough/
https://www.youtube.com/watch?v=_-inwy2mi_w
