https://null-byte.wonderhowto.com/forum/hiob-website-hacking-series-part-1-hacking-websites-using-sql-injection-error-based-0158949/
https://hackingparanovatos.wordpress.com/2017/08/31/dvwa-sql-injection-completo
https://www.creadpag.com/2018/05/vulnerability-sql-injection-dvwa-en.html
https://www.computersecuritystudent.com/SECURITY_TOOLS/DVWA/DVWAv107/lesson7/index.html
http://scx010c075.blogspot.com/2012/02/dvwa-sql-injection.html
https://c43s4rs.blogspot.com/2018/02/sql-injection-para-dummies-primera-parte.html
https://www.meethackers.com/union-based-injection-john-the-ripper
http://www.admin-magazine.com/Articles/Uncovering-SQL-Injections
https://manuelbgomar.wixsite.com/b0cat4/single-post/2016/05/04/DVWA-SQL-Injection
http://www.bitforestinfo.com/2017/08/how-to-do-sql-injection-manually.html
https://www.hackingarticles.in/command-injection-exploitation-through-sqlmap-in-dvwa
