https://raw.githubusercontent.com/s1syphu5/RootMe-Challenges/master/System/ELF%20x86%20-%20BSS%20buffer%20overflow/README.md
https://gitlab.com/rsheasby/root-me-app-system/-/raw/master/08.%20ELF%20x86%20-%20BSS%20buffer%20overflow/instructions.md
https://blog.choiys.kr/entry/RootMe-ELF-x86-BSS-buffer-overflow?category=732318
https://kblab.tistory.com/460
http://showlinkroom.me/2017/12/04/Root-me-App-System02/
