https://raw.githubusercontent.com/rkaldawy/writeups2019/master/tuctf/crypto_infinite/probe.py
https://ctftime.org/writeup/17403
https://raw.githubusercontent.com/cloudstrife9999/tuctf-crypto-infinite/master/exploit.py
