https://raw.githubusercontent.com/drshade/smashthestack/master/level07.solution.txt
https://www.greyhat.dk/io-smashthestack-level-07/
https://infamoussyn.wordpress.com/2013/09/11/smashthestack-io-walkthrough-part-b-levels-6-10/
