https://raw.githubusercontent.com/leocamello/HackerRank/master/Domains/C%2B%2B/Classes/Abstract%20Classes%20-%20Polymorphism/main.cpp
https://raw.githubusercontent.com/xeoneux/30-Days-of-Code/master/F%20-%20Abstract%20Classes/Solution.cs
https://raw.githubusercontent.com/xeoneux/30-Days-of-Code/master/F%20-%20Abstract%20Classes/Solution.fs
https://raw.githubusercontent.com/rshaghoulian/HackerRank_solutions/master/General%20Programming/Object-oriented%20Programming/Abstract%20Classes/Solution.java
https://raw.githubusercontent.com/xeoneux/30-Days-of-Code/master/F%20-%20Abstract%20Classes/Solution.kt
https://raw.githubusercontent.com/xeoneux/30-Days-of-Code/master/F%20-%20Abstract%20Classes/Solution.py
https://raw.githubusercontent.com/xeoneux/30-Days-of-Code/master/F%20-%20Abstract%20Classes/Solution.swift
