http://qkqhxla1.tistory.com/269
https://h3nryh3nry.wordpress.com/2015/02/20/hackthis-coding-level-1/
https://github.com/james9909/PracticeCTF/blob/master/HackThis/Coding-1/Solution.py
https://www.youtube.com/watch?v=ps3VAJNoGJ0&feature=youtu.be&t=15s
https://www.youtube.com/watch?v=anhgJYFCnq8
https://raw.githubusercontent.com/luceatnobis/challenges/master/hackthis.co.uk/coding/1/1.py
