https://raw.githubusercontent.com/TheCK/codeChallenges/master/codeEval/src/main/java/org/ck/codeEval/medium/theMinistryOfTruth/Main.java
https://raw.githubusercontent.com/pascal-bourut/codeeval-challenges/master/moderate/143%20-%20The%20Ministry%20of%20Truth/143.js
https://raw.githubusercontent.com/pascal-bourut/codeeval-challenges/master/moderate/143%20-%20The%20Ministry%20of%20Truth/143.php
https://raw.githubusercontent.com/mpillar/codeeval/master/1-moderate/the-ministry-of-truth/main.py
