https://www.aldeid.com/wiki/WackoPicko/Reflected-XSS-Behind-JavaScript
https://www.youtube.com/watch?v=8euyZGBL3K0
https://www.youtube.com/watch?v=cEqhlaCpzYA
https://www.youtube.com/watch?v=74IdGmx5oQ0
http://sefcom.asu.edu/publications/black-box-scanners-dimva2010.pdf
https://www.youtube.com/watch?v=bBgdHS7i-dc
http://bastionado.blogspot.com/2013/04/reto-web-wackopicko-iii.html
http://m4l1ce.me/writeups/2017/04/10/owasp-broken-web-apps-wackopicko.html
https://41t0r.files.wordpress.com/2018/08/wackopicko.pdf
