https://github.com/bsqrl/juice-shop-walkthrough#12-get-rid-of-all-5-star-customer-feedback
https://github.com/bkimminich/pwning-juice-shop/blob/master/appendix/solutions.md#post-some-feedback-in-another-users-name
https://github.com/apox64/OWASP-Juice-Shop-Write-Up/blob/master/juice-shop-writeup.md#19-post-some-feedback-in-another-users-name
https://incognitjoe.github.io/hacking-the-juice-shop.html
https://bkimminich.gitbooks.io/pwning-owasp-juice-shop/content/appendix/solutions.html