https://computersecuritystudent.com/SECURITY_TOOLS/DVWA/DVWAv107/lesson2/index.html
https://computersecuritystudent.com/SECURITY_TOOLS/DVWA/DVWAv107/lesson3/index.html
https://computersecuritystudent.com/SECURITY_TOOLS/DVWA/DVWAv107/lesson4/index.html
https://code610.blogspot.com/2019/10/testing-dvna.html
https://www.cnblogs.com/hack404/p/10386938.html
