https://raw.githubusercontent.com/nayuki/Project-Euler-solutions/master/haskell/p128.hs
https://raw.githubusercontent.com/nayuki/Project-Euler-solutions/master/java/p128.java
https://raw.githubusercontent.com/nayuki/Project-Euler-solutions/master/python/p128.py
https://raw.githubusercontent.com/nayuki/Project-Euler-solutions/master/mathematica/p128.mathematica
