https://github.com/bsqrl/juice-shop-walkthrough#15-access-someone-elses-basket
https://www.youtube.com/watch?v=l6ssciWPW5I&list=PLelhKCa4OeJN56V4KF-CglBV15oS7MQUK&index=8
https://bkimminich.gitbooks.io/pwning-owasp-juice-shop/content/appendix/solutions.html#put-an-additional-product-into-another-users-shopping-basket
https://incognitjoe.github.io/hacking-the-juice-shop.html
https://n0j.github.io/2018/08/01/owasp-juice-shop-v7.3.0-level-2.html
https://raw.githubusercontent.com/apox64/OWASP-Juice-Shop-Write-Up/master/juice-shop-writeup.md
https://raw.githubusercontent.com/bsqrl/juice-shop-walkthrough/master/README.md
