https://raw.githubusercontent.com/rbarril75/CodeEval/master/Grid%20Walk/GridWalk.java
https://raw.githubusercontent.com/pascal-bourut/codeeval-challenges/master/hard/60%20-%20Grid%20walk/60.js
https://raw.githubusercontent.com/pascal-bourut/codeeval-challenges/master/hard/60%20-%20Grid%20walk/60.php
https://raw.githubusercontent.com/mpillar/codeeval/master/2-hard/grid-walk/main.py
