https://www.youtube.com/watch?v=FQ8zLllkBbU
https://www.youtube.com/watch?v=2Ma2kss9pAY
https://github.com/hbayramov/bWAPP-Solutions#sql-injection-searchpost
https://github.com/skiptomyliu/solutions-bwapp#sql-injection-postsearch
https://youtu.be/oQOpyA72OT0?t=11m13s
https://www.youtube.com/watch?v=HlS9zR8ZMfo
https://www.youtube.com/watch?v=TIm5S1mR65w
https://www.youtube.com/watch?v=S0Np3zGBVUQ
https://www.youtube.com/watch?v=_ahWOHo66ew
https://www.youtube.com/watch?v=jSPr3MPPLLM
https://github.com/naiduv/codecrawl/blob/master/code/bwapp-sqli.rb
https://medium.com/@grep_security/sql-injections-part-1-4b1fa5b8758d
https://th3phantoms.blogspot.com/2017/06/exploit-sql-injection-getsearch-flaw-on.html
https://benspring100.wordpress.com/2016/07/17/bwapp-sql-injection-getsearch-and-introduction/
http://www.h3399.cn/201707/111479.html
https://teckk2.github.io/web-pentesting/2018/02/07/SQL-Injection(Search-POST).html
https://ctf-time.com/bwapp-walkthrough-sql-injection-cross-site-scripting/
https://studysecurity-world.tistory.com/65?category=806005
https://habr.com/ru/post/250551/
https://net123.tistory.com/451?category=695510
