https://raw.githubusercontent.com/StevenDunn/CodeEval/master/SimpleOrTrump/c/sot.c
https://raw.githubusercontent.com/StevenDunn/CodeEval/master/SimpleOrTrump/cpp/sot.cpp
https://raw.githubusercontent.com/mpillar/codeeval/master/0-easy/simple-or-trump/main.py
https://raw.githubusercontent.com/jtibbertsma/code-eval/master/simple-or-trump/trump.rb
