https://raw.githubusercontent.com/AkashChandrakar/codeforces-solutions/master/c%2B%2B/166-A-11615299.cpp
https://raw.githubusercontent.com/o-panda-o/MySolutions/master/Sorting/Code_166A_RankList.java
https://raw.githubusercontent.com/changyuheng/codeforces-solutions/master/166a.py
