http://r4stl1n.github.io/2014/12/27/OverTheWire-Natas8-16.html#natas-16
https://raw.githubusercontent.com/lv22/otw-natas/master/L16/level16.txt
https://routley.io/posts/natas/
https://www.youtube.com/watch?v=1IBuV6_Ol28&t=3351s
http://www.voidcn.com/article/p-mznvubcu-vt.html
