https://raw.githubusercontent.com/nayuki/Project-Euler-solutions/master/haskell/p117.hs
https://raw.githubusercontent.com/nayuki/Project-Euler-solutions/master/java/p117.java
https://raw.githubusercontent.com/nayuki/Project-Euler-solutions/master/python/p117.py
https://raw.githubusercontent.com/nayuki/Project-Euler-solutions/master/mathematica/p117.mathematica
