https://www.fwhibbit.es/guia-metasploitable-2-parte-1
https://stuffwithaurum.blog/2015/06/14/metasploitable-2-walkthrough-an-exploitation-guide/
https://www.youtube.com/watch?v=TZm1rmQ_1WY
https://311hrs.wordpress.com/2016/04/03/metasploitable-2-javarmi-part-6/
https://a.ndronic.us/guides/metasploit/html/index.html#__RefHeading___Toc1466_210526659
https://www.computersecuritystudent.com/SECURITY_TOOLS/METASPLOITABLE/EXPLOIT/lesson5/
https://null-byte.wonderhowto.com/how-to/exploit-java-remote-method-invocation-get-root-0187685/
https://mundo-hackers.weebly.com/puerto-1099---java-rmi-registry.html
https://kush.com.fj/blog/posts/2018-07-27-metasploitable2-walkthrough/#port-1099-1
