https://raw.githubusercontent.com/MaskRay/HackerRank/master/sherlock-and-valid-string.cc
https://raw.githubusercontent.com/leeychee/hackerrank/master/practice/algorithms/strings/sherlock_and_valid_string/main.go
https://raw.githubusercontent.com/nikesh787898/hackerrank-Sherlock-and-Valid-String-solution/master/Solution.java
https://raw.githubusercontent.com/rootulp/hackerrank/master/python/sherlock-and-valid-string.py
https://raw.githubusercontent.com/raghav97/Hackerrank-Solutions/master/sherlock_and_valid_string.rb
