https://raw.githubusercontent.com/fuwutu/CodeForces/master/270A%20-%20Fancy%20Fence.cpp
https://raw.githubusercontent.com/nikzsaz/Codeforces-solution/master/270A-FancyFence.java
https://raw.githubusercontent.com/changyuheng/codeforces-solutions/master/270a.py
