https://github.com/akanshgulati/XSS-Challenges#level-3-that-sinking-feeling
https://youtu.be/nEP4h9JQJD8?t=1m10s
https://youtu.be/EFr9jxo-vCw?t=25s
https://www.youtube.com/watch?v=kQPqbZA_lVI
https://www.youtube.com/watch?v=74QaI1z0uNo
http://blog.dornea.nu/2014/06/02/googles-xss-game-solutions/#8f60a63315c55e659b1a2dd5064ceae8
https://gist.github.com/pbssubhash/2f99644a4f24e8fe6b3e
https://gist.github.com/djadmin/737a77b87d0bad8a9c79
https://gist.github.com/adriaandens/722383ba4c717baf8007#level-3-that-sinking-feeling
https://gist.github.com/antoinebrl/f7b4d7a1b4465a739d8b#level-3-that-sinking-feeling
https://gist.github.com/JannisKirschner/947b6d48058e2e2be17ec87436974b14#file-google_xss_game-solutions-txt-L25
https://gist.github.com/Arinerron/19d75c81bcff5622bf6d4f2ff8e3829d#file-xss-game-solutions-txt-L9
https://www.doyler.net/security-not-included/google-xss-game
http://www.behindthefirewalls.com/2014/06/xss-game-by-google-exercises-1-2-and-3.html
https://h4ck3rprotocol.wordpress.com/2015/06/11/answers-for-xss-game/
http://xss-game-solved.blogspot.com/2014/06/solution-of-xss-game-level-3-that.html
http://offsec-sureshatt.blogspot.com/2017/04/google-xss-game-solving-level-3.html
https://www.youtube.com/watch?v=5artCWJfcIc
http://paulsec.github.io/blog/2014/06/02/diving-into-xss-googles-game/
https://youtu.be/OOLz5kgKwmg?t=2m10s
https://github.com/arsho/xss_game#level-3-that-sinking-feeling
https://youtu.be/Go5vTSlB-U8
https://gist.github.com/Harshish/2b2446b4f04aa05306913b730b5ba68d
https://tinyurl.com/y537hk2b
https://getlink.pro/v/kQPqbZA_lVI
https://getlink.pro/v/Go5vTSlB-U8
https://getlink.pro/v/5artCWJfcIc
https://getlink.pro/v/_LgpSek430U
https://cyberlabonline.wordpress.com/tag/xss-game-level-3/
https://jeonyoungsin.tistory.com/480?category=815285
https://raw.githubusercontent.com/djadmin/XSS-Challenges/master/Google's%20XSS%20game.txt
https://medium.com/bugdecoder/google-xss-game-walkthrough-70d801dd922
https://jlajara.gitlab.io/posts/2018/12/16/XSS-Google-Game.html#Challenge6
https://viyoutube.com/video/K549Ko7gYRE/http://xss-game.appspot.com/level6%20solution
https://www.youtube.com/watch?v=IlDlrTrvvfo
