https://raw.githubusercontent.com/ysmolsky/cryptopals-matasano-solutions/master/32/main.go
https://raw.githubusercontent.com/ilchen/cryptopals/master/src/main/java/com/cryptopals/Set4.java
https://raw.githubusercontent.com/lt/php-cryptopals/master/Cryptopals/Set4/Challenge32/Solution32.php
https://raw.githubusercontent.com/akalin/cryptopals-python3/master/challenge32.py
https://raw.githubusercontent.com/technion/matasano_challenge/master/set4/chal32/chal32.rb
https://raw.githubusercontent.com/Daeinar/cryptopals/master/src/c32.rs
