https://raw.githubusercontent.com/guillaume-nargeot/project-euler-clojure/master/src/project_euler/problem_179.clj
https://raw.githubusercontent.com/nayuki/Project-Euler-solutions/master/java/p179.java
https://raw.githubusercontent.com/nayuki/Project-Euler-solutions/master/python/p179.py
