https://raw.githubusercontent.com/Gamer1092/Coderbyte/Easy/Dash%20Insert.cpp
https://raw.githubusercontent.com/Nigelmnz/CoderbyteSolutions/master/23-DashInsert/23.hs
https://raw.githubusercontent.com/GabrielGhe/CoderbyteChallenges/master/easy_DashInsert.java
https://raw.githubusercontent.com/ZLester/Coderbyte-Solutions/master/Easy/23%20-%20Dash%20Insert.js
https://raw.githubusercontent.com/GabrielGhe/CoderbyteChallenges/master/easy_DashInsert.py
https://raw.githubusercontent.com/tomyancey/coderbyte_solutions/master/dash_insert.rb
