https://raw.githubusercontent.com/pastelito02/Challenges-sol/master/Programming/codewars/subtract-the-sum/dinglemouse.c
https://raw.githubusercontent.com/pastelito02/Challenges-sol/master/Programming/codewars/subtract-the-sum/Ekaterine.cc
https://raw.githubusercontent.com/pastelito02/Challenges-sol/master/Programming/codewars/subtract-the-sum/hiljusti.clj
https://raw.githubusercontent.com/pastelito02/Challenges-sol/master/Programming/codewars/subtract-the-sum/B1ts.coffee
https://raw.githubusercontent.com/pastelito02/Challenges-sol/master/Programming/codewars/subtract-the-sum/Ekaterine.cpp
https://raw.githubusercontent.com/pastelito02/Challenges-sol/master/Programming/codewars/subtract-the-sum/taw.cr
https://raw.githubusercontent.com/pastelito02/Challenges-sol/master/Programming/codewars/subtract-the-sum/SlyBeetle.cs
https://raw.githubusercontent.com/pastelito02/Challenges-sol/master/Programming/codewars/subtract-the-sum/SoundsGood.dart
https://raw.githubusercontent.com/pastelito02/Challenges-sol/master/Programming/codewars/subtract-the-sum/Samboozle.ex
https://raw.githubusercontent.com/pastelito02/Challenges-sol/master/Programming/codewars/subtract-the-sum/Samboozle.exs
https://raw.githubusercontent.com/pastelito02/Challenges-sol/master/Programming/codewars/subtract-the-sum/sergeipetrashko8.fs
https://raw.githubusercontent.com/pastelito02/Challenges-sol/master/Programming/codewars/subtract-the-sum/Alyks1.go
https://raw.githubusercontent.com/pastelito02/Challenges-sol/master/Programming/codewars/subtract-the-sum/Munto.groovy
https://raw.githubusercontent.com/pastelito02/Challenges-sol/master/Programming/codewars/subtract-the-sum/mihassan.hs
https://raw.githubusercontent.com/pastelito02/Challenges-sol/master/Programming/codewars/subtract-the-sum/titosuarezb.java
https://raw.githubusercontent.com/pastelito02/Challenges-sol/master/Programming/codewars/subtract-the-sum/uinku.jl
https://raw.githubusercontent.com/pastelito02/Challenges-sol/master/Programming/codewars/subtract-the-sum/nikolaysalinder.js
https://raw.githubusercontent.com/pastelito02/Challenges-sol/master/Programming/codewars/subtract-the-sum/OVOSKOP.kt
https://raw.githubusercontent.com/pastelito02/Challenges-sol/master/Programming/codewars/subtract-the-sum/kvbc.lua
https://raw.githubusercontent.com/pastelito02/Challenges-sol/master/Programming/codewars/subtract-the-sum/matraven.nim
https://raw.githubusercontent.com/pastelito02/Challenges-sol/master/Programming/codewars/subtract-the-sum/kexxx777xxx.php
https://raw.githubusercontent.com/pastelito02/Challenges-sol/master/Programming/codewars/subtract-the-sum/Rauwomos.pro
https://raw.githubusercontent.com/pastelito02/Challenges-sol/master/Programming/codewars/subtract-the-sum/de.angelov.purs
https://raw.githubusercontent.com/pastelito02/Challenges-sol/master/Programming/codewars/subtract-the-sum/Renatka.py
https://raw.githubusercontent.com/pastelito02/Challenges-sol/master/Programming/codewars/subtract-the-sum/Maxwell0037.r
https://raw.githubusercontent.com/pastelito02/Challenges-sol/master/Programming/codewars/subtract-the-sum/i_wdt.rb
https://raw.githubusercontent.com/pastelito02/Challenges-sol/master/Programming/codewars/subtract-the-sum/iwtga.re
https://raw.githubusercontent.com/pastelito02/Challenges-sol/master/Programming/codewars/subtract-the-sum/jtr109.rs
https://raw.githubusercontent.com/pastelito02/Challenges-sol/master/Programming/codewars/subtract-the-sum/user6224054.scala
https://raw.githubusercontent.com/pastelito02/Challenges-sol/master/Programming/codewars/subtract-the-sum/erdemygt.sh
https://raw.githubusercontent.com/pastelito02/Challenges-sol/master/Programming/codewars/subtract-the-sum/bsleboda.swift
https://raw.githubusercontent.com/pastelito02/Challenges-sol/master/Programming/codewars/subtract-the-sum/eipxvx.ts
