https://underc0de.org/foro/soluciones-de-wargames/resolviendo-el-ctf-rickdiculouslyeasy-1-vulnhub-com/
http://www.divyaaradhya.com/2018/05/01/ctf-solution-rickdiculouslyeasy-1/
https://blog.geoda-security.com/2017/10/rickdiculouslyeasy-1-walkthrough.html
https://lukeanderson.com/2017/11/30/rickdiculously-easy-vulnhub-walkthrough/
https://www.youtube.com/watch?v=5hT5EG7LECI
https://www.rootnetsec.com/vulnhub-rickdiculouslyeasy/
https://www.n00py.io/2017/10/vulnhub-walkthrough-rickdiculouslyeasy-1/
https://medium.com/infosec-adventures/rickdiculously-easy-ctf-walkthrough-e6a99db3e38a
https://pcaro.es/w/rickdiculously-easy
http://amandaszampias.blogspot.com/2017/10/first-post.html
https://alexandervoidstar.wordpress.com/2017/11/05/ctf-writeup-rickdiculously-easy/
https://ohexfortyone.com/2017/10/vulnhub-rickdiculously-easy-boot2root-vm.html
https://latesthackingnews.com/2019/03/28/rickdiculously-a-ctf-designed-for-rick-and-morty-fans/
https://www.jianshu.com/p/eb90b2835a5a
https://hacknmatics.com/ctfs/ctf-walkthrough-rickdiculouslyeasy/
https://mrcopy.gitlab.io/vulnhub-write-up-rickdiculously-easy-1.html
https://www.hackermeets.com/post/rickdiculously-easy-ctf-write-up
