https://www.hackingarticles.in/hack-the-box-waldo-walkthrough/
https://medium.com/ctf-writeups/waldo-write-up-htb-dfbaaaa91282
https://resources.infosecinstitute.com/hack-the-box-htb-walkthrough-waldo/
https://hackso.me/waldo-htb-walkthrough/
https://danhoerst.com/htb/walkthrough/waldo/2018/12/15/htb-waldo.html
https://securityboulevard.com/2019/09/hack-the-box-htb-machines-walkthrough-series-waldo/
https://medium.com/@hussaini.faisal/hackthebox-writeup-waldo-88b94657095a
https://0xrick.github.io/hack-the-box/waldo/
https://snowscan.io/htb-writeup-waldo/
https://0xdf.gitlab.io/2018/12/15/htb-waldo.html
https://blog.barradell-johns.com/index.php/2019/10/16/htb-waldo/
https://www.rorroh.net/post/hack-box-waldo.html
https://www.baslub.nl/htb-waldo/
https://zineausa.com/blog/2018/12/hackthebox-waldo-writeup/
https://hackinganarchy.wordpress.com/2019/04/20/hackthebox-waldo-write-up/
https://s1gh.sh/hackthebox-waldo-walkthrough/
https://laptrinhx.com/hackthebox-waldo-write-up-594870360/
