https://www.youtube.com/watch?v=ENIae7IsTFk
https://g0blin.co.uk/tommy-vulnhub-writeup/
https://seclyn.wordpress.com/2016/08/22/vulnhub-tommy-boy/
https://n13mant.wordpress.com/2016/08/04/tommy-boy-1/
http://hackernovice.com/2016/08/03/tommy-boy-1/
https://reversebrain.wordpress.com/2016/08/02/vulnhub-tommy-boy/
https://www.youtube.com/watch?v=jEI63fP5j5U
http://www.mrb3n.com/?p=193
https://www.youtube.com/watch?v=jEI63fP5j5U&t=33s
https://www.youtube.com/watch?v=xaO9m7aWiK8
https://www.youtube.com/watch?v=PcRZI5TAw6A
http://f4l13n5n0w.github.io/blog/2016/09/13/vulnhub-tommy-boy-1/
http://duncan.deltoros.net/articles/2016-09/vulnhub-tommyboy
https://blog.geoda-security.com/2016/08/tommy-boy1-walkthrough.html
https://mundo-hackers.weebly.com/tommyboy.html
https://n0w4n.nl/tommy-boy-1/
https://www.hackingarticles.in/hack-tommyboy-vm-ctf-challenge/
https://blog.csdn.net/qq_34801745/article/details/104124940
https://ktflash.gitbooks.io/kakashi/tommy_boy_1.html
https://medium.com/@andr3w_hilton/tommy-boy-1-ctf-vm-vulnhub-com-8b6cbfc3678c
