27 201
Deneb -161 214
Altair -544 536
Electra 284 -920
Sirius 904 -747
Alcyone -253 470
Jabbah 945 -888
Rigel 77 -382
Pherkad -511 -870
Alcor -837 -500
Mizar 894 610
Media 739 332
Kochab 984 -238
Gemma -265 158
Procyon 668 29
Nembus -632 872
Capella -853 207
Aldebaran 85 -396
Bellatrix -257 -631
Thabit -316 -353
Vega -378 432
Unuk -884 -434
Kastra 545 193
Betelgeuse 185 -967
Diadem 324 348
Algol -467 217
Yildun -43 -728
Zosma -451 -59
