https://metasploit.help.rapid7.com/docs/metasploitable-2-exploitability-guide
https://stuffwithaurum.blog/2015/06/14/metasploitable-2-walkthrough-an-exploitation-guide/
https://null-byte.wonderhowto.com/how-to/hack-metasploitable-2-including-privilege-escalation-0170603/
https://computersecuritystudent.com/SECURITY_TOOLS/METASPLOITABLE/EXPLOIT/lesson2/index.html
https://www.youtube.com/watch?v=DoUZFHwZntY
https://www.youtube.com/watch?v=PpJ0Y14Azo4
https://www.youtube.com/watch?v=oYxtw8EHM4A
http://alejo-0430.blogspot.com/2012/06/metasploitable-parte-2-explotando.html
https://blog.g0tmi1k.com/2010/07/metasploitable-distcc/
http://fallensnow-jack.blogspot.com/2011/10/learning-metasploitable-distcc.html
https://medium.com/@ehsahil/basic-penetration-testing-lab-1-7544969cb3ac
https://0xzoidberg.wordpress.com/2010/07/03/hacking-distcc-with-metasploit/
http://www.rwbnetsec.com/distccd/
https://mulitia.wordpress.com/wargames/metasploitable/distcc-udev/
https://mesq.es/explotacion-vulnerabilidad-distcc-con-metasploit/
https://0x00sec.org/t/metasploitable-1-walkthrough/3964
http://edublog.bitcrack.net/2016/10/pwning-metasploitable-2-exploiting_12.html
https://www.securitynewspaper.com/2016/04/25/hack-metasploitable-2-including-privilege-escalation/
