http://itknowledgeexchange.techtarget.com/Irregular-Expressions/hackthissite-application-level-8/
http://itknowledgeexchange.techtarget.com/Irregular-Expressions/hackthissite-application-level-8-part-2/
http://itknowledgeexchange.techtarget.com/Irregular-Expressions/hackthissite-application-level-8-part-3/
http://itknowledgeexchange.techtarget.com/Irregular-Expressions/hackthissite-application-level-8-part-4-spolier/
