https://raw.githubusercontent.com/nksharma47/BinarySearch/master/BinarySearch.c
https://gist.githubusercontent.com/mrallen1/3429596/raw/957aea87e0a9990df091a5d8eca695047b3eb875/t.erl
https://gist.githubusercontent.com/emre/6340638/raw/a085598a8e1584f0087ea677e77e76d0381b65ff/golang_binary_search.go
https://raw.githubusercontent.com/tobsa/Haskell-Binary-Search-Tree/master/BinarySearchTree.hs
https://raw.githubusercontent.com/NelsonDS99/BinarySearch/master/src/BinarySearch.java
https://raw.githubusercontent.com/Lucascoorek/binary-search/master/index.js
https://raw.githubusercontent.com/ThomasZumsteg/exercism-python/master/binary-search/binary_search.py
https://raw.githubusercontent.com/jethington/RustBinarySearchTree/master/BinaryTree.rs
https://raw.githubusercontent.com/F1LT3R/binary-search-in-typescript/master/binary-search.ts
https://raw.githubusercontent.com/JesseClarkND/codeabbey_in_C-NET/master/Binary%20Search
