https://github.com/luceatnobis/challenges/blob/master/net-force.nl/flag/image.py
https://resources.infosecinstitute.com/defeating-steganography-solutions-to-net-force-ctf-challenges-using-practical-steganalysis/#gref
https://www.cnblogs.com/Martinium/p/net-force_nl_steganography.html
