https://medium.com/@sushantkamble/apache-ghostcat-cve-2020-1938-explanation-and-walkthrough-23a9a1ae4a23
https://medium.com/@mohdsaqlain8783/tomghost-writeup-1bbbdea2cb80
https://blog.cybsec.in/2020/04/exploiting-ghostcatcve-20201938.html
https://muirlandoracle.co.uk/2020/04/11/tomghost-write-up/
https://0xsmiley.github.io/2020-05-11-Ghostcat/
https://github.com/sourabhk267/tryhackme/tree/master/Tomghost
https://sckull.github.io/posts/tomgost/
