https://raw.githubusercontent.com/PlatyPew/picoctf-2018-writeup/master/Binary%20Exploitation/can-you-gets-me/README.md
https://ctftime.org/writeup/13864
https://tcode2k16.github.io/blog/posts/picoctf-2018-writeup/binary-exploitation/#can-you-gets-me
https://www.youtube.com/watch?v=28Hd_dtup8g
