https://raw.githubusercontent.com/DionysiosB/CodeAbbey/master/DuelChances.cpp
https://raw.githubusercontent.com/pastelito02/Challenges-sol/master/Programming/Codeabbey/080/gsou859.hs
https://raw.githubusercontent.com/igor-kutepov/codeabbey/master/src/main/java/com/kutepov/samples/codeabbey/DuelChances.java
https://raw.githubusercontent.com/pastelito02/Challenges-sol/master/Programming/Codeabbey/080/Zacharias.jl
https://raw.githubusercontent.com/pastelito02/Challenges-sol/master/Programming/Codeabbey/080/VoinSveta.js
https://raw.githubusercontent.com/pastelito02/Challenges-sol/master/Programming/Codeabbey/080/gerhardt_funk.lisp
https://raw.githubusercontent.com/pastelito02/Challenges-sol/master/Programming/Codeabbey/080/atercattus.lua
https://raw.githubusercontent.com/pastelito02/Challenges-sol/master/Programming/Codeabbey/080/CcGaviria.ml
https://raw.githubusercontent.com/pastelito02/Challenges-sol/master/Programming/Codeabbey/080/KOR_Ryat.php
https://raw.githubusercontent.com/pastelito02/Challenges-sol/master/Programming/Codeabbey/080/pearl_barley.pl
https://raw.githubusercontent.com/pastelito02/Challenges-sol/master/Programming/Codeabbey/080/BM_BagasP.rb
https://raw.githubusercontent.com/pastelito02/Challenges-sol/master/Programming/Codeabbey/080/scala_scholar.scala
https://raw.githubusercontent.com/JesseClarkND/codeabbey_in_C-NET/master/Duel%20Chances
