https://raw.githubusercontent.com/J3rome/Ringzero-writeup/master/pwn/level2.txt
https://github.com/ciccio-87/ringzer0-CTF/blob/master/WriteUps/pwnage_linux2.txt
https://raw.githubusercontent.com/ciccio-87/ringzer0-CTF/master/WriteUps/pwnage_linux2.txt
