https://www.cnblogs.com/omnis/p/8360646.html
https://www.shuzhiduo.com/A/n2d9xXGY5D/
https://www.itread01.com/content/1516968127.html
https://blog.csdn.net/Fly_hps/article/details/80281913
https://6o9.im/security/2019/09/03/sqli-labs-3.html
https://www.cnblogs.com/hack404/p/11050548.html
https://skysec.top/2017/07/18/SQLi-LABS(Basic)(Less-1%20~%20Less-22)/#Less-19
https://flora.gitbooks.io/web-application-security/sqli-labs_lesson_18.html
https://raw.githubusercontent.com/gr4vit0n/sqli-labs-solution/master/less19.py
