https://raw.githubusercontent.com/phuclevinh2000/CodeAbbey/master/Square%20Root.c
https://raw.githubusercontent.com/gravoo/codeabbey/master/Square%20Root%20.cpp
https://raw.githubusercontent.com/pastelito02/Challenges-sol/master/Programming/Codeabbey/018/slayfer1112.cr
https://gist.githubusercontent.com/jonnyli1125/4188092/raw/7406818a34821027851ba9e608d279dce7c43534/gistfile1.cs
https://raw.githubusercontent.com/pastelito02/Challenges-sol/master/Programming/Codeabbey/018/emmanuelle.d
https://raw.githubusercontent.com/skilled19/sols/master/cl/code-3/emmgame221-square-root-18.fs
https://raw.githubusercontent.com/javilag/codeAbbeyChalls/master/Challs/Go/018.go
https://raw.githubusercontent.com/skilled19/sols/master/gsou859-18-square-root.hs
https://raw.githubusercontent.com/JFMurphy/Codeabbey-solutions/master/Java/P018_SquareRoot.java
https://raw.githubusercontent.com/skilled19/sols/master/cl/code-3/omasloksa-63-integer-factorization.julia
https://raw.githubusercontent.com/chriswood/codeabbey/master/caid18.lisp
https://raw.githubusercontent.com/skilled19/sols/master/cl/code-3/tinbtinb-square-root-18.lua
https://raw.githubusercontent.com/pastelito02/Challenges-sol/master/Programming/Codeabbey/018/stefan.schmiedl.ml
https://raw.githubusercontent.com/mpeshehonov/Codeabbey/master/practice/%2318/index.php
https://raw.githubusercontent.com/pastelito02/Challenges-sol/master/Programming/Codeabbey/018/pearl_barley.pl
https://raw.githubusercontent.com/vinitkantrod/codeabbey-Solutions-in-Python/master/18_triangles.py
https://raw.githubusercontent.com/pastelito02/Challenges-sol/master/Programming/Codeabbey/018/serviceable.rs
https://raw.githubusercontent.com/mmcdon20/code_abbey/master/src/main/scala/Abbey018.scala
https://raw.githubusercontent.com/pastelito02/Challenges-sol/master/Programming/Codeabbey/018/cire.swift
https://raw.githubusercontent.com/skilled19/sols/master/cl/code-3/arhman.amr.2000-square-root-18.vb
