https://gitlab.com/christian.bobach/codewars-java/-/raw/master/src/main/java/eu/bobach/codewars/RomanNumeralsEncoder.java
https://raw.githubusercontent.com/tangweikun/codewars/master/src/4kyu/Roman%20Numerals%20Encoder/pro.js
https://raw.githubusercontent.com/Orange9000/Codewars/master/Solutions/4kyu/4kyu_roman_numerals_encoder.py
https://raw.githubusercontent.com/linhbui/Euler-Uva-CodeAbbey/master/CodeWars/Roman%20Numerals.rb
