https://raw.githubusercontent.com/gravoo/codeabbey/master/Bulls%20and%20Cows.cpp
https://raw.githubusercontent.com/Alekseyya/Codeabbey/master/Task_59/Program.cs
https://raw.githubusercontent.com/johnfredswift/CodeAbbey/master/ProblemsCode/BullsAndCows.go
https://raw.githubusercontent.com/Maximization/CodeAbbey/master/src/BullsAndCows.java
https://raw.githubusercontent.com/McQuinTrix/CodeAbbey/master/59.%20Bulls_and_Cows.js
https://raw.githubusercontent.com/ValeWasTaken/CodeAbbey_Solutions/master/Python/id059-Bulls_and_Crows.py
https://gitlab.com/CodeArtisan/codeabbey/raw/master/problem_59/solution.rkt
https://raw.githubusercontent.com/mmcdon20/code_abbey/master/src/main/scala/Abbey059.scala
https://raw.githubusercontent.com/JesseClarkND/codeabbey_in_C-NET/master/Bulls%20and%20Cows
