https://www.bbsmax.com/A/gVdngZN7zW/
https://zhuanlan.zhihu.com/p/37455061
https://pockr.org/guest/activity?activity_no=act_017d460d4e5988dad2&speech_no=sp_5b8b031ee65e0f6e41
https://www.w3xue.com/exp/article/20192/21044.html
https://www.youtube.com/watch?v=g3OLfbdK6J4
