http://location-href.com/xvwa-walkthrough/
https://youtu.be/1hfAyU9lbko
https://www.youtube.com/watch?v=4UOd2c2e7Xs
https://www.youtube.com/watch?v=GEfhdNPMKqk
https://docplayer.net/62705840-Xvwa-technical-run-information-security-inc.html
https://www.youtube.com/watch?v=4lzL2nw7hsI
https://isec.ne.jp/wp-content/uploads/2017/07/11XVWA-Technical-Run.pdf
https://securitycode.tistory.com/70
http://solstice.sh/web%20hacking/2016/03/15/hacking-blindfolded/
https://prakharprasad.com/introduction-to-sql-injection-and-exploitation-mysql-5-error-based/
https://computersecuritystudent.com/SECURITY_TOOLS/DVWA/DVWAv107/lesson6/index.html
https://www.peerlyst.com/posts/tips-for-an-information-security-analyst-pentester-career-ep-12-blind-sql-injection-with-dvwa-mattia-campagnano-13-years-experience-akron-oh
https://zero-day.io/sql-injections/
https://n0where.net/xtreme-vulnerable-web-application-xvwa
