https://raw.githubusercontent.com/pastelito02/Challenges-sol/master/Programming/Codeabbey/037/JamesRiley.cc
https://raw.githubusercontent.com/pastelito02/Challenges-sol/master/Programming/Codeabbey/037/hogarth45.cs
https://raw.githubusercontent.com/pastelito02/Challenges-sol/master/Programming/Codeabbey/037/pabloperezp96.d
https://raw.githubusercontent.com/pastelito02/Challenges-sol/master/Programming/Codeabbey/037/istudent.go
https://raw.githubusercontent.com/pastelito02/Challenges-sol/master/Programming/Codeabbey/037/MrSossaa.hs
https://raw.githubusercontent.com/igor-kutepov/codeabbey/master/src/main/java/com/kutepov/samples/codeabbey/MortgageCalculator.java
https://raw.githubusercontent.com/gcwilliams/mortgage-calculator-webapp/master/src/js/mortgage.js
https://raw.githubusercontent.com/pastelito02/Challenges-sol/master/Programming/Codeabbey/037/Sascha-Grimm.lisp
https://raw.githubusercontent.com/pastelito02/Challenges-sol/master/Programming/Codeabbey/037/evgeny.mihalich.lua
https://raw.githubusercontent.com/pastelito02/Challenges-sol/master/Programming/Codeabbey/037/Rasloong.ml
https://raw.githubusercontent.com/leeb003/php-mortgage-calculator/master/calc-ws.php
https://raw.githubusercontent.com/Xzya/CodeAbbeySolutions/master/MortgageCalculator.py
https://raw.githubusercontent.com/moneyadviceservice/mortgage_calculator/master/app/controllers/mortgage_calculator/affordabilities_controller.rb
https://raw.githubusercontent.com/pastelito02/Challenges-sol/master/Programming/Codeabbey/037/Alex-Senchenko.scala
https://raw.githubusercontent.com/pastelito02/Challenges-sol/master/Programming/Codeabbey/037/Guy-Gervais.vb
https://raw.githubusercontent.com/JesseClarkND/codeabbey_in_C-NET/master/Mortgage%20Calculator
