https://www.hackingarticles.in/sunset-dusk-vulnhub-walkthrough/
https://www.hacknos.com/sunset-dusk-walkthrough-vulnhub-ctf/
http://alickgardiner.com/sunsetdusk/
https://developpaper.com/sunset-dusk-vulnhub-walkthrough/
https://blog.mzfr.me/vulnhub-writeups/2019-12-10-dusk
https://www.youtube.com/watch?v=IcduTgM8fzw
https://www.ehacking.net/2020/02/sunset-dusk-vm-walkthrough.html
