https://www.hackingarticles.in/hack-the-box-monteverde-walkthrough/
https://www.infocysec.com/2020/07/10/hack-the-box-monteverde-writeup/
https://www.secjuice.com/htb-monteverde-walkthrough/
https://hackso.me/monteverde-htb-walkthrough/
https://erbazz.github.io/writeup/htb_monteverde/
https://medium.com/@tellicolungrevink/hack-the-box-monteverde-ff7fc9a8e3af
