https://www.hackingarticles.in/hack-the-box-luke-walkthrough/
https://0xrick.github.io/hack-the-box/luke/
https://medium.com/bugbountywriteup/luke-hackthebox-writeup-531495c2706
https://resources.infosecinstitute.com/hack-the-box-htb-walkthrough-luke/#gref
https://0xdf.gitlab.io/2019/09/14/htb-luke.html
https://ryankozak.com/hack-the-box-luke-writeup/
https://t3chnocat.com/htb-luke/
https://snowscan.io/htb-writeup-luke/
https://hackso.me/luke-htb-walkthrough/
https://www.exploringinfosec.com/2019/09/hackthebox-walkthrough-luke.html
https://blog.csdn.net/qq_34801745/article/details/107221397
https://blog.chhaileng.com/posts/hack-the-box-luke/
https://www.conorjohnston.com/posts/htb_luke/
https://atalaysblog.wordpress.com/2019/09/16/hackthebox-luke/
https://www.webyeti.ninja/blog/htb-luke
https://www.elasticice.net/posts/luke_htb_walkthrough/
https://jamesdotcom.com/hackthebox-luke/
https://infosec.rm-it.de/2019/09/14/hackthebox-luke/
https://medium.com/bugbountywriteup/luke-hackthebox-writeup-65024c28229c
https://www.vanderziel.org/2019/07/14/hackthebox-luke/
https://blog.roskyfrosky.com/hackthebox/2019/09/14/Luke-hackthebox.html
https://xavilok.es/luke/
https://medium.com/write-ups-hackthebox/c%C3%B3mo-resolver-luke-7df1c8f2faa4
https://blog.mzfr.me/HackTheBox-writeups/Luke/
https://qiita.com/sanpo_shiho/items/604869e727f27f489abd
https://spenge.pw/luke-hackthebox-write-up/
