https://raw.githubusercontent.com/charles-wangkai/hacker.org/master/challenge/RandomProblem.java
https://raw.githubusercontent.com/luceatnobis/challenges/master/hacker.org/random_problem/Program.java
https://raw.githubusercontent.com/imaohw/hacker.org/master/015/Solve.java

