https://raw.githubusercontent.com/vadim-job-hg/Codingame/master/EASY/ONBOARDING/bash/onboarding.bash
https://raw.githubusercontent.com/vadim-job-hg/Codingame/master/EASY/ONBOARDING/clojure/onboarding.clj
https://raw.githubusercontent.com/joand/codingame/master/easy/onboarding/cpp/solution.cpp
https://raw.githubusercontent.com/vadim-job-hg/Codingame/master/EASY/ONBOARDING/dart/onboarding.dart
https://raw.githubusercontent.com/vadim-job-hg/Codingame/master/EASY/ONBOARDING/go/onboarding.go
https://raw.githubusercontent.com/denvash/codingame-puzzles-solutions/master/1-Easy/Onboarding.js
