https://github.com/skiptomyliu/solutions-bwapp#sql-injection---stored-blog
http://www.h3399.cn/201707/111479.html
http://stupidsecurity.tistory.com/category/Web%20Hacking/bWAPP?page=2
https://www.youtube.com/watch?v=2ip7DOAnNsM
https://www.cloud.tencent.com/developer/article/1078965
https://teckk2.github.io/web-pentesting/2018/02/07/SQL-Injection-Stored-(Blog).html
https://seleniumbycharan.wordpress.com/2017/04/02/sql-injections-part-2/#more-2055
https://www.youtube.com/watch?v=sR3MFwrarrw
https://medium.com/@grep_security/sql-injections-part-2-8e2fefbec0f8
https://studysecurity-world.tistory.com/78
https://www.youtube.com/watch?v=qj43sQW5aB4
https://www.youtube.com/watch?v=haB5gdqViSg
https://cloud.tencent.com/developer/article/1078965
