https://raw.githubusercontent.com/irlndts/go-hackerrank/master/algorithms/implementation/libraryfine.go
https://raw.githubusercontent.com/charles-wangkai/hackerrank/master/library-fine/Solution.java
https://raw.githubusercontent.com/gabrielgiordan/hackerrank/master/algorithms/implementation/library-fine.js
https://raw.githubusercontent.com/raghav97/Hackerrank-Solutions/master/library_fine.rb
https://raw.githubusercontent.com/witekbobrowski/HackerRank/master/Algorithms/Implementation/library-fine.swift
