https://thehackerway.com/2013/04/04/web-hacking-atacando-dojo-vulnerabilidades-sql-injection-en-hackme-casino-parte-xxv/#more-2328
https://www.youtube.com/watch?v=XmRphGAmg9o
https://rmccurdy.com/scripts/sql/tools/hacmecasino_userguide.pdf
https://www.youtube.com/watch?v=bV6nQWjOIGE
http://travisaltman.com/webscarab-tutorial-part-3-fuzzing/
http://www.applicure.com/blog/anatomy-of-an-sql-injection-attack
https://infamoussyn.wordpress.com/tag/hacme/
https://www.youtube.com/watch?v=S9fw7lMdNhA
https://www.youtube.com/watch?v=lEBGuzCyFPk
