https://raw.githubusercontent.com/phuclevinh2000/CodeAbbey/master/Modulo%20and%20time%20difference.c
https://raw.githubusercontent.com/pastelito02/Challenges-sol/master/Programming/Codeabbey/012/likehood.cc
https://raw.githubusercontent.com/gravoo/codeabbey/master/Modulo%20and%20time%20difference%20.cpp
https://gist.githubusercontent.com/cmatthews85/b8c937979f5f2c034922/raw/26d3c3cb4d0ba2ef7f83ee65195bde56b0921a3c/time_diff.cs
https://raw.githubusercontent.com/skilled19/sols/master/harv/codeabbey-12-modulo-and-time-difference.d
https://raw.githubusercontent.com/skilled19/sols/master/harv/codeabbey-12-modulo-and-time-difference.fs
https://raw.githubusercontent.com/pastelito02/Challenges-sol/master/Programming/Codeabbey/012/motkov.kirill.go
https://raw.githubusercontent.com/skilled19/sols/master/harv/codeabbey-12-modulo-and-time-difference.hs
https://raw.githubusercontent.com/meganroche/CodeAbbeySolutions/master/Java/ModuloTime.java
https://raw.githubusercontent.com/skilled19/sols/master/harv/codeabbey-12-modulo-and-time-difference.jl
https://raw.githubusercontent.com/McQuinTrix/CodeAbbey/master/12.%20Modulo_and_time_difference.js
https://raw.githubusercontent.com/chriswood/codeabbey/master/caid12.lisp
https://raw.githubusercontent.com/pastelito02/Challenges-sol/master/Programming/Codeabbey/012/ayy_luamao.lua
https://raw.githubusercontent.com/skilled19/sols/master/harv/codeabbey-12-modulo-and-time-difference.ml
https://raw.githubusercontent.com/mpeshehonov/Codeabbey/master/practice/%2312/index.php
https://raw.githubusercontent.com/skilled19/sols/master/harv/codeabbey-12-modulo-and-time-difference.pl
https://raw.githubusercontent.com/pastelito02/Challenges-sol/master/Programming/Codeabbey/012/minkika.py
https://raw.githubusercontent.com/John-Russell/CodeAbbey/master/Modulo%20and%20time%20difference.rb
https://raw.githubusercontent.com/pastelito02/Challenges-sol/master/Programming/Codeabbey/012/CrazyCapitan.rs
https://raw.githubusercontent.com/mmcdon20/code_abbey/master/src/main/scala/Abbey012.scala
https://raw.githubusercontent.com/pastelito02/Challenges-sol/master/Programming/Codeabbey/012/cire.swift
https://raw.githubusercontent.com/skilled19/sols/master/harv/codeabbey-12-modulo-and-time-difference.vb
https://raw.githubusercontent.com/JesseClarkND/codeabbey_in_C-NET/master/Modulo%20and%20time%20difference
