https://raw.githubusercontent.com/rdtsc/codeeval-solutions/master/src/easy/find-the-highest-score/solutions/c/solution.c
https://raw.githubusercontent.com/StevenDunn/CodeEval/master/FindTheHighestScore/cpp/fths.cpp
https://raw.githubusercontent.com/adambose1990/CodeEvalJavaSolutions/master/src/com/codeeval/easy/FindtheHighestScore.java
https://raw.githubusercontent.com/rdtsc/codeeval-solutions/master/src/easy/find-the-highest-score/solutions/javascript/solution.js
https://raw.githubusercontent.com/mpillar/codeeval/master/0-easy/find-the-highest-score/main.py
