https://raw.githubusercontent.com/rrylee/HackerRank-Solution/master/Algorithm/Implementation/9-caesar-cipher-1.c
https://raw.githubusercontent.com/c650/hackerrank-solutions/master/Algorithms/Implementation/caesar-cipher.cpp
https://raw.githubusercontent.com/RyanFehr/HackerRank/master/Algorithms/Strings/Caesar%20Cipher/Solution.cs
https://raw.githubusercontent.com/AlexAtNet/galgo/master/solutions/hackerrank/caesar-cipher-1/caesar-cipher-1.go
https://raw.githubusercontent.com/R-Wang97/HackerRank/master/Caesar%20Cipher/Solution.java
https://raw.githubusercontent.com/PaulNoth/hackerrank/master/practice/algorithms/implementation/caesar_cipher/CaesarCipher.js
https://raw.githubusercontent.com/danhenriquesc/hackerrank/master/algorithms/strings/caesar_cipher.php
https://raw.githubusercontent.com/ynyeh0221/HackerRank/master/Caesar%20Cipher.py
https://raw.githubusercontent.com/PaulNoth/hackerrank/master/practice/algorithms/implementation/caesar_cipher/caesar_cipher.rb
https://raw.githubusercontent.com/PaulNoth/hackerrank/master/practice/algorithms/implementation/caesar_cipher/CaesarCipher.scala
