https://computersecuritystudent.com/SECURITY_TOOLS/DVWA/DVWAv107/lesson4/index.html
http://www.hackingmonks.net/2016/10/metasploit-tutorials-4-set-up.html
https://drive.google.com/open?id=1nXSLnY_eU5l-lST3iMGExwJFlv34fRmo
https://drive.google.com/open?id=12fnb82FJQFFsh80Gcw7lOGpJNzyYCG-S
https://raw.githubusercontent.com/sheimo/DVWA-Answers/master/README.md
https://raw.githubusercontent.com/keewenaw/dvwa-guide-2019/master/low/Challenge%2002%3A%20Command%20Injection.md
https://raw.githubusercontent.com/keewenaw/dvwa-guide-2019/master/medium/Challenge%2004%3A%20File%20Inclusion.md
https://www.youtube.com/watch?v=NxSNTT627TQ
https://www.youtube.com/watch?v=AoMtDmYVGmQ
https://www.youtube.com/watch?v=XcXuxo_lzpo
https://chris-young.net/2018/03/28/dvwa-command-injection/
https://via.vision/blog/dvwa-lesson-command-execution-low/
https://www.hackingarticles.in/command-injection-exploitation-dvwa-using-metasploit-bypass-security/
https://www.hempstutorials.co.uk/command-injection/
https://pentestlab.blog/2012/12/19/command-execution-dvwa/
https://www.crazydanishhacker.com/dvwa-command-injection/
http://newbie06.blogspot.com/2012/05/dvwa-command-execution.html
