http://owaspbricks.blogspot.com/2013/02/login-page-1-solved.html
https://pentester.land/challenge/2018/07/10/owasp-broken-web-apps-owasp-bricks-challenge-walkthrough.html#content-1
https://sechow.com/bricks/docs/content-page-1.html
https://sechow.com/bricks/docs/login-1.html
https://www.youtube.com/watch?v=mCo6ajvBv50i
https://www.youtube.com/watch?v=j5I0wPvQxTg
https://www.youtube.com/watch?v=VMeusdLErzA
https://youtu.be/UvgmaiT8n9E
https://www.hackingarticles.in/solving-owasp-bricks-challenge-3-using-sqlmap-and-havij/
https://www.youtube.com/watch?v=l27O3soDJlU
