https://medium.com/egghunter/node-1-vulnhub-walkthrough-5635aa56cc74
https://blog.mmdrd.com/vulnhub-walkthrough-node-1/
https://hackso.me/node-1-walkthrough/
https://www.youtube.com/watch?v=WGunCiJK1LA
https://www.youtube.com/watch?v=9VH1KUwUrRA
https://www.youtube.com/watch?v=oOqEfPMFnx0
https://www.youtube.com/watch?v=q1jwwJFpB_A
https://www.youtube.com/watch?v=kNB8W2alLVE
