https://blog.g0tmi1k.com/2011/08/holynix-level-1/
http://www.varunchaudhry.in/2017/06/holynix-v1/
http://www.cyberry.co.uk/vulnhub/holynix-v1/
https://neo2shyalien.eu/es/holynix-v1.html
https://www.youtube.com/watch?v=ImkYhsI4sz0
https://bamboopotato.wordpress.com/2014/06/01/getting-into-holynix-1/
https://www.youtube.com/watch?v=QaIkd70V7Ns
https://netosec.com/holynix-v1-vulnhub-walkthrough/
https://www.hackingarticles.in/hack-the-holynix-v1-boot-2-root-challenge/
https://medium.com/@cyberenthusiast/holynix-v1-walkthrough-6125f299f02
https://sharpforce.gitbook.io/cybersecurity/walkthroughs/damn-vulnerable-web-application/vulnhub/holynix-1
https://blog.vonhewitt.com/2017/09/kioptrix-level-1-vulnhub-writeup/
https://blog.vonhewitt.com/2017/09/kioptrix-level-1-3-4-vulnhub-writeup/
