https://raw.githubusercontent.com/Raphaella24/Challenges/master/codewars/expressions-Matter/FArekkusu.c
https://raw.githubusercontent.com/Raphaella24/Challenges/master/codewars/expressions-Matter/JustKapi.cc
https://raw.githubusercontent.com/pastelito02/Challenges-sol/master/Programming/codewars/expressions-matter/hitori.clj
https://raw.githubusercontent.com/Raphaella24/Challenges/master/codewars/expressions-Matter/mortonfox.coffee
https://raw.githubusercontent.com/pastelito02/Challenges-sol/master/Programming/codewars/expressions-matter/JustKapi.cpp
https://raw.githubusercontent.com/Raphaella24/Challenges/master/codewars/expressions-Matter/taw.cr
https://raw.githubusercontent.com/Raphaella24/Challenges/master/codewars/expressions-Matter/Nayito.cs
https://raw.githubusercontent.com/Raphaella24/Challenges/master/codewars/expressions-Matter/Artem-Soldatkin.dart
https://raw.githubusercontent.com/pastelito02/Challenges-sol/master/Programming/codewars/expressions-matter/StephanYorchenko.exs
https://raw.githubusercontent.com/pastelito02/Challenges-sol/master/Programming/codewars/expressions-matter/batkiz.fs
https://raw.githubusercontent.com/Raphaella24/Challenges/master/codewars/expressions-Matter/tehbri.go
https://raw.githubusercontent.com/pastelito02/Challenges-sol/master/Programming/codewars/expressions-matter/ViktorVx.groovy
https://raw.githubusercontent.com/pastelito02/Challenges-sol/master/Programming/codewars/expressions-matter/Haksell.hs
https://raw.githubusercontent.com/pastelito02/Challenges-sol/master/Programming/codewars/expressions-matter/AlexHaxe.hx
https://raw.githubusercontent.com/Raphaella24/Challenges/master/codewars/expressions-Matter/Olifan.java
https://raw.githubusercontent.com/pastelito02/Challenges-sol/master/Programming/codewars/expressions-matter/USK.jl
https://raw.githubusercontent.com/pastelito02/Challenges-sol/master/Programming/codewars/expressions-matter/heroiczero.js
https://raw.githubusercontent.com/pastelito02/Challenges-sol/master/Programming/codewars/expressions-matter/Bernasss12.kt
https://raw.githubusercontent.com/pastelito02/Challenges-sol/master/Programming/codewars/expressions-matter/Shanethegamer.lua
https://raw.githubusercontent.com/pastelito02/Challenges-sol/master/Programming/codewars/expressions-matter/user1326445.ml
https://raw.githubusercontent.com/pastelito02/Challenges-sol/master/Programming/codewars/expressions-matter/unihernandez22.nim
https://raw.githubusercontent.com/pastelito02/Challenges-sol/master/Programming/codewars/expressions-matter/Tester555.php
https://raw.githubusercontent.com/pastelito02/Challenges-sol/master/Programming/codewars/expressions-matter/talbx.pro
https://raw.githubusercontent.com/pastelito02/Challenges-sol/master/Programming/codewars/expressions-matter/Unnamed.purs
https://raw.githubusercontent.com/Raphaella24/Challenges/master/codewars/expressions-Matter/caseyagorman.py
https://raw.githubusercontent.com/pastelito02/Challenges-sol/master/Programming/codewars/expressions-matter/lemonmeringue.r
https://raw.githubusercontent.com/pastelito02/Challenges-sol/master/Programming/codewars/expressions-matter/Powakedown.rb
https://raw.githubusercontent.com/pastelito02/Challenges-sol/master/Programming/codewars/expressions-matter/villesau.re
https://raw.githubusercontent.com/pastelito02/Challenges-sol/master/Programming/codewars/expressions-matter/Unnamed.rs
https://raw.githubusercontent.com/pastelito02/Challenges-sol/master/Programming/codewars/expressions-matter/Dianaata.scala
https://raw.githubusercontent.com/pastelito02/Challenges-sol/master/Programming/codewars/expressions-matter/josebraga.sh
https://raw.githubusercontent.com/pastelito02/Challenges-sol/master/Programming/codewars/expressions-matter/aymil.swift
https://raw.githubusercontent.com/pastelito02/Challenges-sol/master/Programming/codewars/expressions-matter/clowi.ts
https://raw.githubusercontent.com/pastelito02/Challenges-sol/master/Programming/codewars/expressions-matter/CodeMelted.vb
