http://purpleskypeter.blogspot.com/2018/04/owasp-securityshepherd-url-restrict1.html
https://linuxsecurityblog.com/2018/09/07/owasp-security-shepherd-failure-to-restrict-access-solution-lsb
https://5t0rm5had0w.wordpress.com/categories/walkthroughs/owasp-security-shepherd-walkthrough/
