https://raw.githubusercontent.com/HamidTheGeek/HackerRankSolutions/master/Solutions/IceCreamParlor.cs
https://raw.githubusercontent.com/charles-wangkai/hackerrank/master/ctci-ice-cream-parlor/Solution.java
https://raw.githubusercontent.com/aditiraj/hackerrankSolutions-JavaScript/master/Search/iceCreamParlor.js
https://raw.githubusercontent.com/danhenriquesc/hackerrank/master/cracking_the_coding_interview/algorithms/hash_tables_ice_cream_parlor.py
https://raw.githubusercontent.com/raghav97/Hackerrank-Solutions/master/ice_cream_parlor.rb
