https://youremindmeofmymother.com/2015/11/29/hackxor-part-1-owasp-broken-web-apps-v1-2/
https://osandamalith.com/2015/02/02/hackxor-sql-injection/
https://www.scoop.it/topic/d-n3n/p/4036529423/2015/02/03/hackxor-sql-injection
https://www.youtube.com/watch?v=dARFmTumYS0
