https://raw.githubusercontent.com/HamidTheGeek/HackerRankSolutions/master/Solutions/TheCoinChangeProblem.cs
https://raw.githubusercontent.com/RodneyShag/HackerRank_solutions/master/Algorithms/Dynamic%20Programming/The%20Coin%20Change%20Problem/Solution.java
https://gist.githubusercontent.com/jeanlauliac/8674996/raw/6dc16dd5222e662f2fef56f0f504f81112f710bc/coins.js
https://raw.githubusercontent.com/witekbobrowski/HackerRank/master/Algorithms/Dynamic%20Programming/the-coin-change-problem.swift
