https://sql--injection.blogspot.com/p/sql-injection-tutorial-walkthrough-with.html
https://www.geeksforgeeks.org/use-sqlmap-test-website-sql-injection-vulnerability/
https://www.hackingarticles.in/manual-sql-injection-exploitation-step-step/
https://medium.com/@hacker.village/how-to-use-sql-map-for-sql-injection-5f148c212bb9
https://www.youtube.com/watch?v=gqClYmuaMso
https://www.youtube.com/watch?v=CbkaWG_NEK0
https://www.acunetix.com/blog/web-security-zone/how-to-verify-a-cross-site-scripting-vulnerability/
https://www.youtube.com/watch?v=26HU7bwTy3o
https://raw.githubusercontent.com/ishell/Exploits-Archives/6f7dfcb9758977f04f3d93c76cb97ba9789b542a/2008-exploits/0811-exploits/acunetix-sql.txt
https://dev.to/silviobuss/are-you-vulnerable-to-a-sql-injection-attack-exploiting-with-sqlmap-4087
https://medium.com/@hninja049/sql-injection-using-sqlmap-9d14182005a0
https://www.hackingloops.com/web-application-penetration-testing-sql-injection-with-sqlmap/
https://dthlover.com/blogs/f/web-server-hack-by-sql-injection-sqlmap
https://www.youtube.com/watch?v=pIpAR1IXL3U
http://pentest.tonyng.net/how-to-do-sql-injections-with-sqlmap/
https://www.scribd.com/document/78790738/SQL-Injection-2
https://coderseye.com/learn-sqlmap-and-tutorial
https://sangbui.com/basic-sql-injection-with-sqlmap/
https://www.who-ami.net/exploit-sql-injection-using-sqlmap/
https://manishbhardwajblog.wordpress.com/2017/03/13/exploiting-website-with-sqlmap/
https://pentest-tools.com/website-vulnerability-scanning/sql-injection-scanner-online
https://www.youtube.com/watch?v=WFFQw01EYHM
https://www.youtube.com/watch?v=SyRFpLSIK-E
https://medium.com/@nemesiscontreras/testing-for-sqli-web-vulnerabilities-application-walk-trough-22719be8b3a9
https://www.acunetix.com/blog/articles/sqli-part-3-the-anatomy-of-an-sql-injection-attack/
https://www.acunetix.com/blog/articles/sqli-part-4-in-band-sqli-classic-sqli/
https://www.acunetix.com/blog/articles/sqli-part-5-inferential-sqli-blind-sqli/
https://www.acunetix.com/blog/articles/sqli-part-6-out-of-band-sqli/
https://books.google.com.sv/books?id=4vxwDwAAQBAJ&pg=PA286&lpg=PA286&dq=testphp.vulnweb+vulnerabilities&source=bl&ots=u-8Gc0dgLt&sig=ACfU3U3VO4ddLjR1584ja4dRxziKP_yPNw&hl=es&sa=X&ved=2ahUKEwi3q4eu1cLoAhXxRt8KHek2DJ44ChDoATABegQIChAB#v=onepage&q=testphp.vulnweb%20vulnerabilities&f=false
