https://www.hackeroyale.com/hacking-with-bwapp/
https://www.youtube.com/watch?v=u-96HkBS8mY
https://github.com/skiptomyliu/solutions-bwapp#xss---reflected-get
https://www.youtube.com/watch?v=p4ri7mmvcsE
http://security-is-just-an-illusion.blogspot.com/2014/01/bwapp-cross-site-scripting-xss.html
https://www.youtube.com/watch?v=wba9Mqr7vTY
http://www.sec-art.net/2018/06/bwapp-buggy-web-application-xss.html
https://cloud.tencent.com/developer/article/1078917
https://www.youtube.com/watch?v=80R4XfzD7XQ
https://www.youtube.com/watch?v=G6J_Aty6oTk
https://www.youtube.com/watch?v=GjXtQh4gxPU
https://www.digitalmunition.me/bwapp-xss-reflected-get-post-ajaxjson-ajaxxml/
https://www.programmersought.com/article/3226535154/
