https://www.youtube.com/watch?v=GjRVa1vxXJE
https://www.youtube.com/watch?v=_ShrVauPSLA
https://www.youtube.com/watch?v=zgJDrBO5df4
https://www.youtube.com/watch?v=p3-ZfhaSRZ0
https://www.youtube.com/watch?v=uf4TzyuekpI
https://www.youtube.com/watch?v=6tV8EuaHI9M
https://www.youtube.com/watch?v=3B8QhyrEXlU
https://www.youtube.com/watch?v=DJaX4HN2gwQ
https://www.youtube.com/watch?v=NYq20yyxRu0
https://www.youtube.com/watch?v=Gj79Z9NXKwo
