https://www.youtube.com/watch?v=OPI4vhNIn9U
https://www.youtube.com/watch?v=QUFN8wimXOk
https://gist.githubusercontent.com/ejholmes/d4a046ba376f5d277b8a981b4a7db03e/raw/8dfb4b6364ab28e8c55315a2ee51ccfe3014a87e/walkthrough.md
http://waf1337.blogspot.com/2017/12/vulnerable-docker.html
https://darksh3ll.info/index.php/18-write-up-vulnerable-docker-vm-by-notsosecure-com
https://www.youtube.com/watch?v=YjmHz9ZjQfA
