https://www.youtube.com/watch?v=JDaqiGzAQls
https://www.youtube.com/watch?v=5hgZdV7ARLQ
https://www.youtube.com/watch?v=01TuRZCUcuQ
http://sp4hack.blogspot.com/2012/09/hack-this-site-javascript-5.html
https://blog.abhishekg.com/2011/12/javascript-mission-5-escape/
http://www.gensale.net/hts-javascript-level-5/
https://bitbelle.wordpress.com/2018/01/10/hackthissite-javascript-mission-solutions/
https://hackthissitesoltution.wordpress.com/2011/01/14/javascript-missions/
https://github.com/divyanshusahu/HackThisSite/tree/master/Javascript#mission-5
