https://raw.githubusercontent.com/derekhh/HackerRank/master/domains/algorithms/implementation/mini-max-sum.cpp
https://raw.githubusercontent.com/HamidTheGeek/HackerRankSolutions/master/Solutions/MaxMin.cs
https://raw.githubusercontent.com/sapanz/Hackerrank-Problem-Solving-Python-Solutions/master/HackerRank-Mini-Max%20Sum/Mini-Max_Sum.py
https://raw.githubusercontent.com/raghav97/Hackerrank-Solutions/master/max_min.rb
