https://www.youtube.com/watch?v=LROQ3EhkcSQ
https://www.youtube.com/watch?v=18MKwjHrrMM
https://hackthissitesoltution.wordpress.com/2012/03/08/hts-realistic-mission-4/
https://www.aldeid.com/wiki/Hackthissite/Realistic/Level4
https://sithlab.tistory.com/1280
http://zer0byte.com/2011/11/14/hackthissite-org-realistic-mission-1-%E2%80%93-16-walk-throughs/
