https://raw.githubusercontent.com/pastelito02/Challenges-sol/master/Programming/Codeabbey/152/MissPython.cc
https://raw.githubusercontent.com/pastelito02/Challenges-sol/master/Programming/Codeabbey/152/Mastermind.cs
https://raw.githubusercontent.com/pastelito02/Challenges-sol/master/Programming/Codeabbey/152/go_coder.go
https://raw.githubusercontent.com/pastelito02/Challenges-sol/master/Programming/Codeabbey/152/Mar-Alex.java
https://raw.githubusercontent.com/pastelito02/Challenges-sol/master/Programming/Codeabbey/152/matthias.js
https://raw.githubusercontent.com/pastelito02/Challenges-sol/master/Programming/Codeabbey/152/Dmytro-Pryhornytskyi.php
https://raw.githubusercontent.com/pastelito02/Challenges-sol/master/Programming/Codeabbey/152/RandyWaterhouse.py
https://raw.githubusercontent.com/pastelito02/Challenges-sol/master/Programming/Codeabbey/152/john_delacrauss.rb
https://raw.githubusercontent.com/pastelito02/Challenges-sol/master/Programming/Codeabbey/152/bluknite.scala
https://raw.githubusercontent.com/pastelito02/Challenges-sol/master/Programming/Codeabbey/152/Guy-Gervais.vb
