http://www.google-gruyere.appspot.com/part2#2__reflected_xss
http://jggge.blogspot.com/2014/03/week-1-cross-site-scripting-xss.html
http://m4l1ce.me/writeups/2017/03/28/google-gruyere.html
https://www.youtube.com/watch?v=Iqj4j_fCqeQ
https://medium.com/@droski/day-1-xss-basics-with-gruyere-9598f34dc31d
https://samsclass.info/120/proj/p2x-Gruyere.html
https://www.youtube.com/watch?v=219ehZexfv0
https://www.youtube.com/watch?v=2YygtnSZLbg
https://www.youtube.com/watch?v=WFeImOa0M4c
https://www.youtube.com/watch?v=1zcaevUAHJY
https://www.youtube.com/watch?v=wZTLumg8kDI
https://www.youtube.com/watch?v=bB5naSncI_Q
https://www.youtube.com/watch?v=1NaY3r-0WkM
https://www.youtube.com/watch?v=486KmQOcwWg
https://www.youtube.com/watch?v=r79ozjCL7DA
https://www.youtube.com/watch?v=L5l9lSnNMxg
https://github.com/water1212/google_gruyere_challenge/blob/master/xss/reflected_xss.md
https://www.yumpu.com/es/document/read/62782628/ataques-xss-en-gruyere
