https://rundata.wordpress.com/2013/03/21/overthewire-bandit-wargame-solutions-1-24/
http://sp4hack.blogspot.com/2014/01/overthewire-bandit-level-4-to-level-5.html
https://raw.githubusercontent.com/Cathon/mySolutions/master/overthewire/Bandit/Level_4.md
https://raw.githubusercontent.com/lv22/otw-natas/master/L04/level4.txt
https://medium.com/@Kan1shka9/overthewire-wargames-bandit-walkthrough-df2b86826c67
https://github.com/milescrabill/overthewire-solutions/blob/master/Bandit.md#level-4
https://www.youtube.com/watch?v=jn5Y3cOc-mM
https://www.youtube.com/watch?v=34_DDIAkxdY
https://www.youtube.com/watch?v=_a7mOCmqsVI
https://www.youtube.com/watch?v=U8urYejzUYw
https://raw.githubusercontent.com/Lorenyx/OverTheWire-Solutions/master/bandit/level_4.md
https://raw.githubusercontent.com/Whimmery/CTF-Bandit/gh-pages/CTF%20Code/CTF%20Bandit4.txt
https://jhalon.github.io/over-the-wire-bandit1/
https://home.adelphi.edu/~ni21347/cybersecgames/OverTheWire/Bandit/index.html
https://github.com/masonc15/CTF-Wargame-Writeups/blob/master/OverTheWire/bandit/README.md
https://agsyndro.me/bandit-challenges-overthewire/
