https://raw.githubusercontent.com/ShrikantJadhav/HackerRank-Solutions/master/FunnyString.cpp
https://raw.githubusercontent.com/mattspaulding/hacker-rank/master/HackerRank/Algorithms/Strings/FunnyString.cs
https://raw.githubusercontent.com/leeychee/hackerrank/master/practice/algorithms/strings/funny_string/main.go
https://raw.githubusercontent.com/charles-wangkai/hackerrank/master/funny-string/Solution.java
https://raw.githubusercontent.com/raghav97/Hackerrank-Solutions/master/funny_string.rb
https://raw.githubusercontent.com/witekbobrowski/HackerRank/master/Algorithms/Strings/funny-string.swift
