https://raw.githubusercontent.com/tannishk/competitive/master/solutions/triple-sum-in-array/triple-sum.c
https://raw.githubusercontent.com/tannishk/competitive/master/solutions/triple-sum-in-array/triple-sum-in%20array.cpp
https://raw.githubusercontent.com/HamidTheGeek/HackerRankSolutions/master/Solutions/TripleSum.cs
https://raw.githubusercontent.com/tannishk/competitive/master/solutions/triple-sum-in-array/TripleSum.java
https://raw.githubusercontent.com/tannishk/competitive/master/solutions/triple-sum-in-array/triple-sum-in-array.js
