https://raw.githubusercontent.com/feix/ctf-writeup/master/canyouhackit/mobile/solution2
https://sithlab.tistory.com/1452
https://raw.githubusercontent.com/pastelito02/Challenges-sol/master/canyouhackit/Mob/solution2.lst
