https://github.com/skiptomyliu/solutions-bwapp#xmlxpath-injection-login-form
http://penthusiasts.blogspot.com/2013/12/bwapp-xml-and-xpath-injection-login.html
http://www.h3399.cn/201707/111479.html
http://stupidsecurity.tistory.com/42?category=760177
https://www.cloud.tencent.com/developer/article/1078965
https://teckk2.github.io/web-pentesting/2018/02/07/SQL-Injection-Blind-Time-Based.html
https://youtu.be/_ShrVauPSLA
https://youtu.be/GjRVa1vxXJE
https://www.youtube.com/watch?v=MFO5MgISyqY
https://www.adslzone.net/foro/seguridad-informatica.111/bwapp-xpath-injection-level-medium.465926/
https://shacojx.blogspot.com/2017/10/xpath-injection_8.html
https://net123.tistory.com/469?category=695510
