https://www.postpwnedramblings.com/2018/06/hack-box-challenge-inferno.html
https://medium.com/challenges-htb/como-resolver-inferno-htb-7e255277e58f
https://medium.com/@alirezaparvareshkho/hackthebox-misc-challenges-%D4%85-%D4%85-28267d755764
https://byte-mind.net/hackthebox-misc-challenge-inferno/
