http://www.h3399.cn/201707/111479.html
https://youtu.be/g-HeOCMZDxE?t=2m10s
https://youtu.be/q4Ud7jgnG5c
https://youtu.be/2TedUP8VEWs
<<<<<<< HEAD:systems/bwapp/0540-broken-auth-inscur-lgin-forms/OTHERS.lst
=======
http://lispro06.woweb.net/imp/50717
https://www.youtube.com/watch?v=b6MZPSwnqMU
https://www.youtube.com/watch?v=iX49fqZ8HGA
https://www.youtube.com/watch?v=5BpStW4zM44
https://www.youtube.com/watch?v=VKLPp1ryrfM
https://www.youtube.com/watch?v=X7snpgGuWuc&t=5s
https://www.youtube.com/watch?v=1TxnE94Ak8Q
https://www.youtube.com/watch?v=hRu_k5qt74g

>>>>>>> 27b02e605597fa15bb180687ae975af951c58b18:systems/bwapp/a2-broken-auth-insecure-login-forms/OTHERS.lst
