http://www.google-gruyere.appspot.com/part3#3__xssi_challenge
http://jggge.blogspot.com/2014/04/cross-site-script-inclusion-xssi.html
http://m4l1ce.me/writeups/2017/03/28/google-gruyere.html
https://pdfs.semanticscholar.org/presentation/65a0/5e2cfdf246dcf09238ad341d71df2696606a.pdf
https://security.cs.georgetown.edu/courses/cosc235-fall2017/hw3/part3.html
