https://pentester.land/challenge/2018/07/10/owasp-broken-web-apps-owasp-bricks-challenge-walkthrough.html#upload-2
https://sechow.com/bricks/docs/file-upload-2.html
https://www.youtube.com/watch?v=tsDClYorsXI
https://youtu.be/gOR4Wv9dZ10
http://owaspbricks.blogspot.com/2013/07/owasp-bricks-how-to-solve-file-upload.html

