https://raw.githubusercontent.com/Waqar-107/Codeforces/master/A-set/493A.%20Vasya%20and%20Football.cpp
https://raw.githubusercontent.com/changyuheng/codeforces-solutions/master/493a.go
https://raw.githubusercontent.com/o-panda-o/MySolutions/master/Implementation/Code_493A_VasyaAndFootball.java
