https://raw.githubusercontent.com/pastelito02/Challenges-sol/master/Programming/Codeabbey/145/goto.cc
https://raw.githubusercontent.com/DionysiosB/CodeAbbey/master/ModularExponentiation.cpp
https://raw.githubusercontent.com/pastelito02/Challenges-sol/master/Programming/Codeabbey/145/dimitor.cs
https://raw.githubusercontent.com/pastelito02/Challenges-sol/master/Programming/Codeabbey/145/luifrangm.java
https://raw.githubusercontent.com/pastelito02/Challenges-sol/master/Programming/Codeabbey/145/hohanga.js
https://raw.githubusercontent.com/pastelito02/Challenges-sol/master/Programming/Codeabbey/145/i.lisp
https://raw.githubusercontent.com/pastelito02/Challenges-sol/master/Programming/Codeabbey/145/ayy_luamao.lua
https://raw.githubusercontent.com/javilag/codeAbbeyChalls/master/Challs/OCaml/145.ml
https://raw.githubusercontent.com/pastelito02/Challenges-sol/master/Programming/Codeabbey/145/KOR_Ryat.php
https://raw.githubusercontent.com/GuillermoLopezJr/CodeAbbey/master/Abbey145/main.py
https://raw.githubusercontent.com/pastelito02/Challenges-sol/master/Programming/Codeabbey/145/maverick.rb
https://gitlab.com/CodeArtisan/codeabbey/raw/master/problem_145/solution.rkt
https://raw.githubusercontent.com/pastelito02/Challenges-sol/master/Programming/Codeabbey/145/scala_scholar.scala
https://raw.githubusercontent.com/pastelito02/Challenges-sol/master/Programming/Codeabbey/145/hamza772000.vb
https://raw.githubusercontent.com/JesseClarkND/codeabbey_in_C-NET/master/Modular%20Exponentiation
