https://cysecguide.blogspot.com/2018/06/root-me-write-up-javascript-native-code.html
https://medium.com/the-z/quick-analyzing-root-me-orgs-js-native-code-challenge-c0153f7c2e69
https://www.youtube.com/watch?v=h20LZHDaRiw
