http://location-href.com/nodegoat-walkthrough/
http://nodegoat.herokuapp.com/tutorial#collapseTwo
https://ckarande.gitbooks.io/owasp-nodegoat-tutorial/content/tutorial/
  a1_-_sql_and_nosql_injection.html
https://hydrasky.com/network-security/server-side-javascript-injection-ssjs/
https://www.youtube.com/watch?v=uD3p_rZPBUQ&list=LLclRIXaPMOdf2KiCfevjEXQ&index=821
https://nodegoat.herokuapp.com/tutorial/a1
