https://raw.githubusercontent.com/eagletmt/project-euler-c/master/10-19/problem11.c
https://raw.githubusercontent.com/zimpha/competitive-programming/master/project-euler/volume01/11.cc
https://raw.githubusercontent.com/danielfm/euler-clojure/master/euler/problem_11.clj
https://raw.githubusercontent.com/kdungs/euler/master/011/euler_11.cpp
https://raw.githubusercontent.com/DestructHub/ProjectEuler/master/Problem011/Elixir/solution_1.exs
https://raw.githubusercontent.com/jmoiron/euler.go/master/011.go
https://raw.githubusercontent.com/nayuki/Project-Euler-solutions/master/haskell/p011.hs
https://raw.githubusercontent.com/Cheffheid/euler-javascript/master/problems/problem-11.html
https://raw.githubusercontent.com/nayuki/Project-Euler-solutions/master/java/p011.java
https://raw.githubusercontent.com/johnmyleswhite/projecteuler.jl/master/011.jl
https://gist.githubusercontent.com/msnider/4631603/raw/b824d074b7d85fc3ecf5644813c749a9f671bae9/projecteuler_11.js
https://raw.githubusercontent.com/lilyball/projecteuler-ocaml/master/prob11.ml
https://raw.githubusercontent.com/fedeisas/project-euler/master/11/problem-11.php
https://raw.githubusercontent.com/jpillora/euler-in-perl/master/011.pl
https://raw.githubusercontent.com/DestructHub/ProjectEuler/master/Problem011/Python/solution_1.py
https://raw.githubusercontent.com/sile/euler.rs/master/euler_00/src/problem011.rs
https://raw.githubusercontent.com/samskivert/euler-scala/master/Euler011.scala
https://raw.githubusercontent.com/nayuki/Project-Euler-solutions/master/mathematica/p011.mathematica
