https://www.gerrenmurphy.com/vulnhub-billu-b0x-2-walkthrough/
https://www.sevenlayers.com/index.php/90-vulnhub-billu-b0x-2-walkthrough
https://www.youtube.com/watch?v=xcga-zTDgUg
https://www.tnirmal.com.np/2018/07/vulnhub-billu-b0x-2-walkthrough.html?m=1
http://www.pentestingexperts.com/billubox-ctf-walkthrough-2/
https://www.theanuragsrivastava.in/2018/07/billu-b0x-2-walkthrough-vulnhub-machine.html
https://www.youtube.com/watch?v=hARBLI8lqJM
https://www.hackingarticles.in/hack-billu-b0x-vm-boot2root-challenge/
https://parasarora06.blogspot.com/2018/07/ctf-billu-box-walkthorugh.html
https://www.peerlyst.com/posts/how-to-break-billu-box-2-machine-on-vulnhub-video-writeup-spirited-wolf
https://rastating.github.io/how-i-hacked-billu-b0x/
https://resources.infosecinstitute.com/billu-b0x-walkthrough/
https://scriptkidd1e.wordpress.com/billu-b0x-vulnhubs-vm-walkthrough/
https://securityboulevard.com/2018/12/billu-b0x-2-ctf-walkthrough/
https://hackso.me/billu-b0x-2-walkthrough/
https://reedphish.wordpress.com/2017/08/08/billu-b0x-walkthrough/
https://resources.infosecinstitute.com/billu-b0x-2-ctf-walkthrough/#gref
https://www.completelymundane.com/2018/09/billu-b0x-2/
https://www.tnirmal.com.np/2018/07/vulnhub-billu-b0x-2-walkthrough.html
