https://www.irongeek.com/i.php?page=videos/web-application-pen-testing-tutorials-with-mutillidae
https://youtu.be/t8w6Bd5zxbU
https://pentestlab.blog/2012/12/26/local-file-inclusion-exploitation-with-burp/
https://harryadinanta.com/exploitasi/2014/08/08/Local-File-Inclusion
http://y2u.be/dmYp2drEwwE
https://www.youtube.com/watch?v=AALacSN2SRw
https://www.youtube.com/watch?v=t8w6Bd5zxbU&list=PLZOToVAK85MrsyNmNp0yyUTBXqKRTh623&index=67
https://www.youtube.com/watch?v=5jeZtYay_xM
https://www.irongeek.com/i.php?page=videos/web-application-pen-testing-tutorials-with-mutillidae#how-to-exploit-local-file-inclusion-vulnerability-using-burp-suite
https://www.youtube.com/watch?v=kcojXEwolIs
