https://raw.githubusercontent.com/rootulp/exercism/master/javascript/hello-world/hello-world.js
https://raw.githubusercontent.com/rootulp/exercism/master/ruby/exercises/hello-world/hello_world.rb
https://raw.githubusercontent.com/exercism/xrust/master/exercises/hello-world/example.rs
