https://raw.githubusercontent.com/nayuki/Project-Euler-solutions/master/haskell/p033.hs
https://raw.githubusercontent.com/nayuki/Project-Euler-solutions/master/java/p033.java
https://raw.githubusercontent.com/kdungs/euler/master/033/euler_33.py
https://raw.githubusercontent.com/zsiciarz/euler.rs/master/src/solutions/problem33.rs
https://raw.githubusercontent.com/nayuki/Project-Euler-solutions/master/mathematica/p033.mathematica
