https://raw.githubusercontent.com/kevinselwyn/emirps/master/emirps.c
https://raw.githubusercontent.com/johandroid/Emirp/master/main.cpp
https://raw.githubusercontent.com/nileshlaxmi/Emrip-Number/master/single-number-checker/js/app.js
https://raw.githubusercontent.com/ValeWasTaken/CodeAbbey_Solutions/master/Python/id157_Emirp_primE.py
