https://raw.githubusercontent.com/b0th/CTF/master/TUCTF2019/faker/README.md
https://cosmikflaghunters.wordpress.com/2019/12/02/tuctf-2019-faker/
https://raw.githubusercontent.com/AshishKumar4/CTF_Writeups/master/TuCTF_2019/REV/Faker/README.md
https://oceankoh.github.io/articles/2019-12/TUCTF-2019#faker
https://shreyansh.tech/post/2019-12-02_tuctf-pwn-2019/#faker-400-pts
https://raw.githubusercontent.com/0x8Layer/CTF-Writeups/master/TU%20CTF%202019/REV/Faker/writeup_ptbr.md
https://0xdeadc0de.tistory.com/3
https://raw.githubusercontent.com/sybond/CTFan/master/TUCTF_2019/Faker/README.md
