https://github.com/Macmod/pwnable-writeups/blob/master/toddlers/uaf.md
https://gist.githubusercontent.com/ihciah/3c157f18f49bd2287470/raw/30e3e5cb9060afe42ddeb17028778b8962f562b7/README.MD
https://jeonyoungsin.tistory.com/924?category=878012
