https://pentester.land/challenge/2018/07/10/owasp-broken-web-apps-owasp-bricks-challenge-walkthrough.html#login-4
https://sechow.com/bricks/docs/login-4.html
https://www.youtube.com/watch?v=z4JUplVRG1U
https://www.youtube.com/watch?v=rePCzOodqGo
http://owaspbricks.blogspot.com/2013/09/owasp-bricks-how-to-solve-login-page-4.html
https://www.youtube.com/watch?v=z4JUplVRG1U&list=PL6Ohb9S-56H7NhWdJEi4IKgQ_2uJrKOsZ&index=
https://www.youtube.com/watch?v=dvWTKtuNwr0
