https://raw.githubusercontent.com/ThomasZumsteg/exercism-go/master/armstrong-numbers/armstrong_test.go
https://raw.githubusercontent.com/binupaul/exercism-java-solutions/master/java/armstrong-numbers/src/main/java/ArmstrongNumbers.java
https://raw.githubusercontent.com/ThomasZumsteg/exercism-python/master/armstrong-numbers/armstrong_numbers.py
https://raw.githubusercontent.com/ThomasZumsteg/exercism-rust/master/armstrong-numbers/src/lib.rs
https://raw.githubusercontent.com/lukaszklis/exercism-typescript/master/armstrong-numbers/armstrong-numbers.ts
