https://raw.githubusercontent.com/rdtsc/codeeval-solutions/master/src/easy/fizz-buzz/solutions/c/solution.c
https://raw.githubusercontent.com/rdtsc/codeeval-solutions/master/src/easy/fizz-buzz/solutions/c%2B%2B/solution.cpp
https://raw.githubusercontent.com/mneudert/codeeval/master/easy/fizz-buzz/cs.cs
https://gitlab.com/banjocat/codeeval_solutions/-/raw/master/1/main.go
https://raw.githubusercontent.com/jonyamo/CodeEval/master/haskell/src/FizzBuzz.hs
https://raw.githubusercontent.com/Aadeshp/Codeeval-Solutions/29af977f30e6c5e5823e1e34ecd6de3c77506682/Easy/FizzBuzz.java
https://raw.githubusercontent.com/mneudert/codeeval/master/easy/fizz-buzz/js.js
https://raw.githubusercontent.com/AnEmortalKid/codeeval-lua/master/src/main/lua/com/anemortalkid/codeeval/lua/easy/fizzbuzz/fizz_buzz_main.lua
https://raw.githubusercontent.com/rdtsc/codeeval-solutions/master/src/easy/fizz-buzz/solutions/php/solution.php
https://raw.githubusercontent.com/rdtsc/codeeval-solutions/master/src/easy/fizz-buzz/solutions/python/solution.py
https://gitlab.com/agaskell/codeeval/-/raw/master/1/fb.rb
