https://raw.githubusercontent.com/pastelito02/Challenges-sol/master/Programming/Codeabbey/064/istudent.go
https://raw.githubusercontent.com/pastelito02/Challenges-sol/master/Programming/Codeabbey/064/Hennes.hs
https://raw.githubusercontent.com/pastelito02/Challenges-sol/master/Programming/Codeabbey/064/phamhm.java
https://raw.githubusercontent.com/pastelito02/Challenges-sol/master/Programming/Codeabbey/064/asteriskman.js
https://raw.githubusercontent.com/pastelito02/Challenges-sol/master/Programming/Codeabbey/064/ayy_luamao.lua
https://raw.githubusercontent.com/pastelito02/Challenges-sol/master/Programming/Codeabbey/064/KOR_Ryat.php
https://raw.githubusercontent.com/pastelito02/Challenges-sol/master/Programming/Codeabbey/064/ferchoafta.py
https://raw.githubusercontent.com/pastelito02/Challenges-sol/master/Programming/Codeabbey/064/K_Jarema.rb
https://raw.githubusercontent.com/YetAnotherMinion/YAMScratch/master/CodeAbbey/rust-sol/src/64.rs
https://raw.githubusercontent.com/pastelito02/Challenges-sol/master/Programming/Codeabbey/064/bluknite.scala
https://raw.githubusercontent.com/pastelito02/Challenges-sol/master/Programming/Codeabbey/064/Guy-Gervais.vb
https://raw.githubusercontent.com/JesseClarkND/codeabbey_in_C-NET/master/Maze%20Pathfinder
