https://raw.githubusercontent.com/mementum/codeeval/master/02-medium/0197-column-names/0197-column-names.cpp
https://raw.githubusercontent.com/mpillar/codeeval/master/1-moderate/column-names/ColumnNames.java
https://raw.githubusercontent.com/StevenDunn/CodeEval/master/ColumnNames/py2/cn.py
