https://raw.githubusercontent.com/mementum/codeeval/master/02-medium/0043-jolly-jumpers/0043-jolly-jumpers.cpp
https://raw.githubusercontent.com/mpillar/codeeval/master/1-moderate/jolly-jumpers/JollyJumpers.java
https://raw.githubusercontent.com/pascal-bourut/codeeval-challenges/master/moderate/43%20-%20Jolly%20Jumpers/main.js
https://raw.githubusercontent.com/pascal-bourut/codeeval-challenges/master/moderate/43%20-%20Jolly%20Jumpers/main.php
https://raw.githubusercontent.com/mementum/codeeval/master/02-medium/0043-jolly-jumpers/0043-jolly-jumpers.py
