https://www.openbugbounty.org/reports/609415/
https://scrapbox.io/kayuminbou/alert_1337_to_win_level_3
https://diego.com.es/ataques-xss-cross-site-scripting-en-php
https://www.cnblogs.com/hack404/p/10387854.html
https://blog.xiaocaihua.cn/index.php/2019/08/30/xsschallenges/
https://www.itread01.com/content/1550310991.html
https://blog.csdn.net/weixin_30897079/article/details/97314476
