https://raw.githubusercontent.com/nayuki/Project-Euler-solutions/master/haskell/p073.hs
https://raw.githubusercontent.com/nayuki/Project-Euler-solutions/master/java/p073.java
https://raw.githubusercontent.com/nayuki/Project-Euler-solutions/master/python/p073.py
https://raw.githubusercontent.com/sile/euler.rs/master/euler_02/src/problem073.rs
