https://werewblog.wordpress.com/2016/01/15/pwnable-kr-shellshock/
https://www.youtube.com/watch?v=6S4A2nhHdWg
https://cysecguide.blogspot.com/2017/09/pwnablekr-memcpy-solution.html
https://www.youtube.com/watch?v=g1NYv3avSbU
https://rk700.github.io/2015/04/21/0ctf-freenote/
https://gist.githubusercontent.com/dialluvioso/e295c02c988041ba412f544e849f32ee/raw/98483c9a2c786eec6f427478e9a2e60372048043/pokedex.py
https://www.pwndiary.com/write-ups/angstrom-ctf-2018-rop-to-the-top-write-up-pwn120/
https://yous.be/2016/10/11/hitcon-ctf-2016-rop-write-up/
https://tcode2k16.github.io/blog/posts/picoctf-2018-writeup/binary-exploitation/#rop-chain
https://tcode2k16.github.io/blog/posts/picoctf-2018-writeup/binary-exploitation/#solution-10
