https://raw.githubusercontent.com/c650/hackerrank-solutions/master/Algorithms/Implementation/climbing-the-leaderboard.cpp
https://raw.githubusercontent.com/RyanFehr/HackerRank/master/Algorithms/Implementation/Climbing%20the%20Leaderboard/Solution.cs
https://raw.githubusercontent.com/charles-wangkai/hackerrank/master/climbing-the-leaderboard/Solution.java
https://raw.githubusercontent.com/RyanFehr/HackerRank/master/Algorithms/Implementation/Climbing%20the%20Leaderboard/Solution.js
https://raw.githubusercontent.com/danhenriquesc/hackerrank/master/algorithms/implementation/climbing_the_leaderboard.py
https://raw.githubusercontent.com/witekbobrowski/HackerRank/master/Algorithms/Implementation/climbing-the-leaderboard.swift
