https://www.youtube.com/watch?v=0B4PTU3jBfs
https://www.youtube.com/watch?v=a6pXTcW-Xo8
https://www.youtube.com/watch?v=GE2HyC7Gwrs
https://www.youtube.com/watch?v=fi0gOWC4C3w
https://www.youtube.com/watch?v=WakJ8ac03qs
https://hydrasky.com/network-security/php-code-injection/
https://n00bsecurityblog.wordpress.com/2018/05/11/php-code-injection/
https://teckk2.github.io/web-pentesting/2018/02/07/PHP-Code-Injection.html
https://underc0de.org/foro/dudas-generales-121/(solucionado)-bwapp-php-code-injection/
https://www.hackingarticles.in/server-side-injection-explotation-bwapp/
https://hackingplayground.com/php-code-injection/
https://www.cnblogs.com/hongren/p/7215322.html
