https://www.youtube.com/watch?v=Tm34i4OPisI
https://www.youtube.com/watch?v=o79Mlv9dROc
https://www.youtube.com/watch?v=ww8E_Ze8jv4
https://www.youtube.com/watch?v=3nXTMb_4e6c
https://www.youtube.com/watch?v=lcO1BTNh8r8
https://www.youtube.com/watch?v=85MpClJ-acE
https://www.youtube.com/watch?v=YkB8_GsrX0c
https://www.youtube.com/watch?v=h69UYuCYWP8
https://taind.wordpress.com/2017/12/31/root-me-nosql-injection-authentication/
