https://raw.githubusercontent.com/phuclevinh2000/CodeAbbey/master/Body%20Mass%20Index.c
https://raw.githubusercontent.com/pastelito02/Challenges-sol/master/Programming/Codeabbey/028/ilyakovalevk.cc
https://raw.githubusercontent.com/spokenlore/CodeAbbey/master/Beginner/11.%20BMI/BMI.cpp
https://raw.githubusercontent.com/aschutgh/CodeAbbey/master/ProblemN28BodyMassIndex/Program.cs
https://raw.githubusercontent.com/pastelito02/Challenges-sol/master/Programming/Codeabbey/028/Ratzenfutz.d
https://raw.githubusercontent.com/pastelito02/Challenges-sol/master/Programming/Codeabbey/028/siloimwald.fs
https://raw.githubusercontent.com/javilag/codeAbbeyChalls/master/Challs/Go/028.go
https://raw.githubusercontent.com/pastelito02/Challenges-sol/master/Programming/Codeabbey/028/vladilen87.hs
https://raw.githubusercontent.com/meganroche/CodeAbbeySolutions/master/Java/BMI.java
https://raw.githubusercontent.com/pastelito02/Challenges-sol/master/Programming/Codeabbey/028/emoshkovich.jl
https://raw.githubusercontent.com/DylanLenz/codeAbbey_Solutions_JavaScript/master/bMICalculator_codeAbbey_28.js
https://raw.githubusercontent.com/chriswood/codeabbey/master/ca11.lisp
https://raw.githubusercontent.com/pastelito02/Challenges-sol/master/Programming/Codeabbey/028/atercattus.lua
https://raw.githubusercontent.com/pastelito02/Challenges-sol/master/Programming/Codeabbey/028/stefan.schmiedl.ml
https://raw.githubusercontent.com/mpeshehonov/Codeabbey/master/practice/%2328/index.php
https://raw.githubusercontent.com/pastelito02/Challenges-sol/master/Programming/Codeabbey/028/pearl_barley.pl
https://raw.githubusercontent.com/vinitkantrod/codeabbey-Solutions-in-Python/master/11_body_mass_index.py
https://raw.githubusercontent.com/marclerodrigues/ruby_exercises/master/body_mass_index.rb
https://raw.githubusercontent.com/pastelito02/Challenges-sol/master/Programming/Codeabbey/028/JustWaiting.rs
https://raw.githubusercontent.com/mmcdon20/code_abbey/master/src/main/scala/Abbey028.scala
https://raw.githubusercontent.com/pastelito02/Challenges-sol/master/Programming/Codeabbey/028/Genek_proger.vb
https://raw.githubusercontent.com/JesseClarkND/codeabbey_in_C-NET/master/Body%20Mass%20Index
