https://raw.githubusercontent.com/pastelito02/Challenges-sol/master/Programming/Codeabbey/055/aplavrov.cc
https://raw.githubusercontent.com/gravoo/codeabbey/master/Matching%20Words%20.cpp
https://raw.githubusercontent.com/AleksandrSD/CodeAbbeyProblems/master/Problem55/Program.cs
https://raw.githubusercontent.com/pastelito02/Challenges-sol/master/Programming/Codeabbey/055/Ratzenfutz.d
https://raw.githubusercontent.com/pastelito02/Challenges-sol/master/Programming/Codeabbey/055/istudent.go
https://raw.githubusercontent.com/pastelito02/Challenges-sol/master/Programming/Codeabbey/055/wargarbl.hs
https://raw.githubusercontent.com/KlaudioVito/CodeAbbey/master/MatchingWords.java
https://raw.githubusercontent.com/martincruzot/er-generator/gh-pages/js/app.js
https://raw.githubusercontent.com/pastelito02/Challenges-sol/master/Programming/Codeabbey/055/gerhardt_funk.lisp
https://raw.githubusercontent.com/pastelito02/Challenges-sol/master/Programming/Codeabbey/055/memstick.lua
https://raw.githubusercontent.com/pastelito02/Challenges-sol/master/Programming/Codeabbey/055/pchelkin.php
https://raw.githubusercontent.com/pastelito02/Challenges-sol/master/Programming/Codeabbey/055/pearl_barley.pl
https://raw.githubusercontent.com/ValeWasTaken/CodeAbbey_Solutions/master/Python/id055-Matching_Words.py
https://raw.githubusercontent.com/pastelito02/Challenges-sol/master/Programming/Codeabbey/055/OneohThreeE.rb
https://raw.githubusercontent.com/mmcdon20/code_abbey/master/src/main/scala/Abbey055.scala
https://raw.githubusercontent.com/pastelito02/Challenges-sol/master/Programming/Codeabbey/055/Guy-Gervais.vb
