https://www.youtube.com/watch?v=75_HM6h_T-s
https://www.youtube.com/watch?v=jK4AaeEzgjg
https://www.youtube.com/watch?v=BEtr8l0kBdA&t=2s
https://www.youtube.com/watch?v=RItmoDlvLKE
https://www.youtube.com/watch?v=V79Dp7i4LRM
https://www.youtube.com/watch?v=-Z9qhqOGyNk
https://www.youtube.com/watch?v=Z0YjNdoOuv8
https://www.youtube.com/watch?v=FvqI8x2QBGc
https://www.youtube.com/watch?v=xZzVAfKj4Go&t=2s
https://www.youtube.com/watch?v=7H1L2y8z3hI&t=2s
https://github.com/WebGoat/WebGoat-Legacy/blob/master/src/main/webapp/lesson_solutions_1/ReflectedXSS.html
https://www.youtube.com/watch?v=I6IInw7wjQs
https://www.youtube.com/watch?v=u6jZBK5oS6c
https://www.youtube.com/watch?v=S2Y-KKB4njk
http://sweet.ua.pt/andre.zuquete/Aulas/Seguranca/14-15/docs/Ex2.pdf
http://shubhamhacker.blogspot.com/2018/02/walkthrough-hello-guys-this-is-shubham.html
https://gist.github.com/tylernchls/97f8e2e907c84cfdc908c6f0fced1ddc
https://gist.github.com/tylernchls/97f8e2e907c84cfdc908c6f0fced1ddc#xss-reflected
https://github.com/WebGoat/WebGoat/wiki/(Almost)-Fully-Documented-Solution-(en)
