https://github.com/rapid7/metasploitable3/wiki/Vulnerabilities
https://www.youtube.com/watch?v=VYBd5DE5HAI
https://www.hackingarticles.in/metasploitable-3-exploitation-using-brute-forcing-ssh/
https://securityonline.info/metasploitable3-ssh-bruteforce/
https://www.youtube.com/watch?v=RAMVOHsLJMk&list=PLZOToVAK85MpnjpcVtNMwmCxMZRFaY6mT&index=15&t=0s
https://kakyouim.hatenablog.com/entry/2020/02/16/213616
https://charlesreid1.com/wiki/Metasploitable/SSH/Brute_Force
https://www.youtube.com/watch?v=6otNDIzdDnQ
