https://www.youtube.com/watch?v=_5lCVUfC0jw&feature=youtu.be&t=13s
https://www.youtube.com/watch?v=JtXeD9pNznA&feature=youtu.be&t=1m20s
https://raw.githubusercontent.com/pastelito02/Challenges-sol/master/canyouhackit/Web/Solution03.lst
