https://www.youtube.com/watch?v=gsFvoCLy8Kk&t=29s
https://github.com/Macmod/pwnable-writeups/blob/master/toddlers/leg.md
https://gist.github.com/ihciah/0ca68da3e32e38818bb9#8-leg
https://jeonyoungsin.tistory.com/917?category=878012
