https://computersecuritystudent.com/SECURITY_TOOLS/DVWA/DVWAv107/lesson8/index.html
http://www.hackingarticles.in/hack-file-upload-vulnerability-dvwa-bypass-security/
https://github.com/sheimo/DVWA-Answers#file-inclusion
https://www.homelab.it/index.php/2016/03/02/dvwa-file-upload-soluzione-completa/index.html
https://redinfocol.org/dvwa-conociendo-y-explotando-diferentes-vulnerabilidades-level-low/
https://www.youtube.com/watch?v=_QyGCev6fCk
https://www.youtube.com/watch?v=3svFIg4_Xzs&t=0s&list=PLYG-FZ4DA0VpYLEoDWou8pu3xEyI5N-N2&index=5
https://www.youtube.com/watch?v=kCqw4Jdrcuw&index=5&list=PLZUQcQP4Xtlp64Q6tzw8GdLsOweBsKDSs
https://pentestlab.blog/2012/11/19/abusing-file-upload/
https://youtu.be/7lU1mR2Mzaw
https://www.youtube.com/watch?v=o-oScQQarQs
https://www.youtube.com/watch?v=XHH7MQXPL4g
https://www.youtube.com/watch?v=GFVxpAvJ_lM
https://www.youtube.com/watch?v=prtGuosSUk8
https://www.youtube.com/watch?v=E-4t_eAZNZM
https://www.youtube.com/watch?v=SjjPZyhY46w
https://www.youtube.com/watch?v=yhxCKphFeSM
https://www.youtube.com/watch?v=R_afVZsC9NQ
https://www.youtube.com/watch?v=8-LdJZ8y3MI
https://www.youtube.com/watch?v=0ypWwO-f3Ms
https://drive.google.com/open?id=1h3RMRiQT_lRW840fuVV5PBtO1oFJ0jNx
https://drive.google.com/open?id=15ACf1obtpZ1yUH1D1imDilpSKTgEqpLK
https://raw.githubusercontent.com/sheimo/DVWA-Answers/master/README.md
https://raw.githubusercontent.com/keewenaw/dvwa-guide-2019/master/medium/Challenge%2005%3A%20File%20Upload.md
