https://github.com/CyrilP/ThisisLegal
https://www.youtube.com/watch?v=pzt3b1D1Z8Q
https://www.youtube.com/watch?v=s68MrtqMFr8
https://null-byte.wonderhowto.com/news/goodnight-byte-hackthissite-realistic-1-real-hacking-simulations-0132921/
https://www.youtube.com/watch?v=MG0LPZFs9BI
http://juancho056.blogspot.com/search/label/Challenge%201
https://raw.githubusercontent.com/shrv/ThisIsLegal/master/README.md
