https://github.com/ARBCTF/writeups/tree/master/Ghost%20in%20the%20Shellcode/Knockers
https://raw.githubusercontent.com/ctfs/write-ups-2015/master/ghost-in-the-shellcode-2015/crypto/knockers/README.md
https://cryto.wordpress.com/2015/02/21/writeup-ghost-in-the-shellcode-2015-crypto-150-knockers/
https://blog.skullsecurity.org/2015/gits-2015-knockers-py-hash-extension-vulnerability
https://github.com/spnow/writeups-1/tree/master/Ghost%20in%20the%20Shellcode/Knockers
