https://raw.githubusercontent.com/pascal-bourut/codeeval-challenges/master/hard/126%20-%20Play%20with%20DNA/126.js
https://raw.githubusercontent.com/pascal-bourut/codeeval-challenges/master/hard/126%20-%20Play%20with%20DNA/126.php
https://raw.githubusercontent.com/mpillar/codeeval/master/2-hard/playing-with-dna/main.py
