https://github.com/apox64/OWASP-Juice-Shop-Write-Up/blob/master/juice-shop-writeup.md#20-place-an-order-that-makes-you-rich
https://github.com/bkimminich/pwning-juice-shop/blob/master/appendix/solutions.md#place-an-order-that-makes-you-rich
https://github.com/bsqrl/juice-shop-walkthrough#12-get-rid-of-all-5-star-customer-feedback
https://incognitjoe.github.io/hacking-the-juice-shop.htmlhttps://github.com/bsqrl/juice-shop-walkthrough#16-place-an-order-that-makes-you-rich
http://m4l1ce.me/writeups/2017/01/09/juice-shop.html
https://n0j.github.io/2018/08/07/owasp-juice-shop-v7.3.0-level-3.html
