https://www.youtube.com/watch?v=7-MfitrI7iQ
https://www.youtube.com/watch?v=Twwb3ZtU9Wk
https://www.youtube.com/watch?v=7aGe3_bOC90
https://www.youtube.com/watch?v=eNVclBb-mpo
https://www.youtube.com/watch?v=5UycFLdmTKs
https://www.youtube.com/watch?v=7przUs5UYbE

