https://raw.githubusercontent.com/Gamer1092/Coderbyte/Easy/Second%20GreatLow.cpp
https://raw.githubusercontent.com/Nigelmnz/CoderbyteSolutions/master/19-SecondGreatLow/19.hs
https://raw.githubusercontent.com/TheAaronCovington/Java-Coderbyte-Solutions/master/19SecondGreatLow.java
https://raw.githubusercontent.com/ZLester/Coderbyte-Solutions/master/Easy/19%20-%20Second%20GreatLow.js
https://raw.githubusercontent.com/90capsules/90capsules_coderbyte/master/SecondGreatLow.rb
https://raw.githubusercontent.com/designerGenes/CoderbyteInSwift/master/SecondGreatLow/SecondGreatLow.playground/Contents.swift
