https://www.hackingarticles.in/dc-9-vulnhub-walkthrough/
https://medium.com/infosec-adventures/dc-9-walkthrough-c2afeaa1466a
https://blog.mzfr.me/vulnhub-writeups/2019-12-25-DC9
https://ethicalhackingguru.com/dc-9-vulnhub-tutorial/
https://hack-tips.com/2020/01/26/vulnhub-dc-9-walkthrough/
https://www.peerlyst.com/posts/cyberfeminist-hacker-dc9-walkthrough-or-vulnhub-magda-chelly-ph-d
https://programmersought.com/article/58664367669/
https://blog.csdn.net/weixin_44214107/article/details/103977331
https://paraskapoor.in/hacking-articles/dc-9-vulnhub-walkthrough/
https://raw.githubusercontent.com/mzfr/vulnhub-writeups/master/2019-12-25-DC9.md
https://www.jianshu.com/p/551f5463063d
https://www.shuzhiduo.com/A/obzbQK30dE/
https://www.secshi.com/40159.html
http://blackhatsecdevteam.blogspot.com/2020/01/dc-9-vulnhub-walkthrough.html
