https://pentester.land/challenge/2018/07/10/owasp-broken-web-apps-owasp-bricks-challenge-walkthrough.html#content-2
https://sechow.com/bricks/docs/content-page-2.html
https://www.youtube.com/watch?v=7TkRBREYn6Y
https://youtu.be/UvgmaiT8n9E