https://alexandervoidstar.wordpress.com/2015/08/15/hackthis-basic-level-7/
https://www.youtube.com/watch?v=Tg1Csf3FLLI
https://www.youtube.com/watch?v=VYhK6K37qy0
https://www.youtube.com/watch?v=0fjwJoLx8FM
https://www.youtube.com/watch?v=0b57H0hcgrE
https://www.youtube.com/watch?v=KSfiOo942N4
https://raw.githubusercontent.com/luceatnobis/challenges/master/hackthis.co.uk/basic/7/notes
