https://www.youtube.com/watch?v=ePl_nmLgWV4
https://www.youtube.com/watch?v=9cywuObciPk
http://www.grobinson.me/hack-this-site-realistic-6/
https://hackthissitesoltution.wordpress.com/2012/03/08/hts-realistic-mission-6/
http://www.gensale.net/hts-realistic-level-6/
http://sp4hack.blogspot.com/2012/09/hack-this-site-realistic-6.html
https://www.youtube.com/watch?v=ZQmT7ZBEgnY
https://www.aldeid.com/wiki/Hackthissite/Realistic/Level6
http://zer0byte.com/2011/11/14/hackthissite-org-realistic-mission-1-%E2%80%93-16-walk-throughs/
