https://www.youtube.com/watch?v=fpz0WjCiA3w
https://www.youtube.com/watch?v=TRplSLNHHb8
https://www.youtube.com/watch?v=nW6-gPcsXSE
https://hackthissitesoltution.wordpress.com/2012/03/07/hts-basic-missions-1-6/
http://sp4hack.blogspot.com/2012/09/hack-this-site-basic-6.html
http://crackandsecure.blogspot.com/2011/04/hack-this-site-hts-basic-6.html
https://es.slideshare.net/ciskosv/hackthissite-3402645
https://blog.abhishekg.com/2011/12/basic-6-decrpyt-an-encryption/
https://raw.githubusercontent.com/Wh1t3Fox/hackthissite/master/basic/level_6/decrypt.py
https://www.aldeid.com/wiki/Hackthissite/Basic/Level6
https://truemiller.com/hack-this-site-all-basic-solutions#basic_6
https://github.com/attilathedud/HackThisSite/tree/master/Basic
https://www.youtube.com/watch?v=OBlFhh3u1ic&list=PL38E72D34562DC6A8&index=6
https://github.com/divyanshusahu/HackThisSite/tree/master/Basic#mission-6
https://www.unknowncheats.me/forum/other-mmorpg-and-strategy/46386-hack-site-solutions.html
