https://raw.githubusercontent.com/DavidWittman/cryptopals-challenge/master/set5/40.go
https://raw.githubusercontent.com/ilchen/cryptopals/master/src/main/java/com/cryptopals/Set5.java
https://raw.githubusercontent.com/lt/php-cryptopals/master/Cryptopals/Set5/Challenge40/Solution40.php
https://raw.githubusercontent.com/akalin/cryptopals-python3/master/challenge40.py
https://raw.githubusercontent.com/technion/matasano_challenge/master/set5/chal40/chal40.rb
