https://mrh4sh.github.io/teuchter-solution
http://www.mrb3n.com/?p=423
https://5h4d0wb0y.github.io/2017-05-24-teuchter-0.3/
https://www.hackingarticles.in/hack-the-teuchter-vm-ctf-challenge/
https://www.peerlyst.com/posts/how-to-break-into-teuchter-0-3-machine-ctf-writeup-spirited-wolf
