https://raw.githubusercontent.com/zyjsuper/root-me-4/master/Web-Server/HTTP%20Cookies
https://bitbelle.wordpress.com/2018/01/10/root-me-web-server-challenge-solutions/
https://jeonyoungsin.tistory.com/292
https://www.youtube.com/watch?v=WPvr1d8xXtA
https://raw.githubusercontent.com/RomaniukVadim/wargaming-challenges/master/RootMe/web-server/HTTP-cookies.txt
