https://www.youtube.com/watch?v=FkxdyQ5KJKs
https://hackso.me/gemini-inc-1-walkthrough/
https://www.youtube.com/watch?v=s7EzCdp4uZE
https://www.youtube.com/watch?v=num4FuCRImA
https://scriptkidd1e.wordpress.com/geminiinc-v1-vm-walkthrough/
https://d7x.promiselabs.net/category/walkthrough/
https://www.linkedin.com/pulse/hack-gemini-inc-ctf-challenge-raj-chandel
https://kongwenbin.com/write-up-for-gemini-inc-1/
https://www.itsecuritynews.info/gemini-inc-vulnhub-ctf-hacking-challenge/
https://www.hackingarticles.in/hack-the-gemini-inc2-ctf-challenge/
https://pentestmag.com/write-up-for-gemini-inc-1/
http://devloop.users.sourceforge.net/index.php?article157/solution-du-ctf-gemini-inc-1-de-vulnhub
https://xz.aliyun.com/t/2902
