https://raw.githubusercontent.com/Cheshulko/Algorithms/master/Leetcode/ContainerWithMostWater.cpp
https://raw.githubusercontent.com/Rikin04/leetcode/master/0011.container-with-most-water/container-with-most-water.java
https://raw.githubusercontent.com/aylei/leetcode-rust/master/src/solution/s0011_container_with_most_water.rs
