https://raw.githubusercontent.com/zyjsuper/root-me-4/master/Web-Server/Improper%20Redirect
https://www.youtube.com/watch?v=VZrMNBHVHs8
https://jeonyoungsin.tistory.com/193
https://bitbelle.wordpress.com/2018/01/10/root-me-web-server-challenge-solutions/
