https://cysecguide.blogspot.com/2018/04/root-me-write-up-elf-x64-stack-buffer.html
https://raw.githubusercontent.com/Hadopire/Root-me-App-Systeme/master/ELF32-Stack_buffer_overflow_basic_1/ELF32-Stack_buffer_overflow_basic_1.sh
https://raw.githubusercontent.com/s1syphu5/RootMe-Challenges/master/System/ELF%20x64%20-%20Stack%20buffer%20overflow%20-%20basic/README.md
https://dev.to/denisnutiu/root-me-exploitme-basic-buffer-overflow-4l1e
https://raw.githubusercontent.com/ngoctint1lvc/rootme-app-system/master/elfx64-stack-buffer-overflow-basic/readme.md
https://www.youtube.com/watch?v=Zzzfjxwn6t4
https://myiknowledge.blogspot.com/2017/06/havering-about-stack-buffer-overflow.html
https://s0ngsari.tistory.com/entry/Stack-buffer-overflow-basic-6
https://mandu-mandu.tistory.com/226
https://dokhakdubini.tistory.com/60
https://ii4gsp.tistory.com/116
https://beom1009.tistory.com/19
http://showlinkroom.me/2017/11/20/Root-me-App-System01/
https://blog.knapsy.com/blog/2018/08/05/filevault-ctf-challenge-elf-x64-buffer-overflow/
