https://raw.githubusercontent.com/ysmolsky/cryptopals-matasano-solutions/master/29/main.go
https://raw.githubusercontent.com/ilchen/cryptopals/master/src/main/java/com/cryptopals/Set4.java
https://raw.githubusercontent.com/lt/php-cryptopals/master/Cryptopals/Set4/Challenge29/Solution29.php
https://raw.githubusercontent.com/akalin/cryptopals-python3/master/challenge29.py
https://raw.githubusercontent.com/technion/matasano_challenge/master/set4/chal29/chal29.rb
https://raw.githubusercontent.com/Daeinar/cryptopals/master/src/c29.rs
