https://raw.githubusercontent.com/7794012167/AppleAndOrange_hackerrank/master/apple.c
https://raw.githubusercontent.com/c650/hackerrank-solutions/master/Algorithms/Implementation/apple-and-orange.cpp
https://raw.githubusercontent.com/RyanFehr/HackerRank/master/Algorithms/Implementation/Apple%20and%20Orange/Solution.cs
https://raw.githubusercontent.com/irlndts/go-hackerrank/master/algorithms/implementation/apple-and-orange.go
https://raw.githubusercontent.com/RyanFehr/HackerRank/master/Algorithms/Implementation/Apple%20and%20Orange/Solution.java
https://raw.githubusercontent.com/RyanFehr/HackerRank/master/Algorithms/Implementation/Apple%20and%20Orange/Solution.js
https://raw.githubusercontent.com/joshuatvernon/coding-challenges/master/Hackerrank/Algorithms/Implementation/02.%20Apple%20and%20Orange/apple-and-orange.py
https://raw.githubusercontent.com/raghav97/Hackerrank-Solutions/master/apple_and_orange.rb
https://raw.githubusercontent.com/witekbobrowski/HackerRank/master/Algorithms/Implementation/apple-and-orange.swift
