https://raw.githubusercontent.com/zjsxzy/HackerRank/master/Algorithms/Dynamic%20Programming/Angry%20Children%202/main.cpp
https://raw.githubusercontent.com/ssmehta/programming-challanges/master/hackerrank/algorithms/angry-children-2/angry-children-2.py
https://raw.githubusercontent.com/garyemerson/angry_children_2/master/src/main.rs
