https://raw.githubusercontent.com/zyjsuper/root-me-4/master/Web-Server/Remote%20File%20Inclusion
https://rootable.tistory.com/entry/Rootme-Remote-File-Inclusion
https://mhomshowpro.wordpress.com/2016/09/03/write-uproot-me-remote-file-inclusion/
https://www.cnblogs.com/joy-nick/p/5569494.html
https://blog.silnex.kr/level-22root-me-remote-file-inclusion/
https://zhiliudi.blogspot.com/2017/03/root-me-web-serveur-all-raiders.html
https://jeonyoungsin.tistory.com/199
https://raw.githubusercontent.com/RomaniukVadim/wargaming-challenges/master/RootMe/web-server/RFI.txt
