https://github.com/akanshgulati/XSS-Challenges#level-1-hello-world-of-xss
https://youtu.be/nEP4h9JQJD8?t=8s
https://www.youtube.com/watch?v=3r2xZWWZlmg
https://www.youtube.com/watch?v=EFr9jxo-vCw
https://www.youtube.com/watch?v=yPlk5viRBbs
https://www.youtube.com/watch?v=e-FYvFWfNuM
http://blog.dornea.nu/2014/06/02/googles-xss-game-solutions/#5afaf1679ad0887adebaddb40e0bd3f7
https://gist.github.com/pbssubhash/2f99644a4f24e8fe6b3e
https://gist.github.com/djadmin/737a77b87d0bad8a9c79
https://gist.github.com/adriaandens/722383ba4c717baf8007#level-1-hello-world-of-xss
https://gist.github.com/antoinebrl/f7b4d7a1b4465a739d8b#level-1-hello-world-of-xss
https://gist.github.com/JannisKirschner/947b6d48058e2e2be17ec87436974b14
https://gist.github.com/Arinerron/19d75c81bcff5622bf6d4f2ff8e3829d
https://www.doyler.net/security-not-included/google-xss-game
http://www.behindthefirewalls.com/2014/06/xss-game-by-google-exercises-1-2-and-3.html
https://h4ck3rprotocol.wordpress.com/2015/06/11/answers-for-xss-game/
http://xss-game-solved.blogspot.com/2014/06/xss-game-level-1-solution.html
https://www.malc0de.org/complete-solution-to-xss-game-by-google-to-practice-xss/
https://blog.birkhoff.me/google-xss-game-solutions/
http://offsec-sureshatt.blogspot.com/2017/04/google-xss-game-solving-level-1.html
https://www.youtube.com/watch?v=bsUfuazU5Nc
http://paulsec.github.io/blog/2014/06/02/diving-into-xss-googles-game/
https://youtu.be/OOLz5kgKwmg?t=24s
https://github.com/arsho/xss_game#level-1-hello-world-of-xss
https://youtu.be/ReHDfN0w0qA
https://gist.github.com/Harshish/2b2446b4f04aa05306913b730b5ba68d
https://tinyurl.com/y5yhcq6u
https://www.coursehero.com/file/p3d068u/Problem-2-XSS-The-Game-20-points-Visit-httpsxss-gameappspotcom-and-complete-the/
https://luckyhackscode.blogspot.com/2017/08/the-solution-to-google-xss-game.html
https://ksm.sh/blog/5
https://cyberlabonline.wordpress.com/tag/xss-game-level-5/
https://news.ycombinator.com/item?id=13021869
https://getlink.pro/v/yPlk5viRBbs
https://getlink.pro/v/d0HO1J1pH5o
https://getlink.pro/v/ReHDfN0w0qA
https://harpreetsinghpassi.wordpress.com/2016/09/08/xss-game/
https://raw.githubusercontent.com/sourabhv/xss-game-appspot/master/README.md
https://jeonyoungsin.tistory.com/478?category=815285
https://www.youtube.com/watch?v=a4Lnp7UU58M
http://xss-game-solved.blogspot.com/
https://medium.com/bugdecoder/google-xss-game-walkthrough-70d801dd922
