https://raw.githubusercontent.com/aviaryan/competitive/master/codeforces/515B_drazil_happy.c
https://raw.githubusercontent.com/Waqar-107/Codeforces/master/B-set/515B.%20Drazil%20and%20His%20Happy%20Friends.cpp
https://raw.githubusercontent.com/o-panda-o/MySolutions/master/Implementation/Code_515B_DrazilAndHisHappyFriends.java
