https://raw.githubusercontent.com/pastelito02/Challenges-sol/master/Programming/codewars/grasshopper-grade-book/4eJloBeK.c
https://raw.githubusercontent.com/pastelito02/Challenges-sol/master/Programming/codewars/grasshopper-grade-book/eLCiao.cc
https://raw.githubusercontent.com/pastelito02/Challenges-sol/master/Programming/codewars/grasshopper-grade-book/kwartke.coffee
https://raw.githubusercontent.com/pastelito02/Challenges-sol/master/Programming/codewars/grasshopper-grade-book/eLCiao.cpp
https://raw.githubusercontent.com/pastelito02/Challenges-sol/master/Programming/codewars/grasshopper-grade-book/kwartke.cr
https://raw.githubusercontent.com/pastelito02/Challenges-sol/master/Programming/codewars/grasshopper-grade-book/zelu861.cs
https://raw.githubusercontent.com/pastelito02/Challenges-sol/master/Programming/codewars/grasshopper-grade-book/javoc.dart
https://raw.githubusercontent.com/pastelito02/Challenges-sol/master/Programming/codewars/grasshopper-grade-book/EverardoBD.ex
https://raw.githubusercontent.com/pastelito02/Challenges-sol/master/Programming/codewars/grasshopper-grade-book/EverardoBD.exs
https://raw.githubusercontent.com/pastelito02/Challenges-sol/master/Programming/codewars/grasshopper-grade-book/Unnamed.go
https://raw.githubusercontent.com/pastelito02/Challenges-sol/master/Programming/codewars/grasshopper-grade-book/LinuxUser404.hs
https://raw.githubusercontent.com/pastelito02/Challenges-sol/master/Programming/codewars/grasshopper-grade-book/invent.java
https://raw.githubusercontent.com/pastelito02/Challenges-sol/master/Programming/codewars/grasshopper-grade-book/USK.jl
https://raw.githubusercontent.com/pastelito02/Challenges-sol/master/Programming/codewars/grasshopper-grade-book/martinss.js
https://raw.githubusercontent.com/pastelito02/Challenges-sol/master/Programming/codewars/grasshopper-grade-book/BlankThird.php
https://raw.githubusercontent.com/pastelito02/Challenges-sol/master/Programming/codewars/grasshopper-grade-book/talbx.pro
https://raw.githubusercontent.com/pastelito02/Challenges-sol/master/Programming/codewars/grasshopper-grade-book/Fogman.py
https://raw.githubusercontent.com/pastelito02/Challenges-sol/master/Programming/codewars/grasshopper-grade-book/ahaygood86.r
https://raw.githubusercontent.com/pastelito02/Challenges-sol/master/Programming/codewars/grasshopper-grade-book/Eliana.rb
https://raw.githubusercontent.com/pastelito02/Challenges-sol/master/Programming/codewars/grasshopper-grade-book/Russell405.re
https://raw.githubusercontent.com/pastelito02/Challenges-sol/master/Programming/codewars/grasshopper-grade-book/vfdavis.ts
