https://raw.githubusercontent.com/leeychee/hackerrank/master/practice/algorithms/dynamic_programming/fibonacci_modified/main.go
https://raw.githubusercontent.com/Transfusion/hackerrank-solutions/master/Functional%20Programming%3A%20Warmups%20in%20Recursion%20-%20Fibonacci%20Numbers/fibonacci.hs
https://raw.githubusercontent.com/BlakeBrown/HackerRank-Solutions/master/Algorithms/Dynamic%20Programming/Fibonacci%20Modified.java
https://raw.githubusercontent.com/raghav97/Hackerrank-Solutions/master/fibonacci_modified.rb
