https://eveaboutcom.tistory.com/24
https://hoeveiligismijn.website/picoCTF_onlywebexploitation.html
https://medium.com/@yotsawangs/%E0%BB%81%E0%BA%81%E0%BB%89%E0%BB%82%E0%BA%88%E0%BA%94-picoctf-2019-web-exploitation-part-2-cc2a4d2e4197
https://raw.githubusercontent.com/0e85dc6eaf/CTF-Writeups/master/PicoCTF%202019/Web%20Exploitation/where%20are%20the%20robots/README.md
https://www.reddit.com/r/picoCTF/comments/dab7ds/just_started_the_2019_ctf_anyone_interested_in/
https://qiita.com/CTFman/items/f37267ffb63ddf0e0dbc
https://tcode2k16.github.io/blog/posts/picoctf-2019-writeup/general-skills/
https://www.youtube.com/watch?v=k8UC3X-1DRo
https://www.youtube.com/watch?v=vBm_Ds2mmQk
https://250.ac.cn/2019/09/28/2019-PicoCTF-WriteUp/
https://cyberchallenge.unica.it/index.php/2019/10/14/web-client-side-again/
