https://raw.githubusercontent.com/mpillar/codeeval/master/2-hard/repeated-substring/RepeatedSubstring.java
https://raw.githubusercontent.com/pascal-bourut/codeeval-challenges/master/hard/53%20-%20Repeated%20Substring/53.js
https://raw.githubusercontent.com/pascal-bourut/codeeval-challenges/master/hard/53%20-%20Repeated%20Substring/53.php
https://raw.githubusercontent.com/mementum/codeeval/master/03-hard/0053-repeated-substring/0053-repeated-substring.py
https://raw.githubusercontent.com/antarr/CodeEval-Solutions/master/hard/repeatedsubstring.rb
