https://raw.githubusercontent.com/spokenlore/CodeAbbey/master/Beginner/18.%20modArithmetic/modArithmetic.cpp
https://raw.githubusercontent.com/Tempurturtul/CodeAbbey/master/C%23/ModularCalculator.cs
https://raw.githubusercontent.com/skilled19/sols/master/harv/codeabbey-14-modular-calculator.fs
https://raw.githubusercontent.com/skilled19/sols/master/harv/codeabbey-14-modular-calculator.go
https://raw.githubusercontent.com/meganroche/CodeAbbeySolutions/master/Java/ModularCalc.java
https://raw.githubusercontent.com/skilled19/sols/master/harv/codeabbey-14-modular-calculator.jl
https://raw.githubusercontent.com/McQuinTrix/CodeAbbey/master/14.%20Modular_Calculator.js
https://raw.githubusercontent.com/chriswood/codeabbey/master/caid14.lisp
https://raw.githubusercontent.com/skilled19/sols/master/harv/codeabbey-14-modular-calculator.lua
https://raw.githubusercontent.com/colombianoXD/fluid/02cb0bd669b3f7015a28485e78840c319960963d/challenges/codeabbey/014/john2104.ml
https://raw.githubusercontent.com/skilled19/sols/master/harv/codeabbey-14-modular-calculator.php
https://raw.githubusercontent.com/skilled19/sols/master/harv/codeabbey-14-modular-calculator.pl
https://raw.githubusercontent.com/John-Russell/CodeAbbey/master/Modular%20Calculator.rb
https://raw.githubusercontent.com/mmcdon20/code_abbey/master/src/main/scala/Abbey014.scala
https://raw.githubusercontent.com/skilled19/sols/master/harv/codeabbey-14-modular-calculator.vb
https://raw.githubusercontent.com/JesseClarkND/codeabbey_in_C-NET/master/Modular%20Calculator
