https://www.youtube.com/watch?v=HLaLaqo-dKA
https://www.youtube.com/watch?v=m0EHlfTgGUU
https://www.youtube.com/watch?v=sibzEmCSNA4
https://www.youtube.com/watch?v=p3vz5pvf5fs
https://www.youtube.com/watch?v=uvhmLy3ZUqs
https://www.youtube.com/watch?v=bkmJk2mbiL8
https://www.youtube.com/watch?v=5OuG4DbiL-8
https://www.youtube.com/watch?v=m5VRnm3N_K0
https://www.youtube.com/watch?v=v91kgSzJKRE
https://www.youtube.com/watch?v=AhqdeMYh78U

