https://hackthissitesoltution.wordpress.com/2011/01/13/extbasic-missions/
http://sithlab.tistory.com/1334
http://c6h4cl2.lab.uy.to/1334
https://github.com/attilathedud/HackThisSite/tree/master/ExtBasic
